<?xml version="1.0" encoding="UTF-8" standalone="no"?>
<!-- Created with Inkscape (http://www.inkscape.org/) -->

<svg
   xmlns:dc="http://purl.org/dc/elements/1.1/"
   xmlns:cc="http://creativecommons.org/ns#"
   xmlns:rdf="http://www.w3.org/1999/02/22-rdf-syntax-ns#"
   xmlns:svg="http://www.w3.org/2000/svg"
   xmlns="http://www.w3.org/2000/svg"
   xmlns:xlink="http://www.w3.org/1999/xlink"
   xmlns:sodipodi="http://sodipodi.sourceforge.net/DTD/sodipodi-0.dtd"
   xmlns:inkscape="http://www.inkscape.org/namespaces/inkscape"
   version="1.1"
   id="svg2"
   width="256"
   height="256"
   viewBox="0 0 256 256"
   sodipodi:docname="Ethercalc.svg"
   inkscape:version="0.92.1 r15371"
   inkscape:export-filename="/home/lise/Bureau/chatns/Ethercalc.png"
   inkscape:export-xdpi="240"
   inkscape:export-ydpi="240">
  <metadata
     id="metadata8">
    <rdf:RDF>
      <cc:Work
         rdf:about="">
        <dc:format>image/svg+xml</dc:format>
        <dc:type
           rdf:resource="http://purl.org/dc/dcmitype/StillImage" />
        <dc:title></dc:title>
      </cc:Work>
    </rdf:RDF>
  </metadata>
  <defs
     id="defs6" />
  <sodipodi:namedview
     pagecolor="#ffffff"
     bordercolor="#666666"
     borderopacity="1"
     objecttolerance="10"
     gridtolerance="10"
     guidetolerance="10"
     inkscape:pageopacity="0"
     inkscape:pageshadow="2"
     inkscape:window-width="1360"
     inkscape:window-height="713"
     id="namedview4"
     showgrid="false"
     inkscape:zoom="1.84375"
     inkscape:cx="11.881332"
     inkscape:cy="75.74562"
     inkscape:window-x="0"
     inkscape:window-y="0"
     inkscape:window-maximized="1"
     inkscape:current-layer="svg2" />
  <image
     width="256"
     height="256"
     preserveAspectRatio="none"
     xlink:href="data:image/png;base64,iVBORw0KGgoAAAANSUhEUgAAAQAAAAEACAIAAADTED8xAAAACXBIWXMAAA7EAAAOxAGVKw4bAAAg AElEQVR4nOy9d3hkx3Unek7VDZ0DchpkTM5DDnMSg0QFKtuWk+Rne+219Z7lt7v+3luv/bxv5SDb sldr2bIkS1RmECVKpEiRGsbhkDMkh5PzAANgMMhooHP3DVVn/7iNRgPobvQAGM7I4u/Dh+929711 T917TtWpkwqJCN7BO/hFBbvaBLyDd3A18Y4AvINfaLwjAO/gFxrXigAIKb795F8Mj5+72oS8g18s 4DWyCP7nh/7PsakLiPj/f/onzjeSJMNrRT7fwb9XXBMc9trhHw2NnbZs47ZdH89/+Q73v4O3AcrV JgBefOOhZ1/9mnN8702fvLrEvINfNFzlUfZzX/u1PPdft+k9S55/pv/1san+K0zULzR6Lx7+wnd+ f2L64tUm5G3CFRSArJEanewrc8Jnv/zxmfh4/uP77/iP5Rt86Om//MaP/rShpmN16HsHxfDC698d new7cX7f1SbkbcIVVIGmZi6ZtlH0J9PK/u3XfyOZnkHMrcLXtl/v0r2lmuq9ePjffvBfAKA61HSF qH0HDmbiYwAwMHLiahPyNuEKCsDhM893rdm++PupmeG//0ZO189boN57238o2kgyPfPNH//50Nhp 52Nb46ZVp/Md5JHKxOLJCACMzfRebVreJlwpATjV99qlsTNFBeCfvpdTdRABgAigNrxmsWJjC+s7 T/73M/0HCr9sa3pHAK4gnt33IIAEgKyRuNq0vE24UgLwwhvfnZwe8nlCC75/+Kd/ZZhpAJA2BVv0 +IiBDB+469OF50iSgyMnv/zoHy9utnPNtitE8Ds4P/jWuUuvEyOQYGXF1SbnbcIVEYCDJ5+5NHYW AHyeqsLvj5596ciZFwBAWNSwxSttAkC3y9/Ttss5QUhhWdm+ocPffvIvnG9IAkNOmHsfteE1K6Tt 5Tcfnk6MuVTfzo331Fe3r7C1fzeQJH/0/D8ZFJOCAMDjDl5tit4mrL4A2MJ6eu9XnOOqYINzYFrZ SHT4oac/CwBSUE2Pp/OO8GtfvMRVvP/W38lfOz7V3zt0+Om9X3Y+SpvC7a7GzrpTz19kKjbUdK6Q tlcP/fCZ176u6ujTao+f37uh88Z7b/pkmcX3Lw6eeOGfM1ZUr2HpKCHDUKDualP0NmGVzaBCiu89 9dl0Ng4AecayhZVMR7/wnd8Dh/u7PT33hMdPJBEBAHZveZ9z2sXRU2+d+lme+4Ula9Z61t5X7e8R njqNCDpatqyEtlhy6qlXvkRSBgKavyEdT4/vO/z43z74a3sPP7SSZv8dYGj0zPHzey2ZadjikzYA ADrv5lqCJHklml3lGWBw5OTpvtec48aaTgAQUsSTEWfhS5L8DXrXXWFp01RvBjnmnV8z8fGfvvLV /uHjzkc7KztuC9Vv9tmGVHSWHDMUnbU3rUgAvvXEnwOBpiltdwVBw3CXfmF/PBZJ/nTv1/cd/c57 7vyNne2/spL2f05hC+v7z35eYKZ5l1+Y0glA6WzeerXpmgfTyp7sfTWRnt7QeWNteI0tLIWrq9Ly KgvA3oOP0qxt0+0KAEDWSH7xe3+QySaAgKts/XurbUMCQnQwq7jYdZvvz5rJWGLqq4/9l2R6xrlQ WrT23dVVHS5hSkSIDmWRIQB0NG9eNmFn+98YHj8nBXXfUkUakCCs4useqJo+nR04GItGso/9+Gt7 2x752L3/b4t394ofw88TvvTwZ0A1fTW8bp3n4utxRwBC/mtIBUpn4s+8+rUT51/JGsk9r33jjut+ ubaqdVP3LasiA6spACMTvWf7X89/rA23AMDnv/FbjkYkJW16f60UhAwmz2aYiiF/XTQ+PhMbe+SZ v85fJS3a/NFad0gVFgEAICZGDcYBAAK+mmXT9uxrDwJAIKD7O3UpJAAAgW1TcJ1rW4fe97OZ6cns aF/8wcn/b8f1u9+7/b8y0Jd9r58XRKIj//LwHxFIcKU33FQjBKUjtmOcvnbMzRdHTz36zN9Ox0YE SSQkMp8/8O3utp2mlbl+8/0rb381BWDvW3PDPwAkUtP/8M3fdrifJLXdGHSFFGkTU9nE6SRjmDVT x8/vzatMQMBU3PKxOtXNHFsEADAOiTETENc0bFg2YfFUZGyyFyQ0bPXSfFWSJIEKPR+sGtmXHDoT TybMfS++evLUxz5y7x/31L5r2Xe89vH8ge/s2f9NVdG5T2y4v1oKUhSWGDcd5b+5vudqEwgAcPDk M0+8+EXLMgjI79eae6r6j00JIfouHjbNTGvjhpXb8VZtESxJOibOPA6d3jMxPegcB5pcDVt80iZA yEbt1KQFCFkjdbJ3n7O4IQLFxbZ/okFxMZJAclaQEM20RIDOluVrpW+dfFpIYowFOl1FllIEwqLG W30b765WuUKSpkfT33rkc9/e8xlD/Nz7gyTJrJEq/Ob84Ft/+ZVf2bP/myTQ0wCbPlgDCICQmbGt jACAqmDjVSJ2HvYf+fHjz/1P08oCUXWde90HqjybccP9VYSMgEanLjx/4Nsrv8uqzQBvHHuq6PeI AAx77gnbhgQAZDhxJsW1eUYGEuQOq5s+XCttR+0BsgB1AADGIR0xVTdvqV+7bNpeP/E0EIWb3agC WcXPkRZ527StDbX9L8VmRjKmaZ84drzvwsfvufnXb93y68u+9duPi6OnzvS/cX7wUD5+pBCcKULa ACBsaL/J37DFm3sviNP9Ga4gALQ3LX+ttVo4fWH/s699XUpBBOFqd+vtAckABPEwW3dXuPeVGcsy Llw6drJ336buW1dyo1UTgFcOfd85YBzzCgwiSEHr76vOn8Y5RnrThVY2KSjYoq+/v8Z5EwAABExH AACETNRmfEVaqQQ7Hp8iglCrRqJc+hsJAAU67w+lBr2DB2KppJlJ2T957huvHnzyg3d+Zn3HTcsj 4IpCQPr80Fu9F48ODp8aHu/NjSDzkcv5I2AchLSFReFWV8dtQcXF8s+ccRg5kkSOALCx6yr39NzA wUef/VvDzABSKOhqvzMAbgRn4SbAu0atb/WM9qfS6ejeg49eEwKQSE1HoiMAQBIUDzNTAhCQARDW b/L6G7XcihbANmU2Zqse7nyUgsKtrrXvqbazRay8CGAmhLMsW/YKuG/okCRCQH+LVkn6p7TI06Js /GjN5PHU8PGkbYvpmcg3fvRnHlfgnht/84ZtH+CML4+SVcRk5uTR3heOnnt5eiQhbTmvWwXrMBIk LAo0acIi1c24it5arabLrQe4sGhuoaXg0JsJKcgZa1y6723tzHy8eviHP3npSwQEBP6g1np7AL1Y qLgKm6o2e2ZGsum0NRYZOD/4Vj6SYBlYHQF4/vXvAAARhNboqSkLGAABMuQaa70hkOd+AGAKNm7z R/oyztOv7nJ3311VlPsBABAT4wbj0FS3/DXZ2QtvEoHuUriXFR0gAQCwIDAVgCQQUM02b7jbPXkk PdqbFFKms/EnXvriU3v/9YatH7h150fzTu63E3E59MbpHx45/XxszLAsQTJHOkkgIpKg6kx1M64y kIQaq9/sDbe7mAJA6KR/kwAiKnwjyCAbsy8dTKju3ILw6z/8f9yuwPWb33PvzZ96O6VdkvzeU589 cX4vAJAEf1jrvrca3UQEyGBOBgjUEAu3uNLnbMvKHj374tUXgANHnwAAaVHNWk9yIoYEwFFact39 NQt4Tgpq3OYbO5701Wm16zwNW3wluR8AGTiGuYYVLPb7h08Akb+upM0YAeSMwJCCHAp1JBLE3Nh4 m69um2fkUGriQkqCBLBfO/L4a0ce72jecuf1n1jX8XY4DQwzc/j8k0cHfzI5OpWKm1KS46tVVe6r Ud3VaqBe0QKqK8hBQSkAGQEAEEhBJEmYME++C/vO0MqK0z+J5LgfAQgkyVQm+tKbD7/05sPdrTtv 3v7BjV03X+k+jk72PfijP40np8AZ45s8XfeFCIgk2FmZmrKCzTrMKs7SplCXe6I/bZji7MCbK7nv KgjAifOvAAAQuEKKp0olIkJgCFXdHm+1UjjYOMjG7Ooed8Mmn69em9P7i4FxTIybCNBQu/wooOGJ 8wDgri6p/6CCF99KxMaNxu3+hm0+KWThYCMtQg+uudPftMM7diw1eSFt2QIZ9g8f7x8+7vdW37Dl fbu3vHclPooyiCenfvb6V06c32tkhZSEBIjgD+hVna7gGl2vU52BHyQRgC0Iyi5y5vUagaksNpTt ezEqZ3UokrAgBqL34qHei4cA4O4bf/3KZWz/7LUHX3j9u86xFNS6zt9wm19aBABcY2eejiCDYEuB Z4bAVcfdXsUw7ayRHJnobarrXt6tV0EAHn/+Cw7dzTv9tiGBAAgBoHlnYDH3IwBJ6LmnWlqypEIy C2GREbcVF2uqXWb3MkYSCKQET7UCsvjtSJK/XY+NWSOHUsPH4mtvrw506PMk0xEDLzbf5m/Y5Yue zYyeSWXSNiIlUpHnDnzruQPf6mzZdv3m927uuU1VtOWRugCpTPzpfV880bvXyNpAABI8frW20x1s d2nVnAhIkjAvLzwGGSIDZChMmZy0Js+kZy5mEQAIiMBfp7rC6tT5tDAkUxARoUAYnj/wnecPfGd9 xw333vTJVfQSjEcGvvXEn+cWkEQcWcfucNUWl8P9TMHB/dHUpMkUVHRW+FIkQbjVFZ02hLB6hw5f NQHoGzqSykQBgHGsW++Jj5gAAERV7R7Nw8QiFicCf6NWyZtDhNSU6dglgv5ljq/jkUEAAALdz8tI GynytnU7Qix0cuL8sWd6qxp8PfeGmQuoMCreEQMVwls9tds80X4zci49M5YVUiLDC5eOXrh09PvP fq6jZev29Xdv6r7F4wosj2Yh5J4DX9l//EeWIUgQQ6zt8FT3uL1NqiAgSUsOHEUhbYoNZzMzdnLM zMZtKYCIpEWOSFR3uTvvCJKAjtuCyXFzeiAbOZ/JxmyuIiA4oSgAcKb/9TP9r3tcgftv+52VO2Kf fOlfXj38wxx5knxerfOusF7LpZWfkWjiVJopaGclzJ+aSJK3ViUAIjo38ObtBQV1LgsrFYDHn/uf DjVN2/zCJGSACIBQ1eWWpabjCl8fQmbGdkJTfO7w8siLRIcBgDHQfFyW0oEIJKdOTzuhvLF1h1/3 vTF09K3vZtffVR3o1uWiSQwk2QD+djXYHbITMj5gTJzPpKKmkJKY7Bs60jd05Ad7Pu/zhDd0Xr+2 /brOlh3eiuk/fPq5p1/9p1Q6TRJUlTds89Zs9KACUpC9LL7PAxX0VqtcRcbR36ghQ9XDFBdjnLlD XPdzYRIASEGukNK8w9+6O2AkRKQ3bRs0cjTJ+JwYpLPxH+z5hx/s+Yebtn/wA3f+wTIqOB0/9/Jj ez7vpEYRAQI0dfqbb/ZJDnnx5ho79ePJXNsIi7U7Lch1jdu2nJi+uOwyaisSgInpi1PRS+AkuGz1 SUlcY1xnqJKnSl1hyTlkmBg1HI+B27VMw1wsMQkAXGFMA1nCBUYAqo4KKDZaKvJdTZs6q5ofP/X8 qRcm6y/4uu4NC6LFDgSSIExCF4Y2uKq2uM0ZmRgyp/sz0amsJGIMk+mZN0/87I3jP0MEVdGa69e1 1PW0NKxvqOmoCjZqqmtBg9PR0cee/5uLY2dsS6qc1a3zNuzwkIokiOzl9X4eEEDzc93Pgy0uAEAE 25AkQdGRAOYpqwREZBvEdazf7EMGTdt9w0cSE6fSwiKmzHlx9h/58f4jP+5p2/XAXZ92Qr+WxNhU /yPP/E2+XIiU5HFrbTcEfB2atAlmNQNFZ30vzqSmLMwvznGBqQ6Yh+keZsdkOhPLZpMe93Km3BUJ wAuz1s+qTjdXUVikupinSlVcjKlY3uu0JJiCsWEDGbQ0rFv8q5CiEgtdNDEBBFzjsODxLbiXymxp O3EhgkTQFfyN7Q9858iTk0Op4S8mOu8Ir9kZcMIEFoKACIRJ3IfhjXrVFpeMy/iAMXY+nU3Zti0B gAAs2xwYPj4wG+zNmVITblnTsH5zz21tjZvcLt+Lb3zvpbe+lTWEwrCq3tV6Y4CHmLQuY1FbERwX AZFDFVNmk7LLnO8sshFargu03RSMDhmTZ1KRviwiIM9JwvnBtz7/jd+qDjU9cOcfljGLpTPxH73w hWPnXs61TcAZNnT6G3d70IWFeh1TcfxkavJsStEZEQCBHlAWJygQB09QScWFEHbWTF8FAXCCf6Ql G7f5nQ4ggzW7A1xlK+R+QMjGbDMlFJ1tXXvn4t9lZQKQSE0TgEtXy5dAVTUWE/GQEpjlEMmRf2rX h7956EfJeOLkTyfGTid2/VKjLAxSWgACZ2EKHgxudoc2u+2oSI9byQkzMWVl07YQUkoAJAQU0p6c Hpycvniy79WqYGMqM5PKRCRBOKw1bvV5OzRhURHV66qCBNmC/HVqoDHccw9G+jLTfZnIhSyynCRE oiMP/uhPXbr3gbs+vXPDPYXXmlb2uf3ffOWtx/I+OilBU3j39QHvepcUVLjWUnQ2eSZ14eUZxcWc l0YEvgZVLn7yBKpPATIIyRbm8vq1fAHIWT8BNK/irVYdznBi2ipvBIFxVBE4AdmUmfseIXox6wxR 2xYJgC2sClOWnOciyIYypxPofsWwTZhnZyOS9Fs7P/zV138wM5OMXjJe+MeBLR+orVvnK2+6BQIS RAAswPxBPbDehRKsuMxG7NSEkZy00kkhpbQFMUaGkcwVxCYIhPWOG4NYk9PFr00QAdkkbQqt0cPt ru77cOpceupcZmYwq+iIDLNG6tFnPvfoM5/buvaO7tadm7tvPXDsyecPfNsJQMq1IKm+1du02899 Ba5JBGTIVex/OTp2KlnIRURUGwwXWcIRKW6OyAgkw2U67JYvAAeOPQkAQMAUQA6XlbCGwNysystr FdQQuKOcMFRTYnLGHgAg5OjkwShMDfprC68VUti2KaVQ3EvnQ5hmBgAU7iq/8mbAMp4UQs2Cs2wp fvfGj331tcdmYklEduj74103mT3vqhJWyRX1HPJzAgDzozegeju0RgZGTBqTVnrKTk5b6YRlZgQh KByScatvf7xjh5c1qZXaCa4eHEkAm6raXTXdbtuQYydSo8dS5MRTIBw79/Kxcy//8Ll/LLwKEcMN esv1AVedIm0imbPMMgUzM9bk2fTk2bRtSEWbN4ba0u72tUesYYvNX8Yh0soMA7ASAXD8I0QUanXB 5XC/i4XCShtHlYgIpARbQ4/Oggy5j9cFeNO4dcJmiehFg6u4bf28oHxbWADwr4985jO/+dVK7iVI AIAEg6jcMpok2MEsxIusE2xh/94tH//yvu9Px5Oqm/UfnJm5kNlwf52vWbmMoZpyirctkfvQ69e8 XXo9gsySyMp4X3bsQkZIYgBSAseyevk1BiIQFiHDph3+NdcHxk+lht9KWBnJFirtufWGDTRxIZ09 bHGVuYIKEaUmrMS4aWUEVxEZMo4kCRmbbZ5CnoDf5Zsq9lCESUQEuHwzyTIFIK//2AY17fCXtHgu QrXa42FVkmxJEoAYqj5Wj8iAcm5vFwu0um7sHX0DYBgANvfMxfqZVjYSHfmXhz69ff3dFd4OgQEA Ss4Yl1DOmOLVnaCT+ZcTEoJpW//xtl/67htPX5gYURUlFjUO/2C0Zb2/7Y4QqnCZVnnKC4MAAAWY n4V3eUPr3ZCUpCIG2JVJ/r7icBYJNT3u+s3eiVPpgX0xZ92FbJ66Gh814iMGAM0FYCEigqLnRn1p UbjDrXn5xKkkcpSSuupbmGCqrdvcgoI3hAhmWgBITXV5l1vHZZkCcOTsiwBABMFmXXXzShxbCrrr 1A0cVQIBAAios6DGvEQiP+IhIAEhYo25nfHTAFAbbgUAIUUyNb3/6BMvv/kwAOzceG+FdPq9VYhg ZC25FIWC2Qti4pBwsmrUk/F5M/6sZf767vc9enjPmUsDqqKYlhg4FZscyLRs8zfu9BGD5S/6HV3C heDijlP2WgGBsEnR8bIEkiTYGVnd5a7udI2dSAHAzGA2OW4CIuMAjnOZwSwf57iZHIeWBK6x7rvD WoAPvhrLux26mlqklX9BBUAwk5IAfJ5luolgBTPAXgAgQXUbvdJa+gl5WHWV2gUABAKAMUQ3CyPg vPU/AAAgMuQ0eWlSVVUphS3MWGLyRO++5w98O5PN5Wd1VJwd5nH5AcC2hSJVkxWv1OtAoFigABGj mpmGmcCUKjTN0jOW8Us77n0M95wc6tcUlSQlEtm+N+2R44nW60N1WzxSrqByx7XD97OQNiXHDa7x QKNW+QzvwFn5NGz1AUHjNh9JSI6biVEzOWmaKZGetklIRxpIgublvhrVV6e6gkpwjUvaMnbJSE2Y TEUhZUd1s8JYPJ4sYsYQYKYkIK0kMXI5AjA5MzTbT6jpcS+pCrtZVY26blYDYQios8BcoAnO6ryI RNKUSTNupJMpKUVjXXfGSE5EBn+69yt5M8KWtXdUTqpT3cC2KZPK8AArw2eSidy07HwkoSmaABFO VdsobG4pQs1Yxse231vvP/Ti6bdUriCiZQrTEOdemRo5orXeGKxa6xI2XYPcvDwkRi1hGVZaVHe7 lxF/4cyKzqDgq1N99RpyQCewYjZSlasMAEiSFABAJAAVNvBqlKlIQB7VfUPPlplkLJsxpTJ/rESw 09IybbicAXExliMAp/r2Q87/VSzFdj4QWLXaLcFmufxjxlHlzn1ndUNEbpNhy4wkGxBTEzZykCSz 2eT+Iz8+1fuaEDaBk2FT0T4aeYSDDQCAQCJDvKyfhHCO/REgbqa/+/oj62ra28JNbeFmRWEmmhqo hm3tWr/uaOR0ImLOEg+mIabNTOo5M3jE3XlbyNN0OevjaxXIUXFhaso2U4KIans8iyO7FoAEoYJF 5T+v5Dif8t/PsykjcBWPPjLOGAKAlLSrfaNHc12MjEgLJJcgCs+F7IywLIEK9LTuXHY3lyUAvfsA gARVd7qX1H09rJoBQ+AMFQKJwBgqBIRz+p+0KG2T6dQlZgomxk1BAgGnY6OTUyPBZt1IcVXHbExI QWvbr6uc1PqqNgAggNS0pTfwCq0rkkm/7vG6XQOx0b7pIVvaNd5wg68moPtrfKFXjxyxDalq3DJn XwgCAGSzwhpNpZ4wajt9nfcEhfi5nArm5mMOteu9VlrEhs3xEynGsapziXkAOZJJqC6rqhwiIpx+ aspMC2QopGgJNvQ0rSGSGctwoVuimLcGYBgfNYARQ95Y27WcOwLA8gRgcPQUAEibqro8Sy5/XTzE UM1ZY4ABAJGQyBAYkSSQgkwsKE5hG9JMCgYIBMKWXXeGQ+0uxuDMUxFp0/YNldp/HDTUdnKmSGll Zyxg7lIR0QAgsTD+GaVutQfXDEQv1rSEYiPpeCoVz6QAKTaTZcARizjiEEFKSmesyFA68V1j4wM1 3Ldij/jbCQQrKYRF7rDiBEtwDZt2BsxUND5q9O+Lco0FW3RZVrCXx/3IMDqU7d8bk7YEBpa0WwIN H9hwV0ZmbMW2hNCYQMLC2zIF48NZQOxeQToYVFgWRZIUMjfaDY2egVn7Tyl79SxDIwCo6GYwz0tH QJJsAmlTVpI9e7J0rkhPWhLsrJHiOu74jYZwpxsQzLQUNhDA7i3vvazuKVytDjUjYnLS5mX7Spw4 coaIgEioGa5b2rfZkrJT2a2/u6bng42160NuvwtMJg0pTOmosJTzdgFJIkFAQBKyWduyxaGHxxK9 Rt6U8XMAAq6xVMSaOJ220pJxBAJFw7ZbgrqXk6De56aHDyXtjOQaK+dZX/I+gqQN0iYn+i02Yrz2 4MXDj42RJInkUdw3rtn2oY1321IotiqEmErMzKTiC7RKmZLJaQsRts/3FF0ulp4BMtmkkJZ7Nrr9 2LmXAAAkhdpcskQR+dmgvtmo7kUjhsP9uEj8GGfR4RQqFGzwV99X7zAZ43jpzYSZtBGXs9zpbt05 MT2YTph2ikArZm9BAMBoIn507LRL12q9VfW+GlvaGqjvX3/Hj06+0PfweOdv1Ae6Xcir1qWbRFrY CTF9MRUbzhgxGwBQAd3LJUJiOJseM106lzYxBU48O7nxzurgRnfJCKJrDFxDX50auZAZP5l0BZS6 jV5pk+rmnXeGT/9kChBGjyYuvRkPNOltNwV89ZqwiOgyND3EnM+fczBTFBs2+t+aGT+X0NyK260I ku2hpvvX3i5AmNJCQqnZkVgiaaRr3dXMZcGsIxgZxC6aEogD7txQqU28KJYWgLFI/+DIyV0b7/N7 qwDgjRNPQ66WiauSTbYl2Y51f8H3ee6fC4EFZpu25mO+Zhc0TMWzuei62KWskRBSwA1b31d5x/LY 0Hnja0cet4U0IrbeuKi/CGJGzPRnZ6ayGI/aQqQtwxJWk7/OrboaAjUBtzsWy1z84VTTe8NMY8hB 8TPVz5pbwmtYVa4TBES5eFMra6Pksb6MNZmp3ehW3Xx5+StXBUTgCqrVHXjpUDx60Yj0ZtbdX01E nmq1ZXfg4oEY46joLDVlnnh80h1Sq7vdoTW6r05zijgAAiCSIJIARE6YA0BOv09FrMy0lZq0kuPW 9FA6GTMM0+IKYxw0hTdvCSsRdXfLFgssBEBABNRA650c1BWto7ZpWJ7J8wxynDiTYhzXd9y4wi4v LQC2bZ7ue82J75ucGXKSGBSdeWvVMvnseWAFUUqOdUCCSUg1a92EMGHEcz9JiI+amaiFCLfs/MiS TS1GvmRAfMioa1EXRI8gghkVl04mJUmmWCQRJWhMnUxNA8DF2IjzJiJDSfOHVvdvNkkjF+EMgkQx /Z6pnGXtmmYGLT6iZWZvFRIIAG+nm4AkuUK87abgmaemjJR99NHxjR+s1dysaatv9GjSNqS3SgGG iVHDSIqRI4lLbyUAwBNWFBcTFtlZ6Q4r3hqVa8xMieSkBUTCoFTEYhyFFNm0lUmbRASASIAMN36g ua7Vd/LxS+/ecIsrqEiyI8mYX/Eyhr2RgbFYJOzxxzeOoczbzUHEZHQiy1W8ddUT+2IAACAASURB VOdHV9jfpQVgYnpwKjriyPKBo08CAEkId7gqfLUKaOXnSAQmwbLJdOxCkggJBVngZEVOWskxkyTo mquuqrWSOy5GY23XyERfbNxsXJRbQhK83fp6per8vqiQ0hNQtBBPz9hSEJhgCwE2kCCJRAZgfwaa 9ZK9QUBBLG4CAWH5QPtKgPOPC5wUV1geSILiYps/XHfqyUk7I0/8YGLzh2qRYeM238XXY4kJ87pP NSbHzUsHE8lxk6mIiNmEgLhwCLRGzPiwQTkrd867qLqYsGl6MkWCUGHCltU9vo7ba5vWBsb3RS88 P+Gr1c8bFy4cH+mLDUgkv9ctFSsVFSix7WZfUo/DrAAwjpeOJ51Y+O7WHSvs7NICMDx+Pp2JOYP0 odN7AIAkBZpdFeq15SNwHP1Hgu1wv2MeFWBJR91DjA2b6YiFDO+9+VOV3K4oNnXdMjrZl4pbVlyi b6E7TNrkbtM2BqpPPxNJRU3N49n4a022JGlIZIxpwAmzkzZysOsVLDXnIbKsjVkb5ueSLxeLm8BF x1dSDAgAYfNH6k4+PklpceLHk1s+UlvT5R7YF+Uqjh5LNu8MbF7jSk9b4yfTseGsk1AmTMk4EgER MgCmoupmisb0oGIY5Aor+owSanLVtnlZlebSmUxY9lSm/jp3w3VucNaKaG4cr2d+bk+Jvr0RVeV1 67z+9nmJqTJLE+dSyHBj1y0r7+jSAjA+PUhAnKupTMwJRpCCAk0VVVkDAEFW0TUAzF8rOxsGIyAi j5inAQARMjPWzEDGsTiuZLLb1H3Lcwe+ZQuZHLYC6/UigeWC1CreuM07fiwTHc0c+5eL7e+qCe3w OUUuJIDmLB5Kcj/wpAk2LSwqQsU4eQlUfsEVFwNp0+aP1J744aSZFqeeiOz6VKMnrJopEb1oNO8A 2yTNr7TdEgQKGgmLCJChO6jMBfgD5YL/JICCwqW0WwESIInAEjJlAQDTcV7qD4K3RZ88nB58fcYT 4u4arX6Lt/AE5Dh5NCVIMsAtPbevvI9Lm0FzGRsAp/pec/KONQ93BZUl9JrZ/xrzlVeB8gE0iIiI WRm1KO18jvRmszEbEO664deW7kppNNZ2uV1+RIj0Z1lpu6SZphpfaH1Tu667zu+ZOPvgsEhJ5hi2 qTSnIfCEBWJhJCmJK8r9hZfk/5bXQjkIizZ9uJYrDBmcemKqqssDBMKQRsLOVdGySQpSvYrmU1QP s00SJkkTpAnClMIkpwajNCRGTZmRZAq0JCzWnxHAxYUBF56Z7t8f8VWpvmY91KHz+bkBCDB8Isk4 6ppnc89tK+/gEgIwMX3ROTCt7MDwCSdDNNTqWiphj/L/WdlJBoE54XEOJQyUGWvA+SEbtSN9aada 5X0r0H8cdDRvZQjJuGlFRUkmQTIzYmvthutbN1UHgtmYPPrlwdGXo4wjU0sqNjxuFvWvXWaKEq4G 766O+rUAUtDGB2qIyIzbyXETGVoZsXAWdQYImvXu5z4vDN4Eyv2C854YEkfya5Ej6WMPjSXHjeo2 N+igulmoZZ6mjRwnjmdsIQDgxq0fWJUSTEsIwPnBg87BdGz00vhZJ1EwuEavcAHAQeNYLm+LQOTD IhB4SkwJMAGAcRw9mhRZCQA3b/9QJfcqj809txKAbcnERauoc4qIdNQlyanUzLrqrvdvvf2Grs3h Gt/Esdix/zU4/NOImBQLnxYCT5iroYOsFtcSgVz1SQAIuM5ad4eQoZUWyFAK8NaUSVtz/MhlJs0C MEQNQcLg45NDB2OtWwPVPW4hSQ8o9Zt8Cw0tAkaPxhlHzpR33bA6NeuXEIBzAzkBOD94MJdfa8mq DnfZBcDcC/Dy2lJjUm75S3KW+xEBo3ZuwklPWdP9Gacq1v23/4cKO1MGGztvBgApKXopW1yVJ9B8 jABmMnGQoAq9o6HpgQ3vUjiXDGYG0v1PTmCfMefURmQp+1ri/jxWf1VAkmrWetzVquLiJIkr6Kim JYAFB0v0DoGmz6RPfH88G7PX7g6gG+PDhhkXDS2O97Ag/YXj5PG0aQkAuGXHh3XNvfJ+wZIC4OQ9 AsC+Qz+Yjo4Cga9OL+vezwfVIwCElLayy18AkA7rI2BWxp3hX9FZPh9iy9o7VmUvNJfu7VqzHRGS McuKFHt5BBS0OWIsm2CISKhl3GeGB6QkZKi4sWqrJ+0CaRDXGSCytIUVJEK8jbhyq2EEQNuQa3YH nMx3RWOrFe5KEqrXunvuqqlq9Q6cSPe/EU3PWKEGXQnM1yARwIbREwnGUVX0e1avSmk5Bd0wM/ko fCcZ1wkBKp0eUZhSQlVKp4I6lcsXJgCWCwJFxRn+nXoQyQnTWf18+O7PXF6HSuP6ze/tGzpiWSI+ aFbXeRZ4xAjA5VUiaiaWzeVecOSMMc64tO1sXAztj0pJQOhr0Dd+uFZaC4v1XT5WZ+xHwBIPuVwp pMtofhaqmzdu8xvJGFUSAlDQwqwZsPhF0iZ3HTdS6Iup1R2ap0ELtunSyjlTHBKIYPJIyrQE43j/ rb+7uKzYslFuBugbOuzcPg+SFGjSSsdUzn3vYqGQ0lqW+2H2MTIAZsqUSUkA4BobOhB38iTWd9yw 7GTnxdi+/l0MmRQ0cykLxmJTKOh+xdZtKUTSSCOAJLmhtmtTXY9b04kIc0th6rglSEaJKKgrjPxs icBm/7NS3O+csIoqFkny1amBJk3zMEUvl1208ELH0l2a2UhQqN3Vdqe/ar3H36BJM1efyflV2hQb NIZPJRhHv7f65h2rsCbMo7wAHIH5z0/YFGhyLSn+CuoN2pbKg6QQMCWmnKP4qJmetpy7dq3Yz7cA u7e+Hxmk01Zq2CxaSVKvYcjYdCbmWPS9mpsBWsLmjCOiW3o2P1DvClWaV1AWlfDl4iDCXOgZA47A Z21oRVtnudCcFdmXFl4obQo068FmPZ/DXnFDWEBVEZAk4qC683Gm+WQpiI+ZE6fTjrn8I/esmkbg YAkBIAJfg54Laidwh5RF5S6KoE7dtCAEuhB5/5dj/3EeTVwMAwBTcPitBFOd5AEcHD15OX1ZGndd /wkAME0RHzAWR/STJG+Voqgsko4xQF3Rnjr70oFLR01hS5JcKmtvqnPX8StctYEK/rDgm8IzSIAF ICUUL3eKwBhwLMtwyySOINCg1W30XW58a150K9bK8qHEaMZFatJAxI7mLRs6V3n/snICMDZ1AYgC TbmcaALwVmu5XabLtchdLFDJ8O+41RAxJScdqTBiInYx63AmcnQyb1YRQX/tlp47ETE6adqxhQ4B IvDWagrjkfSMxtVHjv+0f/qSyhQh7EZv3Xvuvo6tzyyKJVo2LZXzAcKc5jMXDiRLjP0AoKKXo8ZQ ZcBmR6IK54EFbrViBFHp+pDlkLeNXh6YAuZkbs/0lYe+FWm/1A/TsTFwYsVqNT2gAAEQ6f6lJz4X C5d7fPMVVkRkoMTtEZgd/nm+PgzITDa+/+iPK+xJhfBvjZCkdNqKD5oLzVkE7qBq+7NCim8feWIq Nc0ZF0J+aO29O+5tvdhyHm224PwVDK8LrqTFI30xFUiWdUoDACioO9o/A4WjzlFVUOOgMlAwJw9X MUfnMgUAQSTk1KUsIuia5+JokY1fV4iSDD00lsv8UjT0N2hO3pPuVxaGuyyCxjwV9DN/ApqUdJa/ tiEnz6Yx79EnENLes/+bKyg2shBPvflXZ1/p1VwckMbPpXDRSEYS3G1INkazcQQmDLrnpl0TN/YO +y5yMd9itiLuh/mqzpJudSKQ5S0KDjysOsjXVKkdQaVFQVdAafbyWhW9Xl6rMQ8DhaHCQWWgMuDO Grp0Y1fCQVFxm4QkGRBLRG1vnYYKI5JvnnjmZO+rq0tTSTPo1MwlAAAixpm/QZ/uyxBBbiooC1xa +4e8hQ6BpUQEAJiK/S9FnZKomuoiblmmACDTyjzx4j996F1/dHndKoYXDn7t6MlXE1ETGCBiMmGm hyx3q1ooXyQp3Oa2o4rrmNvTyJpu8EXDI2Ajo0WMcu2lOiro7nDfgYAInEBUUaeKHkmWTVmFuWes AQAyZMKmbEpGEJBAEJHje5nFvAiFK0BjxTMAEhCSBG+NqgW5MSNsy7Qs4+lXvrKh66bl7YVRFCUb Gp264BxoXh5o0qVYuEFBaVRyUl61ZSkxAQhGXEz1ZZzh/87rP+EUXCBCIvn68Z+YVraSG5eBDZn+ 1M/iMwYRkU1uj4oMBw7GFzv1EFDdmdn+f9R23R/SAxzsa4/TS2PYODhbf4Cr6AEghorGfAx4UGkJ K+0N2pYmfUe10qkzv44BhkrpSWB1PWuXHxiIBABcYeFWtx7QCCQBRaIj+w79cBXJKikAydQ0ACBH rqM7pGheRfNxKSoL8FgaucdhUdqklKKxvhdm1Fnt/64bfjVHnJKLFX3op59d4f1e7f1S3+Hp3L05 tm31+wJqMmrOnMwFXMyDQMuypfVzVteESGRlbNQ8KilvHZpbznJUKWd54zXaulb9plbXTT5e72Ih Db3X2oxGhEQIACTBX6frYcwPVc/t/6YolY0+H+lMfP+RJw6efLbMOSUFwLQNIFDdnAikTVUdLkVj XCte9mjehTJV4dNEYGk57bh+UxM52//GrpvT2Xj+HMfefKb/9bGp/kraLIrJ+PmXX9wjnErlDENh l6dLa90VQIYXD8VlauU+3WsFCrpMmcrImfkhWLlYw9kU3VwOKgJr1Lat0Xe3uW4N8Kay64GVo5Kx JLf+I8nygaXOt9XdHs2XU79NK7v34KOV3HIqeunQ6T1Hz7yQ2yuxGEr2eXL6IgG4ggpIkpKqu92a l6uecnstOhBglertgkeMwBL2KNdY7/PTXMt1+N23/vZ0bDTXlEXh9lxA7P/67u8tdeeSeHTPZ1MJ y8nQU3UWbtWBo6dV69ocsGw5+EqcK/k6LgtE4edIMpCjJkm4WcjPGxdNXggADDhDjnPJ6gAACrpU dDfru9ysalGbdCXiq0uCgCQjufCOROCr0YKtWp59nj/w7UraO9P/xtTMpbGpgaNnXyx1TkkBsGwD AJwMNyDw1mihNlclDnBTphYkwued9lAgAwhMkGmx1NDB+GzAETTVdddVtVpWroqttGR1t8exOxHQ lx/7v5e4dzEcPvfU5NSEU/CMa6hyHu7xkiApqOZGX90aT3TcmDycdrxvOdKuZIrJlQE6eRf12qYG bWtpFwEicAYKA74gTJ0Br1KL7EZOl2GtWimIcP7HudtJmxo2+XU/d0iwhbX/yBL2cSHFpfGzhpVK pmdOnHul1Gnli0WRO5Sbd6Sgmh4Pr6DulwRr2rqQD1mxKDVjD4yYhyesU4ZMFE4CKTnJFRw5kmCz WriT+CsL7H26l7kCudCDgeHj+w7/YEkCFuBnB75iGjZD4BwRoGGjD3KRVGibtObWoObmw8cTxqhd 2rRwVWQAlzJTAgAgMAV1Hf1eXu3nDQGluYyDbN51ALnZYNa/5uf1xc4smvlyZTCv9BsscNUzzhq3 +fMf9+z/VvnGYvHJwckjDrH5cs6LUV4AQHGzvBw6hdAqwYzdP5B9Zdg4NGYeGzEOJ8WETZmsjI+a R2bsAWesQmBpmpo4k8pze3WoaX3HDQAg80scRCMpmrf788/8qb3/GomNVEQEAAC8fOi7mbRBEp3Y co9XDa31SDGXrUgarLszjAx6X5mRmYVpjQVYlYyt8kAGnIEKgBw0D6t2syoNfRr6VPQwUBmojieL AVdQV9HjYkGdBTT0cdQEWVVq1+Jy82Vuh8AZcIaKoxFx1BTUl7wMAK6QDCCWa5YkVXd63NWKw4Tp bPxM/+tlzh+d6iWaK83hbJi7GMX9AKlMzDlgfL7tU0JpK38hHKVFpGVCQY1AiFm7xIzd72IBFwtJ sE0eGzuW5LMlC++/LZf4kpczZGAkRE23e+jNhJkRzojw99/45F//0Z5KiACAlw89JEA6RZo4suZd AUAoXGCBBLVe6bguNHoilblgeDa7y+5MuioBxgvhYdXVareX1zJQEBAQHY8VkbAonRCjKTFlUcaQ CYR5DCoddkdys6oGbbOKnsu3WzmPIxeCxkABKLeLwhUHEixShPJTgbSoaUeg77mcNe9nr33DGTGL 4sU3HpKmcIotAEAqE1uw2ZyD4gKQNVIAOaV5Pn2Vd4VZlGHAJC2M2Rozj7e7bkvJyVTESEUsVecA EPDVbOrOVblgs/ufIoCREMKiluv9fS9F8yuLz3/zU//pk99YkoI3T/7EFhYJUBRGAOEml6/FZVsL y7RIm7w9Wne9gkolG72spgwoqLfo1wd4MyyKk5FkA4CC7iqlq1rpkSAkWSalTZkkoHwSBUfdxYIK 6BKWXY06F6eJwMo4MRfhsjzhFccFO7VBSrVCEGxyuauUzLQNCCMTvRPTF4tWi4pER0cmzhd+MxG5 2FTXvfjM4iqQM7QQge6b7/qtIAoKgTFgAHK2buzCiEUCecl4MwMTw4cS+f0A77npN/Mn8DynM7QN QQTVXW5PWMlPZ1PR4R+98IUlKdl39BGSIG1ARK5g026/bZfQECSAn5G7Qjvg6uhCKnp63PcF+ZqC SMkioNm4N4aqiwWDSktIWRNS2kJKW4A3e1kNA6Uyvb88nOQBuJxgoQo9npcb/7NwJVCoeZOE+k1z KSJ7D36/aBuHTu9xRpT8ui6eihQ9s4QAzGrhC1a9lXigCaSz7y8sCn3Lw6J0Ijs91ZvJz27Xb74/ /6tSkO2fmbGRgW3KjttDhSnSrx//ycm+cmEhE9MD0cQE2cQQBcnG9X7uUcpVa7u8N7XyZDDW7b5H Rc/l8q4jLYV/K6SkgKacu+DyyFnOT+WpWHxhoQBQqNWt+nJEHjz5TNFGjpx+zikylY/et+3iO2kv YQVCPp+cyop9C7DKFwVgHIcPxfPD/9Z1dxb+OrfnPYFTVxUIPFVK/UZvPm4HAb/zk7+IJ6dK3eLw uWelQGkTMvT41OptrtUu1b+iZXGzvlND77XmaiaQiMjhspKwi77olfWr7CTAGNb0eIBy+XHHz+1d 3MB0bAwINB/TfDnLKZUIqSwuADlHCeJyg46W6D9JGjuRzDd+6455cd7VwaZZOsBMCmdkEha13hDI u6KdZJq//tonSnnFj/U+Jyzh1Ohcc31AylKJsyvEcmRARY+j1q86NSsCkZuFChedy25o0cHlYdEk MG/dJQXVdHvYrG7y6uHHF1x+5PQL4GR3VGs467iSJYgpzuC5jecJFNdlpH7OR7nhf+iNOOOYL4iy pnF9qZML3wVJWvee6vxOVc7w+dkvF0mSiMSGk8mElMQQq5pc7ialktXLcnHZ7FKtzq3GrnAAwuVB ZwHI1aq5LKqKPoGVSVFZRUjz8GBrbn+6gZETCwbB484WppK8tUsHLxfvZ77oSplCgssGU3HibDof 23R9sU1fXJoXHMGnuX3UiMAdUrrvrhIFO6tlzdTffH1h4cTjfc+ZhiACReWNu/1SXDmf7uUu8hAA fLw+Px0RyLc13KA0JIiw2i7ALFXLtQQWlKPLW4dWNOJgWS1I2NSw2Z/biBvw8OnnCk8+1feaQ5a3 Vs0nr5Xa06a4ALhdOZdbkUjJlQEREqNGYWXFW3d9bPFpAV917nwGhStXKaiqXV9zY7CwLk0sMfG3 X59XJ+zA0aelIM5Y03of88xu+7b6CvcyGiQE5gRmrjYxqwAd/SGlVYBZcddw0VyxegwzTwbmCxWB J6x463IVmk+cn4t0cLbwAgBFZ66gIksXwnRQXADmalGt+tjEMNKXZUquTIDC1dpwy+Kz2ho35Y4I FNc8u4SwqGmbr7rLVVieaCYx/lf/9ivO8XikPxafBgCXWwlvXvW17yxZK+BgFRdUNbsmZgAAIKAm bedlGfgJRCWJmstA+UlAWlS/yeu83ImCYM/DZ553yHKHFa5hfgYotZxdStVbjQIgheAqTvfPWT+3 rL2z6Gn11R0AAAiJcZMtssvZhuy+p8oVUAqpS6Qi//UL95lW9o3jT5EkKahpuxfYFeL+lVwsaWGU 5TU0G6jobnc5HslliOUqx8whK2m3IIKqDo/D3zPx8fz3jjpEgkJtLmSYt/2wxWwEAGVSIjlTBFhS LJkDfDlAyEZtI2E73l+Aklv8Nc867ZiC8VGz0AvmwM7KTR+qPfrwuLTnAngI6H98+SMuzU8EHq8a 7HZmidUdXxe/3aK+4XIO4/PpZ3vc93FcYu+cqwIJIqi01qubxq2TVyj0w8HYmfjo6Xhq2jDTIjFh MAXdQbXrpprGDQFXoKgdFmelK/++yd+op6YsRBiPDNZXtw2NnnGCGLiG1V0uknOufc6Ls3pJAQgF 6iaMYbIJK0iCqRCIMHMxW1hZqNSu1+3NW5wDxiA5bnqqiizniWjbL9cdfWRC2JSXUk11J1IRktS4 ZYl9CVYPRe9SLqDIpNTZzNM97ner6F5lZxZAZHT6wsnBscGJqZHI9Hg0FU+bWVNKqemqy+PyBDx1 LTUt3U1rd3TVtdQUbUGSXa9tFmBNWedWVwaSU8arD144++JEdDhT9ITXHuwHAF+t3rYrvPX9zT23 1SKTJOci1eeFBgkINLtSkyYgXhg6Wl/d9v1n/w4AiCBQ73LKizjbbgOAphYvpltSAJwLhEVMW7UR lHGMDmTz9p/Wxo1lTnZp3qyZAobJCbN+k7dILRoCQtj2y3XHfzBppYWzXneyyXSNV3Xqs5GRzoWr 0otVYQUCQJuM3sxza93vZmXLx1cCy7Tjkfj40OQbew4devHY5PCUbZX0MDDOPD63y6N7Ap41PU3v +vhtW2/ZtPg0AmrWdnFQxy2nNtkqiMHL/9r78pd6C7+RUjqhP45rx9FSEDE5aZx8ZuzkM2PBJvd9 /2nd+rsbnQg5J6ljTgaI/I3a8FvAGUzODE3NDDthzySpeX0tCQMYSBu4BgDg84SKUlVSAHTVDURy Vc3nyHHmYladDbnZsrbcFjfdrTtP9L6CCPFRk3EsvicfAQFs+0R9/8szE2fS+Xp9wXoXuhldu/uT EgBYlB7I7ut03wlz5WMrgmlYmq5apn3gmYOHXjw6OjAeGZ2OTsWXvhJACpmMpZKxFJuIjg1OHN9/ umtLx2//+a/Wt9YtPBNEg7bVrzSNm8cTYqzgl+VYOd98ePDlL/USkZRSCGHbts/n61m/NhgMJhIJ j8eTyWQH+i6YpplOpTlnqqYBQGwk8/3/fKRl68CH/3J7qNmzQAsiAn+Ds1UFTkQGf/rKV517BT0N 4VZ32jIgF1mMAKBrnqKElRSAjJEERLJptaZARJgZzDJlzmzc01Zc/3HQ0bz1RO8rAGClhZESvHRJ RmHIjtvD4TZ334szwiZkUNOxeAuPVV8MrAJScnLUPNqs7arcK5yKp/uO90+PRx/8H99LJ4orEiRJ SiElydkjSYBIDNDl9hDIdDKlqArj3Mhmj+07+cfv+W8f/fQDH/2D9y9oR4LwsKp21+0AIMmKi5FR 84hNTrz05fHFsadGbNv2BQO333n7+z70wNbtW+pamsGySBKyWR2bs+nJyPjY2GMPPfqtf/sm54xz DgSXjkaf/qsTv/rPu2GRLQgAvDWaEbcHR0/adq6A+fptGzPiFAAU2gk1tXiqQ0kBcLbDsM3VCx9A TI4ZjEPeBlJf3Vbm9Lx4MAVjQ4azpin13IUpA03ark81zgxksjHhW+tarQL2Vwb5XuCUdS6orPGy 2gojNYbOD5873Pf8I3uLcr+UMpVOt7S1bd2+vb2rs76xvrqmtmVNs9frMU1zamoqEPCFwiHO2djo 2OTY+PEjx1954eULfeef+sbPfEHvu3/trgUN5uclhmpYaQ8qLRGrd8o6n9vHrWJsvLe+o3Pdl7/0 GACBMDPJVGp6Jv8rYwwRkXN/wB8MBf/sbz77yd/5rT/5v/7zmwded7lcANC3fyoTM91BLecdndWC SEo9yI2E7XA/AEhTWl0nQQIiZGN2Xt9mJbasKj0DZJNOPoq/YXWmAMYhPmIC5maAzpZt5c/P+weQ YexStqbHXb4kJREIUwab9WALlOD+a2cSmBctcyn75jrP/WXOLkQ8khgbnMimDUXleV2fOCLjpmVv 3Lr1v/7Zf7vuhl1c1wAkkMxpzUSAgIA0m9fX1t4GCB/46Ifov//ps08984W/+7vj+08uFoD5RBMC q1K7wkrHlHVuyjpb+cS19YMtdTM3gG0IKQABGWNATpUdRc2tgpzRXQgh0ummluaHf/r4n33mTx7+ 1vc0XQOCc3vHtn0gH/qfe5Vmdp6jiwiqezxMzSnMtjGXW+B2BaAYSuUDyKyRRABhrtqeU0zB+KiR N9fkN3Avg6babnB0p4EszyWtLxVm52zKWfr3imh9OzCXdG9QPC0jFQZEGFlz4tKUy6PPquIEmqp7 /A1Naz73j3//4z3P3HDLdciEMDPCNIRlCdsWQkgppZBC2M6ho4gLW9iWJaR4z/vf++TzP7v9jrtG hornDS4AgaxWu1pdN1ceMuQNalVtbtu2zUzWTGdVXUPGGWeMc+cPGZvn55JSZI3f/J3f0nTV+f74 U6OOb9hxaTnRnVKQIuacVcKQa27w55eLsmDrzupQY1HCincgnYlJkoBQejOYpTGvQjpCKmIVuhTa mzcv2cL6zhudAyKIDmVXySNxjcjAvElg2uqvkJlIylQ8bZqWbQoAEADhqtrf/8Pff27/8x/55Q8L MymEXdp76WxFy2b/HFsK2LbFGHvfuz98+vUlq886icscAHX0NWmXsYFD2FsrrJyiIix7LqMht1R1 suARGSJnACClbGxuXLtxnfNr/xuRvG84LwOqymrXuh1jP0lq2R3Im1gAwYgvFQhRSgBmZRGNpFg2 2xUWd0CAbFQUKGQs5+stiy3dOTMR4zh9IVN2b7LLwrUmA5iWkQpDzxVVMbOmtCUyRkBV9Q0PPf69 3/ujP5SWmWev+fcoMyE68e4IAFLKmtpaHwuXTJqbd1kuWt7H61jFyQOmxGu8IgAAIABJREFUTOfZ UQrb4X2aY7bcpDjLekhEPr/vPR+7Twjh9GTgzUhBfAQCAHLkYWfPCmy/Ndi8wztnLUS00jnu9Xur S1FVYgbI12ZbAavMy6tATE2ZyHIhQF5PuJK9jxpqckKCDKYvZFgFRVkqxjUiAw5ILtx3oCTcPrdt 2qmsQUSmlH/8J3+8pr1VmAsXxLOKPwEggXSOy2eTEdF122+cnowuRQIWlnjy8pK8tQAz9sV8WAER ANGsNb+wZHKOeucn0zA//qmPasHc1yd+OjoXIUckbAIJrgAPteqBJrW62y0K95QHkHZuqZCPrVyM 4gJgmk4xWlqwT/dlQcLcS0UOjsfO+djdurPCRvJp/7ZByTFzVRex144MoJfXVBh25fa5DNMmmwiB gF23+zqy5wnPHGfPPauS64tCGZBSruveVFMfrohiRwaQu1iowlXihH2ezVMnHIMmSTlPU3AUM2RO KiAEXe1rtuY81gMHp8EJEEJiDDQOyEna0HlXqPPO0EJPEYP8Xq4+d3EvGJQSAFvmJlO27HyY+Q8F EbMxG2efeGNtkSJkRbF93d05ShScOJta7fyEqykD+W28ACistFfoCHN7XLn9cxl6vb6OnrWFDLSc qIqCJ8oY03gl++8iQ2d7AVyUD1ASBDL6v9l78zi5rupO/Jx731J7dXf1vkjdau27ZMu2ZCxv2LEB 2xDAQIBABgIJhIQM+ZEhk5nJwkzCj4SEOJBASIAMAbODF2zA8m5Zsi3L2qWW1Hur99qr3nrvmT9e dXWp1Uv1osUi348+7XLVe6/Oe3XPveee5XvEufPeAJIkCIhIMoVxhTGVM4UxhSFjgIAMOYnb37bb u8d4T961BHiJogyoEBqi0uz6SRERrWyhEKSpfvVMUs2+BwDkC04EolLrExkUW98RUPmtf7esubV4 hbHTRjkdyuYr53wOXtLEwAn4WVVpiczsCFeFvEmJJKxavbqUp2mBOUXnrzwBCM90YCm8FYCAZurS Ny1G5XmpEIiMM5UzDkTI2JS8S2QMkZGU1+7aJiZWueGOzCzXP88BSGROdMEKzuADhZlrgnHKi0UB IT/uqBPWFEPWXLem/LNXtkzYSwRjp/NL5AsqRfnjZukSfSfKQRmw5b5d5Y/dYCSgcE4AkuSmrZuh yDozK63arKJg6cgLYHSWY887DxgCCvJ6mpb1qyREkaKw6M/x9rLTRKmQIXKUUjQ1tCkTvp1zx1JT jyu975L9tJF0ix8tb5wm38nDDAUxTEVAoLJ4UOYEAti5STbCSKi6sW5V+afv2vo27wXjeO7gZBOx JUU5o2cJ7SWc6OMiW/QbdAxD2fO37te9tD9JtHrNKpgHF+JcEnnXx+lzZqY5AZlLdsrtK78GIEdF ch4EAAJQdIWrCldnDMhKEAGlIdpcYMoZOHqBApTKxIsTN+THJ8leKyPT0p4CzKQAnCtLM/dPiJMf c4rCNdWt5jNUJ0yLdRPRAEAwkiLRs1QBgSko91dcNJABY6hJcBu1bRXq8mI8tUxjWvdpAATAGpub oLgBmJlQbV5QoCx6UASU5PSYL8yL2yIp+ieNC4aaX0PGkc0+o6HOghU1BRtm5Ez2vA9n+sUQc2NO 0W/uEe0MDJ++kENlFgWYqYx43kAEJy+Ly1PbRK5/+dixoZApwDXsfT51cRYBDzM90SXTDQaKgj4A qFSW12jryneAFhGqCCJjABQfHV+qeqXiro8VtrZzHQ/yrPGU191wHt8C0inlHj3fZJ/pLB0D0dqQ J+FMhQRT4JWRePdRF2v13tyz71unul6aeuS053M2sUldit8dGeTHnGLRSnP9jCQoM+H2699ffG3l RLzzIi0CHi7qOoAeoafHCrqA0Q8AVXWVnh++r68fZpk+6fxVjQBocpHBCzDx/twMoQz4WePJ+Y5+ D1kamRRwYtXyUjZmevIcuc9f8E2ZaUc4xUVv5q9BNOKud0/LG9cDwP7Dj54bPVPsfFdyL9NB1/yK ogPA0tQDIDqGKLqTYtHpszJmQTRcU+RARQWHj+aWNCh2IS6eOUReRXy9tnHBjECx+kqQxIDOnjkz SzpjydBGhCmjfOrTK31HndUKYsB7rBfycnxhPrEE9BR8v4hEEgGE4xCRpmmcqVz1TVFcr8uEXwsW 1ygzXdz3z/AdCHZOFBOZvaSbX7zw9VRmNJ4aTKZHSo+d/jfQVL+u6gAgnCUwLRHBSLoTKd9KOHhh K55JSJIHT+w50fnilPbAt1z7nuLVUudM17wE9vpF+YqI0tSkXxPhTdPtest62BU1UQJCwuGhoTLp 6osgmJH4rWiLa1NJK0rlw7jbmXR7Z8pLnxNx2VPsysE5l1ICEUP+Pz/z57u27fzsn/4FVwOcB5kS ZKyg24igqpN+8/RwSctQLPlb8l5u1C52XVnbdsNrJ570khssKz803lV68AxcEYxzrgKinRWLZy4T jlRYwUtXZByaCd0DR3/y5Bd/+MsvWNZ5Gefb1r2x+JqrOHgou+ScRdNh6ZeCKqU1wKpm8PmU9V11 LTVIwBC6OruKCjDlgjPZ8QX3K6KXgj/tMRxnWVX4uHO2fFEvRNztU3WNKVxRNUAkITlXDh987Uf/ 8Z3B7u7q6lqAIDAdUUMe9JKOEKAiFiuuAKmh83vmXngTiNmRwg4YAf2+0I/3/D0UhKYp42rGTbC3 DRCLL4hBMJKiyH42LQtQKTK5uOOY2XzikWf+acpHN19bYP5BhsPHc+xSKICHJdMBFQNsZlasC+hS pkd1Y4xzBsji4+MA03VQnlVeriqMse7OPtO0uOor3X160SgdZvSEOjKflzMSEpcDgxIAwBXFu1Ep pWVaLzzznJHPK5r+O5/8JJAxJVUWgGLVsaKc2bELWnhMyYHgkJ1oOnrNhjtP97xa2me6InJe8edM 3KCMKxwAhE2L3G4igLBkMYOhMlI/+/FSup7xc7xz79d++OnSj+668UPF1yRp/KIExS4uHMobIsHm abdMQXVjlaIpCOS67tjISDGruRxwTX36l8+uaVq1e9t1yyub/uFzf8e1SGkiKgKozDftuQz4qHNy MZJ7SE9UGHv2jxBi/959qqaRcL/4uc8BqgAKkZBuppAmTegP+Ir3Z6SmSXo9DwhmsrADXr/yxm89 /GelH04pDp7RvtFVPwLk4/bik5Bda3IrXRmdQwHGUv3eqmZZubO9B7/0nU+Ufrpr61u9F4xj3ysX KSh2cdFpPp2TY4vRgVBFSFEVAESQQwPnyo/YIGImkf6Nt76DA4VDwa3bt/7+H/8PAGRKdLKxJ6IP g9OeLkGk3Xk0aJsJ426394KEAMRcPpdMJhFR9/n+4a//z7qGuvfcezcilRKa+4OTK9WkF2gGSIfs bCE68fyBH3jTf3EYF1OMPcysALofEKRbbmO8GYFoJt2SwpzGWY8GheveD8oYB8C+oRNf/NZkh+B7 bv74xGXBzol413z9oVfCkkFnjF/m5NgM1s7cEmq6qvs0BEKA4eFhQCAqq9c342z/i/t1hSNiLpf7 23/68kRtISHXi4sIn4GpRZJjUXrxzzAp+ouvEcB1XMssdK/w+fxI8OKzz4IslE8hMiTw6f7iMHTM 80Nv549PRMiNTkZdO/sPe8doQQYAPn2qbs+oAEF/ISfEmEhiWzCknPQ8hAOzuYAAoLl2tadyTJF+ n0JEg6NnP/uVdxb79hWbCXAVe/YmuW+pOppcUpwxnrAoc6EOlJkSF62OAAFnrLenH1jZIUtkXWfO ejW4QojWFW0lsajzLjFLj4zFc1l7GUEkJEkJANFolPPJrGNElFIK1y0VKRyJFEthHHOOR2TnZem0 KAUFqhTpEtBkUKyIGRUgHIx64riL84QigrBJTBhBc+4BGmtXelnj0qVl10V8ukoE2Xzis//8ju5z xwDgzbt/p3iwk5dDh7PzNNKuhEUAAKjTeHrBnHANrXUAgIgDfQNQSKsuC5ZleyM4EAh88a//BoAD MABOwiy9iDLdIjDR9mqxk0hc9AKA8EriifwBfygSmbwskapqXFMKsxUBAUbCFTht77JpPMmYj08m QZCkymX+UHXQtQkQ1JLuWx5mVoBwlLwg7ujiylAYmGm3GK+cPQgAAEF/NFbRBACOJdUIrvm1qlBE l4II6J+/+we/fPGbAPC22/+wcG0Fe/en5mWkaTMYuJcc6FB+1Dm5sM2Ax2PFALu7uucRCkA0zYLR qGrav375H997791f+D+ffedddzClEPzyTF59uqfEkC9y+z4BKjR4JSICztmGjRuKVQ1Syu07rgVQ vIpJ4Tpky4qKSuQwzUx34RuspBSYQPHxjW9uzoznvHKZCwkSZ1SAaLTCq0wz0+5iVj0EkI4sWDXI lAtU8EJ4VWCElOy1lSq+5i1Vda0h7wb27Pu/X/zWR6/b+KbKcCG/DxE7n0mUXyjjUF4tN+HxooIA cNQ+eWEyWTlPu6m9gYgYYz1dXVB+Sy8ptmzf5kyUDgdDoQP79/3zF/72xeeeTY4XvEne32lNIA5a kNcsiRlpU97jHSQiKeQtb7zVsQvbAMMwPvnpPwRZqEkEApIUCUcLRN8I57HjXCAL45gZtAskipI2 vr3GtHNmYqIypnZqGvLMK0AkoqoqIBoJdwZOoXIhRUFOXQ+Wkwe6YdVNAIAM4915zpEYLbs9subm ao6MJA2Onv1vf/fG9e2FpsLIINFlpAasMpWUQDpUVkLVxQcJsA0ZX8D80rSiHgA4Z91d3dP8iDjN KwCQQt76xlvz5qRTnHOuahrnPJ83S71JPpymYluCmKCBWKwZKVFAoQCeXNe98eY3rN24wTRNx3EY 4zt37ywuCF4kMqhHi7VQs9FDIeTjjmMI6ZDmZ5vur2UK5OOOlAV+lOb6qYUoM3uBwuGKcAwAcqOL 84QiSFHYRQTmCgN7aG3c4PeFESGfdO24CwjSofAKdcu766qXBaVNRPD8qz9kE8JzjZ3eExdm+SGL K2UrDABZMTLlnXKM7LpltYhIALZpphPTeEIL9vr5VyIiRY+uWbehtIoSAAghGPCX+vsUnH6h9rGK Om3ThO9o4XDI8Jp/eoIi4oM//d4f/8/PvPm+e772na8zAG9/XBRIVUKosIm7KLnQlCQIxESPKWxq uSGy6V21ip8BgbBlUWeWNaybIsmMCqBwLRysQgDXkmJRLLMonYL+6Vq59ve2tbcDgCAZ7yywSZME YtB6R3TjvbUBvyIFuUJMJvEyPPHo2FJ387gUMERiSlZcOQtCMBLwh3wIgAw6z3TOZAFO13PX3HXT jeeVERNV19RGY02lCjBTOpAEUaeur1ZXz08H8MJ0HebVEnsmkBTCH/B/+OO//XdffeDm226xbQdK 7DEA4ODz+f1QoA+a8eJMgfyYu/0D9XUbgp7bB7xGowQAoCr6PNygHDXpz3jXMM7ntJoXCsUAAADg v+DrZ8J1m97sMTgNH8+ViEjSJl+1su6dNW3XVGoaly5JUeD6MzNubnRhHtsrxC9UQJluluVrWxhD hfPjR4/PlhQ9BdLZdfNNpjFpBTmOc//73gswmSFDRHzmJFMCatS21Wuby9UBBDdJIi54yW1lxDAr kFsReXzRjutK6TiWBMmUktuRBEIy5MFguBAgUqa7WQRAcEy5/A1Rxc9KCN3QNQtBkvUrd1143mzZ 5FzjDBE55MYWEQpAALegAJHg9B0ZLkR9dVvIH0UE03RTXXZpZSYR+KAytjmw6e01K3dUVtcEapsC qsbqWwMaW7JeHpcMOpvGLCxnEWjf1ColKYwdO3py2qToaRVJuOKet997/e7dpml6Yw81/0c+/hHp npdfMHt0mYDq1A0rfLeefwpwdTKpYvICBDwApgEyL5lB3pp0xnruvO5VBCSlazpExDgHnIiHoMca zxRA3e9HBGSozELVQ8iU88YAIti5QligSLBQihmvpWEoFmkiAvQWkQVrAIE7YYFNtoAvA5vX7gYC 5Nh/MH2+0pMh40wowFnFBn/b3ZUtt0a3vKd22e0VavWM89YcIl4eIAD4WOTC4Fc5i8CqLSsAgHF+ 5NBrANOZ7DNcQ9jW9x59+NfufSv3BSpqG776ja9V1VQV7Z+S0rDZ3BUSBCIDIAYqImh+ZozLV76b HNxvMhVVnZnxydtiOoaXcRlkQoPciM0YjrqnTchOsWaIpGu6jmG7luNarnBc9OJiIAikomie3aTM mP8ydfR7cM0Cv+1kbW0JZh4xhJFKHxEAYm7cQTY76eyMkJLUiVxow5yN02IKbtz6zv2HH3FdmUva qS4r3KKWCiDABgCQ4Nl3cv6yIbCL0zt+fgjzhoWFlto3tTKGCHj61Ckga5r8fPSciN6Cct5QE3bm y9/4qrANrmkAQjj2hddHYDBbvS9ZMsOAKz7InKNHvz443GPe9u6apmsCHc9mD/0iKVx6+2ca1QoG Lox1Om5W1m7SUGH9BzORIbv5ukhWjEV54/lEJgBIQrgoABAlgHQFESGQAJdz7nFd68F5THNMwfSQ hThjO6KZN8Ho0yKa90xdSy54DwAl0XZeNh0QAFRFG7ZvvI0IkGPf/vSSJz8TLBnx9YJF8LMqrz54 AahbVhuuDDNEx3FOHDnGZiLwKKSKTkzwEy+EnUcE4VjCWUhZJnh1Kho+9ZWhv3rfMUD60N+2pTPu 599/8vF/GVx7Y+Td/7tZ8ePhh9MP/kn/gYfiqBYaHDFkA4cyXc8mz8inuK4oqvcBAECBG4IKLnyS JFxXCiGltKUzNjroGWZVy6YN40z3UyJYaWEmXEDYueXeae9i5h5hGCBFMgVJkpnwYssLmaiQQFJh NdXU+f3Yb73ljw6ffMY0nXzGHjtkVG32L3XXo8u4Y0AAqtM2LGYVWr2t/eDThznnL+97Zd3mdbOv g6U64C0IXtOA6Q+ew6FGyAmTkb//+CkzJz7xwGqu4gMf7bAt8WsfbNx0ZxQVohw9/o+j4Rrl7t+r r1yuuA5JCYjUcmMk8T1j+ERuH+5tuf2aRt9mH+hEAgCEM33qJXHx/HM/zyXTTNEUBVt3XJhMMJMT DEdP5biGALB13fT9SGddARRdVRkBiOmo58pE6ZkXOqFmB0Plw/d/HgCYgl2vJGW2rJzHKxuTe0MF 9SCvWUxqzZY3bFBURdPUl/e/DKCVH1Cb5Mf1KHSL7xd3AiAFzLgyMAXHuqwXf5xat632v31/7VCH 9c3/3rPr3uo/enDdprsjkqRwiHR4y6fqbv9ETaxd5QpTNcZVJIJApVK7Lsg4Dh/LPvbqv562ns6I 4cJ3AjKFe+XCOEHkLkkcPnLw37749UDQr4eUW353pT86ZcMz411zDYeP5ZDhuhU7ZzpmNnNK1XRf gFmWkOflZs8PpdLN1KhsFjTHNt6x+92/ePo7wPDYw2Nb3lUrXo/e/ukQ5S0K+hZGDOFhzfaV0eoI y5odpzpA2ADTtNCaDt4Bk7/MlFMQ0SZrRo4GDn1HcqdeS15ze2zNsoZsJssJP/HVlWoUi/WDviAf Om0+/I89uYSrBnku7sSa/cvWhm//rVrbkst3Rsc68lxlZ58frVrzyBH58DLt2hZtOwIiKQjomtKI y2w2a+aNEx1HfvboT4YGh/WQuuKG6uvf2zrd7UyjA4iQ7DFdS3IVd21760zPYjYFiKrLNL8CCbuQ BbgwMChyAvvmrwAAcPs1Hz7d+0pX12nbEqceia+5Nybcy795XRwQgKrVVYsZ/QCwbE1zrKGKjyZz RrbjZMfqtStlWd6AuReKuBjw6BgE2JIEgURgDDkyGDiZ6z6V3P5mvx3qzeayxGD9fWHpUqEtFYLP p/zLfz31s693BcK80AAPgb2MRlrseNOt/kpEhvWbQsPHskyB/pdSLddHe+1Xeu1Xit9uGk5/X2r4 dDo3YjhZEV6pVK5vaFgX3Xj3tHwi098O19jAgQxXUFX0lctmbOQxmwKEWA34FC8lzsoIL7A8X0z0 BAOYuV39nPjI27742a+8LZezU2Pm6cfGV939OtWB4j6KVAxo00UA5os121fue+xl27ReeHbvmo0b wDbm1XH1POEm5ilT5tJyJOX2jTlnTJmS4CjoB5BEBEjjGTt6M/apSAZBIdmRJq4AwmIf2/liMp4N V6heiHKCepS4isItpMY0XRMePJzlKg4dzS3bGZ3ibfKF1JXbq1dunzNqNPO+FCE7bGeGbEVnd73h Q9MfAwCzBcIAJMlgwAuJ46LaRU4IuWAFYKB/4v1f0XWODOODZufPk5eEEmKJwUqedoDF2MzkC+Vj +y2bEdFx3H/7l3977eUDXFPBc3tSuWt20d52yUmL0XPOqaPW4yfyj/Ra+/JyHEACoEuGS5YAW5BT uQ5Rx2kz0pDj8Wfj4yMZRWX+kLrzlrpdt9Zt3lFd1xjU/aqUpOqFOZRxrF7pJwmAMHoyv1AK2hnv UNFYz960FzKbxf6B2RUgxOu0gOY9T2Etoixm4kwh5rHiu8J56ejPzva/Zlo5AKgMtHzsPQ+oKmMM xwZyZ3+WYGVx+F1BKM189rFImR0xZsfqbe1bb95UEQu7wv39j36is6OLqypAgfhkWt/oFEI4h8yU GBlwTvU5R4fE6SPGT7rN51wyvPlVgpgyzkhekGRX/EjQhpsrOeNcYU0t4TUbotftrrrl7poPfKIt VuNXVLWqSfFOJQm+qApAyMA2ltgfjQipASs7ZAHCDVvumf3g2RSAk7aiYT0AIFtEYWQJ+bbrThNw mQmJ9PDJrn3f+dn//unTD+w7/LDtmPVVqz/yzi9oKkeOiRHj1EPjKF9nOgAA3o/NUV+qMNwH/uTd H/j0r2+7cW1tc/WnP/Wpo0eOIiqMKelUNhnPOpa3gZPePwdMU2azMpEQg0Pu2R7ncK9zbFT0GJQ2 KH08/3BGDE4Mx3nrJxH4onjrO1vMvHPq6LhlS8sk4ZJlUvfpVEt7UJ6XpQBerG6hZsHkVaaA66zz qaRHmHDfbZ+48IBSzLYK+1kV+iQiApBT6Jc6/4ciSY8oZtZFBNOeR3flmspm2zYsO/fayT2vndzz 0FMPvO32P9yx8e7fefcDX/7OxwVAJmGd+PHomntiTMcFO6kuB7wRuUS05gAAcN0d2zffuCE+FDcN q1ce7j122M26iXiqqrqiaUW9j81dhARAZ409xYl/wZJYhnz/X6584adDtms9+/Ph+/9LixDUcTQt JbVvj5Ya0iSpUBGAi/rGKUCGw0dyTl4wBa/f/JY5j59tBVBQrw6vUnUGALkxZ4GGGoHiK6ip132+ fLz3Lf/LFc7EZehHe77wLz/4o6aa1f/9t38YDsaQYT7vHPvRuJOUr7stgUvWgrlBp4UvoDeuaFix obV1VVPrqqaV25Zfc+vG9i3LfOG5Rz8D3m+9MsH4sLixSIBcfv3U7lUba7pOJ08dyfv87NmfjwDR lt01JXn1pIU4ycUTb06z1xl4Oe1Vz7z19t+f8/w5foOIvy4UVQHASroLLothvPAthjk/PmG/HioS o3t5Tp0Dhz7zxTtePPTTj97/hfZl273939GHRrP9Nr+4dLlLgkkJE27PUjGbzwRWXo40AhoykXC7 lmD0AwAAEdjC/eNvb4pGA498v/upnyVSSVNT1S23VYqJLGUiqGjSSdBiK2vOB+M4eiTnugQAO7fe V9Yps3+ssUggGAAAY4Jqa74gAqYUnmzenK29x7R48+7fBQBkGGv3V7b5vAs+sf/f//abHwz6I1vX 3qbrAWB06pfj/a9kFN8VzpM1ObxcMpJOzxLVmC8KCGzc8Vp3LZkdQhLUAHz6m9tR4r5n+qUDH/mr zUqgZAtAoPh5IKYuxXdOjkvhUKLT8DpbzO79LGKOEaOAXlO9zNu458cXsg8mAj3Cvfuc7woAALrm v2n7O6VLUlCkUV9+Q8QXUbwityMdzxzqeAqQFK6hioNHsicfGefq62Zb3GO9kJOjZeoAei3aUQEg l0yXDJuytsw4lBdkQ3klBNNCgJ0WS8D3NvWyLq24xveFp2/afG3DH/39tW/4jSrXnhJvBsXH5WKX gJLyZwb5ISubcgDphq33lZl4NocrOsKaorEAAgKD/LijR/i8fXc0mcBtWgtpqfCmmz6y79BD6X6r okX3V2ihet1IuukBK9lrWhnXkqan8UzBzIh98Nsj6++JaUFeUhN05eKMsWeZfn2lumKWkLA3sk2Z Srg9eTFmyhQiunQeQWyAVVerqyuUlgWEwATZDs3DOVE+XJsqm9mf/HijZUo7PzWPS0rwR/noWRlt 9pU9qGYz0ghg7LhBQAhw47a3lXnFuUwgDFVXt3uVPkbCXZC2ElPQu0PLmY7KuAx87N0P2Dkx1mG4 ltQCPFSr1m0Irn1TbN091TVrAgAgC8mGIF352oPDw8dzV7w55IF6rX391suSnAuXAm/oZ8RQh/F4 h/H4qHMiJ0cF2BOjHxGY98+S6V5rb5+1f75mDAM+kYt2UUASzLwgOU3aKQL4osq2d9XpYV621Bce V4isAxKkRXzIRISW+nVzMnAWMXcwsjrapGmK4djZUZtxEPN1OBL4o4Xwh9ekYAGor267bef79uz9 lupnsfZAIKZwjkKQL6w0bgstuz6S7DVHT+Xj3aaiI9dY7/70+Flj9Z1VXGd0xS8F487phNNZqa6o Vlf5WMUkD7gcGbAOmDIJANP55mkyuR9sBfWE262gv1HbWn7jOgli0HptaW5jXiAgotjKIBDNRnNS 5rUAOMe+V7OSJEO87frfKP/kuRWgUlsZiOpG3s4M2cgR5p8azbVCxYPjXsDsXjbu3PnBE517B050 Mo1x1a9HOOMI3Cuko0iTXtnqcy05cjKfGbStrMgMWi//22Drrmj9puCVnz8qQYw7p8ed0wgsyGs0 DApyUoWuujits6/kIwAAlywAHHVOhHl9iNeWYwsxVHrM5wXYS+T+mQ8K5e2w0B0AMlBksUcyA3vQ He7JM4bN9WtmSX6+EHMrQAW2xpaFxs9lpSvNhKsE5pcSRwBcLVgwlqPdAAAgAElEQVQjtr0oRqrf e88//ekDdw2+lgWi+vUhpnuZhoUnKBxChvUbQw1bvGg/OKbMjzlG0vVXKFe+DnggkDkxmoXh896b BAJQSTHnlLsiAOi3XloduGvORncc1WH7aNLtvQyjfykwOfoBOGLn/jQhIeB9t8wR+p2Csgzl1sbN XkF+dsSetzOUwFepeHaIkG4xsLUAcMY/cO9nuYqDh3L9BzI4XQoJSZIOCVt6ZZyhWtUXUeRSRl0v OmZNkaAZDig+CLQp12+9zIBP8QvlMmZ8JAUADDiB6LNeGrQPzSLGld18pERlGaZPmom4iYjXbrir pWF+PUjLSkhcXrOR8SeIRHbErlrhn6+roUhqBwCZXHyWtt1zYm3b9TdsuXffoYfiZ/PCpvZbK+Ss FApeoOXK/i2XBFRqKSXdXkF2g7ZVZ2GGKhB1HOl9/HsvHX7mkJTynX98Q/NtVnEGnWkBeH2smQho yK4DaWSoqb77bps79DsFZSlAU2hHuEpLjhiZYRtn5wqYDkTgr1ScvAQEw8wsRgEA4L5bPxFPDnb0 vpzoM47/VKy7J0ZIQMBAlTBjr9lfAZx34xkxlDEe56BpLCRseOjB7s79Y15Lou//9Yv4OVx7R8XW +2K1q/2vj4E+A5Bh3/60ZbuKyu674yMXsp/PibJMID/U1NRXI2Ju1F7IroVI8RV4wSxnCYhp77/r j9saNzOORsY59oNRaRIyzyh8Pf+YFwEe+W5Xx7mz+0ZIOFxVkTGvEvjELxLf+fiZB+4++vzXBkc7 jUW7Yi4DkKPRbQ935xjDcCR6zZrpeR9mR7k1Gavarj19uB8AsiN2oGp+e0qSoId4Pu4AQCozOn8h pyLoj77/nj/fs+/f9x7+sWW7R340su6uar1GWWrOiKsE3fszwja1QNAfidq5rJXLCdcFIkCULh34 3tiB740BgBZg1W2+imY9FFOiTboe5IEKxRfhXEGmFCjfGEemoOZnpYlhUpBjSilA0RlX0ct4EzbZ eZkZc9PDbmy5Vr1c9U4vFYwkLZx3GYFy8uy+FDJExFu3/+bCLlOuArQ3XKtoDzlE6XNWIKbOy0Ik 8LIhCBBT2UU12SzC7wu95ZaPKYr+7MHvkqQTj42vekNFqF2XiyCwuIpwXtCg+6WUFFJlXAVSKipQ VV3LFJbtWJYQwmsYjIh2Xp47lj93rKyoMDLQglw6dGHDItXHhMdvQkiIQISMrbwpevvv12v+qU0u FqgDCCig9/mMaTqMYX1t+w0z0P7MiXIVoCG4ORhVU6MiNWA2bg3NLxxGoPqYR0KzsGyImXDXGz4U 9Icf2/s1Kanj2URLKlKzLSD/cx2Y5H0gABzrNBHRtsxYdeyzn//8nj179u59UUrZsqyFXLens3Og vz+TSjOSnHNkBVqSkqshIAARlvKmCLDSLp1PKEFEQCRzCABSSillgdyEsY6nxs88m/zQf6wOVk0O uQVP/wg4djA3NmQwhprqe9v8975FlKsAHAL1TU2p0c70gD1vkiwif5VKEoBDIj20EDFnxk3X3F8Z qf/uzz/rAPUezhhxp+WWKJXFrnnVg0r+gnDdTDpdW1d36623btu2TVU127ZM07Rtx7atsfHx3p6e vu7uc3398bHRXDaLXEHOuO5Dxsib0iUVVIMxAGBMUTS1qrIiFAgwxjjnXFG4ojqWiQTNy1oqKqss xxkeGU6Ox8eHhxKjoz////t+/a/bFnlXjGP6hDlwOgtACHjnrt+aifawHMyjLntd602nDnUCUGZo ftsAAlB9hfDZeHJw/kLOgY2rdscq/+lLD35MII0OGNkfOavvqOIV7D+3BB4QGZEgIte2Oed+vz+b zVZXx4QQwWCQc+6xCQkhHMcRQpiWlclkMplMPpfP5/Ou6wIQYwyRKQpnjDHGEUF4zRxdkUgkiCAQ CFRURCsqKquqKhVVtUwzm82OjY3t27dv8Nw5PRRiiUSid4HJYCU3A7kue+B4znUlItRVt71h+9sX c715KMCKlvWcM5KU6jcDsfA8tgEEgSqVJAFgJje+EDHnQkN1+59+5If//P2Pj4wPGnnn+COjy3ZU VK7VF8Npd9WA68w1hJTSMIzRkREhRD6fD4fDjDHLsoQQiqKoqqppWiAwQdzU0CCldF3XMAzTNDVN Uz0+AsRinQ0ReTREnCuIBVaVoiKZhjE2Nv7KK6+cOHESADLJJCBtuCu2qDthIMfdwSM5I2cjgsLV d975R4u6YJluUA912jWx+jBjmOg2S2NbZYGjV7GVycUXEwyeBT4t9Mn3fnPH5jtUzlwpO/clevak UOJCKTeuHoSrC95xy7SOHj06MjKSz+ddV+i6XlFRUVFR4fP5iMiyLMMwLMuybdt1XSGEEAKAPOum iAJl4cQmQUrpug7nSjgcCQaDfr/fcZyuru5f/vKXDz38097evkAgYFlWPpEIVik3/OYiQkAMICN7 X8onE4V99/vu+bOmutWLfDjzo6ZZ0bppdOD53Jgz742mAH+VaiZdIV3DzMzZLHXBeNst/9/KZdd8 79HPEcn4gJH5idN2YzTQrP4qe4eqWrVEXw4AJNHTTz+9cuXKYDBommZVVZU3hauqpmkaIgohXddx HNe2LSmlbTuGkdd9WjAYYIwzxhljRAKRSSkQkXNFVQva1dPT09vbe/zEsaHRc+OjY44tQsFQIpkw TCM1NESIt36i3BTl6WHQ8IF8cjwPCApj99/1J1430UVifgqwunnHS+wFQEoPWJFGrXwjSLqk+phH OTAwcnpJRJ8Jm1bcVv/+FV9+8OOmYVmG0/FUvGFlqG5HcPakiasYbdeHzj6XAADGcKCvv6amRtf1 kdGRhsZ6AOlZAYxx13W9OV7TZCgUIJqpT8wkx31XV/fAwEAymTx9+nQ2m83n8w0NDds2Xes4juu6 hw8fzpu5s0d6XMdu3hJqu26azpNlggSkT5hDAzkiYAg7Nt2zZc0tC75aKeanAK21OzX9ASlkoteM Nuvlp9oTkR5VYNAGhOHxnouqAABQU9H6mQ/94N8f/Uxn7zEpZH9HJjNstd4Y4dW/isGytbdFn/ib PgBAxHw26zhuLpfL57Le9I9AjLEnnngilUr6/YFVq1b5/FpVZSwQCAwND3V0nO7v63ddNxQKEdD4 2HgymXRdV1GUZDJpGIZnKfn9/jVrVm/YsDEcDgeDgVAo/OSTTw6c6zt96IgUQg/xd/zNioXfAANm UF9HVghChMba1ffc8rtL9XDmpwBBtSoSqbDMsWSPwXZXlF92KIVHi0cA2D1w5OZr75+/qPODpvo/ /Na/f+61/3hy/7cs00kmrY4nk23bwv52Xb4Ow/6LAVewcWPw3NEcAiTGx4QQuVyus7N78+Yt/qAf ER988MEXX9yXSqWIyNsNe+59rxe3B+9/PX+Rtz8uXj8YDLa3t99ww87m5iafz5fN5p5/4fnHHnv0 1MHXOOeRWu29X5nanrp8ECIzxKlfJG3LRYY1lS0fvO+znC0Bq6SHeV9oRfPW0dEn7KwwEq4aLLc2 gDFUA4VYWP9wx7zFXChu2vreDSt2P/jE/xgZGTJMt+tgpk1jgTZVOL9a5tD176/78R93AqKVz+s+ X01NdVdX1yOPPPKud79rcPDc/v0vOY5jmmZtba1lWZZlAYCUkjGmqmpRK6SUiqJ4ES4A4JxXVlZe d9110Wh0+fLllZUViPjCC3t/+tBPXnllvzmW5Jyv3B19858uW7DYXEGjxznzYtKL+MYqmn/7HZ9f 2g3kvBVgzbJdBw4/KRWKdxv1G0NlsNEDAABDrjPv2Exu3HbM+XaLWTCqIi0f+/Vv7D/53WcO/F8z 73a9nPKf4E3XhbWYUmgl+yuAZduCy64N976ScR1H5Wx5aysinjs3+A9f/IdDhw67rhsIBN7zG++p qanp7+/v6+0bGhqSUgaDwTVr1uy6cWdVZVU6nQGAYDAYi8WklGNjY5zzWGzSrZlOpz73hb985cCB 9EgKTJdxftsnmza9qWrBCT9cxeRRs+tA0pXEGVvRsu399/y5rk3fwHjBmLcCLKvbzBTGHJnoMhu3 hsrkekMkzcdhggdpaKxzMdG7BeD6te/avOrOR1/425OnD6TG7MTDY7XLA/XbQzzMSP5KqMHtn2z+ 5oc6uGCJ0dFIONzW1rZt21Yi2LFjx2OPPR6JhG+95eZIJFo8Xkry+m8LITnnFRWV3vvelOcNfc8Q Qi73vbT3gS//3Vh8zB6zuKToMt89f9EarVcXNvqRAQjsfyZz7nQGFWQMbrn+fXfu/MCSPIcpmLcC hAIVIX9l3BrNjzrCns/AYahMLALd545dYgUAAD+vfMfuz45f0/3tR//i3GDfUE9utCffsDpUvSGg RJgUV7kaBCrYDR9oeu5fB7KmIYQMBAJ+f6CyslJK+clP/oGU0u8POI6LJS3aXVcK4UopPWWY2ACQ lAIKBNRISD/4wfcf+vn3XZl3Erbqg61vrd3x7hopaCF9DREYQ+uce+aFRD7rMAURcNvaN16k0Q8A /M/+7M/me04iPTww0iGkDFZq/oqyVAgZGGNOatAiAQDAmbp17fRNyy42AlrF9RvuC/qiZ/peBaTM mDXaYVAeQtUqm9DPqxKMY2Wj2n3Q7uk6V1tTH4tVAYCmaT6fj3POObNtRwhXCOG6rus6rut43kwh hBDS+0gIUWxCwzlPpTJPvfDYswcejY8ls4PWqhuDd3yque26MADw+YZKAZiCMkPn9mc6D6RcRzKG qqJfu/GuX7/jv87euHsxWIgCILBDp/dIQYhYtcJfDjMzIqR7nUSf4S2ItmvedM075i/tkqGlfu31 m948ljw3Eu8FoNSINX7KkHkKxTT0vf7azZcJ1cdq2vQTT2dOnDyucLW6uto0Tc/W99I2PQ+Ph2L/ PO8vY1j0COm67jjuq0df/Nkz339yz57e02NVjfob/6Bu/R0VWpBxBec79yNHLmH0YP7s3lQmbnlN Zaormt9y8+/eet17Lt7oB4ByeqpNhe2Yf/nV+4QrFcY3vbemrKgwgjPuHnl4FBWPFh4/89vfiYTm 7IFz0dE3ePKhp7/UP3ySiEgSQ1bTFqjfFlIrGDkLeDavA7zyo+Teb8UZh9rq+ltuuXnFivZAINDU 1BSLxRRFYYwVh76nFQAgpTTM/NjYeFdXV2fXmbN9x4dTXZZtOTm0MrBmd2j726Kajyn6AoY+MBeS Z6z+QxnDcLxs04AvsmvrW2+57j3KfBpLLwwLUQAAeOA7Hxke7SIBq+6M+WuVuadMBGnSaw8O4cTK +Jv3/sX69l0L+OqLge6Bo489/9W+oRMkSRKAoIqGQMOWYLBJJfKa2F5V2Psf8QM/TDHOgLC5ubmi IppOZxSFb926df36Da2ty3Vdd103l8vn87l0Ot3d3f3SSy/19fdYIq8HUA8oqs69coMtb4m0XuNX fWx+Qx8BGZJF+V6r57VMPut46UWM4YZVu+69+ZPhYOVFu/vzBVmYAjz98rd/uf8b5FLd6mDjDeFy FgFVx1e/MeJOUJTsvuadb9r90QV89cXD0PjZR577UnfvUdeVRAQS/CGtdm0wttrHAniV+UwHT5nP /Vt8rNNVFAUApPQMfSGEC4CRSMSzdqSUpmk6rq0FuKYzPchVP3qTfe1KfcMdoWDlPP0oCIrEVJ8z 1pHLxG3LdIuZdWvbbnjT7o/UVi08brAALFABBkfPfvn7HyNHSsBt760rJ7bKVDz7aDwxYnl321y/ 5vfe86UFfPXFxnDm5GMv/uPZM6dtQwAQEDBkVS3+ug2BQIMqCa4mt2m83z7682zH06ZjiSlGv/cC Gag6BisVX4QHojwY4zVtWm27XtWiznfKZxyZoOQZe+BIJpuykU1WhLU1bXrr7X9QF2td4tsrR64F 27l/+ZW3GlaOXGi/uTKybO7EOOQ4+mqu51DKe3A+PfiZDz+45HGNpUK/tf/JQ1/tOz6UHrfQ2xVL 8vvV2Cp/5YqAXsXIax5+tWjC4Ekrec4xM8KxyDGlV/lOglQ/C1TwcDUPVPJQTJm3ZxOBcZAucxLO +Kl8vNcyLae04rK6ovntd36qrWnTkt9RuQIuWAEe/Plnj55+1rVlZYO//e6KuWMCCOaQe+zxUa+W gCH78Dv+ZkXz5oV9+6VBl/3LPc9/ZbDLyKctScQQgYAh+qJa9QpftNWnVTBZKAC/3LJeSUAGgMgR cgNuqscY7TaMvMM4FptGI2BVRcMdOz94ubzhRSw8qWhj++5jZ58DxNSw6eYI59yvEwRiiqIwWZhP ZffAkStcAdq0Oz6w+w3PVX3j8Jlf5DJOPmsLRwqgfMruPmiph7PBCrWqzRdp8SlRJHlVWUfzBSIA Q8ZB5Cg35CR68skB2zRdZICIHj8sQ6YoWmWkfve191+z/s7LLTLAYlYA08791dffbhsCAFqvjVau 9c0ZEGAcO34ST6cK24C2pk0fvf/vFvbtlximk3214ycvn/qxkbPtnGOYgiQh88ptCRFDEbVimR5u 9vmrOSGQ/JVYFiYHvQXGsJPqM9NDdi5pC0mMQXG+98a9qvjqq1t3brlv46qbLrfgk1j4CuDTgrWV zYN2r+vKVI9ZtcE/J7sYAVSt8KUOmF5Tx8GxTlc4l8DXu3j41NCuDe/bteF9PeMvH+589GzPoUzC Mg1XSkkERJROWpmkjYczqs6ijb5ogy9Qp6hRRjShDEW6WSow3E4LKy9sQwSianLQBIBYyxW2R0JA hsiAk8pdf3bYSgykU+dy2YTlupJxBESvl5N3rKrqmuqvjNSvbbt+85qbaypbLvcNTMWi8qrXt984 ONKLCLmUSxkJ/jliqCQh3KTz15g3Bkwrd27k9KVPCloMlsd2LI/toB1ub/LlE13PnTr7yvhoyrUn FAHAMsVoV26001C4qvmUcK0WqEFfTNEDmBtxCQhUpgdRCatMI+QIkoChFDJ1zjq1N9H7WoYr6I8q oSotG3dqWv3b7qlhrNBi5zIsKVj4i8i4UDEvxzvzmWHIpdLZTI6AcIJGqEiCr3BV14IVkdrGmpUr mre0Nm1cJBvsRcWiFGBV646nX/6ucKUQZKWE5p/rakR6JY9EtUTS8jxgJ7v2v74UwAOCsrxi5/Jt O+/aBrbMdPUdOdN78EzPoaHRLvLGKkpHWk7OynXmsIsjclVhtmu7rkAAICBJiqZwBbjOhEWjA/nT r6WSwyZJYAr6g4oWYJYpz7yAblqs3hnzVTI9qHCdASciKK3FE45kHBfGr1YATX2HM0SHGJB0gAlK jzjJASsxZOezLiAhQwRAPtmZryraUF+9orqisbqyuSraWFPZHA3XLOjRXmosSgGaYmt0H3dsKYXM jTh6ozp3kSSHULWWShZaxRw69dSdu35rMTJcdmgsvGb5rjXLd8FNAAADwx39Ix39Q6fOjZweS/Tb rimlABLCAcTSFDEkkK4ANycB4eyh1GiXAYgMUTpkmHZ2nIAzAHjt8REugCS4lpCWUDhoPtRCYKRt I+G4lvBXaLE14ZYbqvWICgDCkYDAlfPIMAiAKYgSvM7UiMAkUZ4YA4HIFUROQgDaYOaEmxdWUhhp 18wII+eaOSGF9Bw7xZ4uCLi8ccO69l1r2667LP77pcKiFABBXd66+vjhY4Io0WdWbw+IubIGSFKw XmVdzEsqHE+ey+TiF48k4tKjqW51U93q6ze9xftfV5o5Mx5PDWaySQRVU3xCuqadQ2B5M5XNpHJ2 MptPPhf/kaooyDAaDDZUxwb6e1KWY9sCOIz35k/9tEsYrnSIJJHXGQyRIXgN0fSwmjqTjb+aDMU0 x5SuKRhHLayoQQUUxn2M+7nMUT4rAzHVFcwX5W5eOgYYORcAGC9sZR1HOI4omjTeC/C0RUEA8PvC bU2b21u2tLdsq69eLMHbFYLF1laub7+p4+QJNy/TCUekBczVQIkI9Jiiqsw0pbcpfPXEE5egRPhy QWG+aKAxGphkBBkfGU6OjeWymVzfOMmAYjEYFU7W1RSu6fqmle0NNbHU2EjWcgkIXGkDZHoNDtLb OiN4/9AlchEAwAAjjTgIXvYGwHS9LQqTNhT+gwwUjXOdq2GVa0xVmFrr1+v8WkjVgopnzQd8kcba lXWx1tqqZY01K+trViyAff/Kx2IVYGXTTs33r1beJZLpfju6Zq6erwRaBQ8EuWkWqqpfPvKzq1gB PEiSvadPd3eceuWZp0bODaSzmXw6nUklRSatWpaJgGqQlJCmKOlcrr46VltTO5rKIIIAJoGixGqk TCOoAGmOnDMg8KIOnk/JISkIJICcYMRVADgAAmhUID/z1IOQkAAkmMJ1DJclLQLgCEpHigGBouih UKSqurF1RWXLsgqtdXnz5rbl6wBAunJ4fDgYCITC4cv7MJcWi1WAMGuobqrIpkakK8fOmtF1fijD GRqs1pIJ2/MOjiX746mhqmj9IiW5kvGDr/7zS0/vGejqshzHL9yV2Zxp22uEZASASJztYzAEJIjy loUAoVCIIxBAhaR24S5jbL1PVxABQQEARMEgh2BJMDi6kpjpkitcSRqBAsBKghA00U6VAGgi6CMB kEAAGAg2QA4hhxRnmHVcO5HMJlKDZ88wroTCoVh1TXNLS11T05GuHlcPbLp2x6+/8/66uivXqzNf LAG9xMr2bb0nfyERM3FLZiQG5iooIfLXabyTuW5hx3Dg+M/vuGg1b5cdZ48fe/axR0YG+jPZ7EpF WedI0HRUNUnEGAMEyfl22/0ZERAZpiWlDPj9CiJD1FBWEQU4aw9pjpyMH0xupQGAA6gcALB0A3b+ T1BQAChwPOeFyLnSkFJIEgCScUAUtpMUIgGYQplEiJPjJBL5VGqk66wgOoc6MownE5u2bP1PBTgP q1quezHwZDZlu4LSvXbFen32BHqSEG5QNY0VK1APHLuqFeDEsVQ8nk2lNcRVgMgZAACiMjEumZQV BBEhXQLLcVwhfLqOgBwxj8iJDAmOnIiz08ReACf/F+DC1zPKwxDCCg8pHAEYQlriqGQEhJoWImrw Lk4EAMMce1xnRNo5GxwVJUH32U5Rwgh0FWAJmGMb1GtjrX4AQIREj1lOARv6MVSlFXlrU5nRcyNn Fi/JlQnbsoxcznTsNbajltiHk6kSBByh1nUlkBDCchzOuaIwDTENzEV0CNwphiVOfYXzatgw8VcS ZQEcAAkgAFxkEhkhEmPEWB3BTuR3Sx5EEICAKF13bHDgatKBJVAAFQItrWs5ZwCQSVhOUs7ZR48k RVt0PpFbS0AHjv9i8ZJcmaiMVQvXla6bOz9ZCieePgIoiB5/PBHYjpvL5wGZypAhDHFOBJY30mce 5XLSKkIAnPMnKOJ8G4DO/x90GK/0+252yeftKxjzB4JcWTJitsuOpeEOX9tykz+sIoDjyEyfPScj OREEm1VV5cVF+3DHM0siyRWIlRs3qZqKAAkpoWT2FR73oNdAhGNUkgSQUuYMYzweF0KonDGic5y5 RAmv5m5iui9cumS4IgBwJIaTfZGnXYoveC80+d40xyNAjpApig4AAIFgsHF56zwfwBWNpVGAZu36 WJtfSgKiRLcxd1iegAdZRc2kXzmXT3SfO7YkwlxpqGtqbluzDgBSAExITpJJyaXkUiJB0b+vk3Bd V0gRTyaHhoeReaQ4kEJkBCO2ZIUQAJ63BS68UxK4KnwyEdGaAphMyofJzTEUG2YjkPevKL8EEFK6 nlPV52cL7ut4RWJpFMAHlctXrlEVDojZlC3yczOlkKBom88znABAkjx44pdLIswViDfc9SYA8BHZ jnOhse5Vl4WR5XJ5wzD6BwezuRx67nlECXBM5RkhdYYKoII4JfHHUyIiEkCCwCVwiSSAJBAckXl9 RIEB8Il/CgFHYAgMCz3mZ4EkskWhK2IgGCg2BLg6sGTG3LqG2w7XHE4M5x1bmgkRqJujiRhJCDZr fh/P5goh4aOnn3/b7Z9cKnmuKKzcsCkQDGYNI26YdbrOLkgcRwI/A8ZACteRqKmKZyMxRJTUraht pvlUPKcLkEAOkMsRqTD0pZQugCDIcZSSCq0hGQjG0gr6EYOIKqCGyBFUBIHACGKWrJDAOTKGKqoS 0PP9TAg2aWzZrgtEAgmRhSJRXdcv6bO7yFgyBajn26pX+eODBgClB61AgwpzJcaRAlXL/Zljtuc4 Mq1sR/crq1uvXSqRrgS4rjvQ3ZlOJlRVMw3jVQVvzBs+XdMQipzj5MpDIWVQZ34LASe7TxGRgmgR caC9mnrKtasIVIAAAbjSVNABQIaOhhmGgoghThQeeKkPAIwICBAZR0BQ/FzRGNcZSJAEEUn1GVGf solslesEgJx5VT5+Peg6NkMAKQzLHuJMEIYiEUVRgqGF97m4ArFkCuDHqtb2dZ179woJiR6j8bqw mDMzVFJ0ua6c4l5inJDuwRNPXG0K4Niu7bi2vXbb9mOvvJS1HcpbJsmUawnGTQREJI5djsYYhjg6 oHJEOeHTL5o6AsCSbBwEeKY6AyRChowBIiCRAlNzgLxaRK9+xTObOENVY4yhcCVKyDE4E1WOu66a xYAtYgQhcnRJBCAxj8gYIiA+rPs5QwL0hyKuK4LFRnpXBZbSn7UqeserDa+ODxjZuONmBapzb4W1 GiUS1RJxw5u0TnbvlyTZVdTXzucPNK9oD0WjH/zUpw/vezE+NsaN/C+e/K5Buj8QZcgCURUZtIf9 0bpIYsw4evBcKmPZcqIAhkhRkTFQddbcHquo4oyj4uOKn6t+HqzzBWt0xce5zhSNc50pPq74GDJk CgNPBxgCAEkiCdKVwpJWxskNm7lRKzdi5sfsgZfHz6UtS+E2MkJUCSqlrJEUBEoyli1sitGv+5qa m9tXrc7l81dTOtBSKkCjsq1qWWisN88YxLvM6rXl0IZS9ZpA/AUDOQCAaWaPnX5u0+qbl1Cqyw7d 56traq5ral67ZRsAPPzkv1TJhrUrdwR84bXXNQfqefEpZbkzBlkAACAASURBVJLGid/8JuVt9LJ2 kBQNg5UaU3DdzVV3fHz5omXhEIZAtV7ZFiolLh86nDzxi5H+11LpQcPIyAxAigMhMgCOzMeYz+e/ /tZb29dt2LxlS+g/TaCZoEJw3crrz774qAQa7cjXbgwKew4NIAnRFZrvgGI73uJOLx97/CpTgFK4 wn50z9eb6lf6tEB9Q3Xp6AcAVePr3tDWfWRobCRh5h1E8EcUf0TZcHvsxvc2La0kpY6k+s0V9Zsr AAAZjHfkjv1kGIGkSzs23t0UXZdJJNZu277+mh1LK8AVgiUO6a2u+rVo3ROJYSM3ajt5UU47YVKw YW2w67UCYVZn32uGmfX7rqpppohv//TzoUBlTaw5FAjVrPNPcZTpAX7bOzY/p6jstMN1Ub3cX7si 0LI5XNlwibrpkISaDeH6LiszbCPCydRzH/wv/+vSfPXlwkLo0WdBkNX0ZJ8f6osjQ66ycL1eTh13 oFIdOZ73qvUkycpIXXP9miWU6gqBZee/+p3/sbZ9h64FapvC4WUalEz/BFKSG6kMbb1xzbLb8xve WLViR0XdyqA/fEnzDkhQZavv3MGsNx/ZjrFq+VXllpiCpd9ubll/u6owQBg5meNaGVFDAghgbXug aAzsO/zwkkt1ySBn3vf88PEvrWjZpGv+gN8XWzV1gyTJAQCGiimSEpyLLecsUHTWuDXklXc/e+D7 l1GSS4ClV4CVFbdG6zQAsHMiPWCV09yABDVsDRXXiqGxznhqaMkFuzSY2YVFJ06/XF3ZoHKtflWQ nd+GQ0yMfgSWFgMAMFd8dsmAHm1tCemndKllR6Togt178CeXRpLLgqVXAB9UrVy/EQmQ4eipPJZD p0rAIqxmWaAYId3/el4EpsWPfvGPzfWrFEX3B9Rwi146/UtyASQCR+CILCfGAQDmzlFYAiBCbtzp fzl97lCW66w4W0kJLTsiXh/ox1/42sUW4zLionjcd627Xw9wQBg/a5TZTV66VL85ONF+Cl44+KOL IdjlAz2978fHTu9PJEcaN0SlnKwYIpAEAoEzVABAkH0p7R8CUDQ2eip/7mD62E9GjZTrLQUkqX5T yNMH2zFP9xy4ZCJdYlwUBahXt1bVRL1A/1iHUVZci0CvU2J1hZp6VzgnOl+8GLJdYhBJAPjpni+R RNu1Ro3jIjaKNLmvleQURz9DZdguTYm9iERwxVIMf5UaqdcAMD/unHx0fLQjz1UEABJUtyHkrclP 7v/WxZPk8uIixVzZpvZbJAAwHDqS5VpZ30IuNWybbDbz5P5vXxzZLikQmRDOk/u+7wrHdcSK7ZEh 84Ql096nBJKh4o1+BBZ3Og0ZvzSCsQnlki5V1IU8kkOS1PNCsnd/mmtMCqrfEPRY77v+X3lfGh3X cZ15b1W9tfcGGjtAEBBJkKJEUZIla7NlxfIiy5tkx3GcTOzkTDKe5PgkcTIZT07ixJk5zkwSn4md ZY6cxHacxXacOFIoOdZOWatFS6RIijsJAgSxNhq9vn5L1Z0fr7EQAIkGSYAA8x0eHiyNeve9V7fq 1l2+O7Q/kFfyXL5yWKmkg+3d7zZMjgjVYjDVX99RmCDSpceSerjwDY4cKlVyKyTeauKR3X/uVaVS kjFwuUSCMf/QzKRH4ADAUBTlcC44tWpSydk3QixOMw5Z5Diyv3Ryd04YTI+JeGut9cnuV7+9arKt JlZKAZpSvZnGDiJAjmf3FVl9m4DyVfuNMTm9CTzzo/W6CXh+FQAGht/8v9/8xVf27QrzAq2kNnm2 ghx9qhSCIQBgKLjiFMgx/+C4f3h1ZJtXkEAKkl3G3JAcEzhxtHLi2RwTmOmLhKe43Xu+tTrirTJW MO3szh0fYQwRoTBcrUz49bg0SEG8x7RsHn77wuvfWznxVghhHECq4G++97m//PZnRiZOlvK1Jksk qOfWhtDGG/cPn6ruPll95vTIk/2nnyx4q+X2RQiyPkk653UQxVp0IohYyWSsCQCYwPEjlRPP5Fqu qwUEPL+aK4yukpCriBVUgJ1b3mvbJhAwwc68WuRLJocCAAARtWyPqWnf0UtvrDMdYMhe2vvwF/7y Q8cH9lQrQW7cCXxFiswYv/PnNsx7CETKj2AlT2rEWx2/PyIM7y+ffG6KglkdQIaRBh2Iys7UL370 S4ZuAwDXcOzN0pk9hYZNdrg/vLT3KgwIrGzi8V03/WRYnZobcJycrGsTkNR4rY1U++gTz39zRSW8 OChSi0Z8Xc/5k6998pFn/0xKymWdSslHBN9VTV3Ruz+9cfEGSiaaaTE1GEC+rudziQiLI4cPlw59 f2JGB4go1qqHN/Tyvod//5cf0TUTALjOBl7Oc42FlQY/fvMqrFldWQV4240fFzoHAC5w8JX8TA+F CwM5NPdFQgdcxS28efIFgjXUq1qRIqKFEd8nXvrG5//iAxP5oXLJy2UdpQiApE833Ndyw8dbfPc8 t0DAW3SuwdRRd0VfRqhcDHBqwnG9YPh46fD3syogQCAFsRY93HVfP/w0AHzhV3bN6ED2RCVMHS07 U1W3vJIyXgGsrAIwFHff8tGwPm9qsFoerWujV5Jad0TVNPnS489/Yxk0NyuMcPZzxuf+0POrf/L1 n3/6R38XeDI3Uak6AWMofRVPWff8140tN0SXSAtnFOvUy0VVOe1dxheCVKMIClmCatWSQELnCMAY Tp51Dj0yEZ4HmEArpTFgxXI2nOVf+JVdoS00F28cffayybc2sOK1V+98yy+EmwATOPBSQdTjDiLg UZbpskIu15HsyaHRkx6VVlrUesCQzZv9p4b2f/7P3z8xNVicqhbzVQBAhMBTm29uvO0X21kEZyIb 5wMp0FqEFcP8aQ8v11aHgB7xivILisqKELjOkCFJqKX9ILjVoJz3D/7LOBAwjvEWI2x4vv/Yc+EY v//Lj1jmOcVfVx990yoUH+I77/zp8KvSpDd1yq0nMEySWnZEZzhG/+3ZP9MxGpC7YkJeJJ778Xe+ +s+f9T05OV4JfIWISpFA9pb3tvfem/RdVWcwVymIdRq+S+6wf7neCVM0vM8581Kh/9kpFtDBp0eH DxQMNssah4iVoic9OvDPY8gw3WuH7CdvnnhxZpDPf/p7DcnZ5gbHB167PMKtGaxG9e3bd/ycYYtw Koy8VlycsWweCOxWLZqoRWH6zx4Yyw5c2SThhfiHx37/4Sf/MjdeKeY9RCQiImhui975yc709VZw budwBvx84wAAENhx9H1VOuvz5XZjXxQI5awcGShPjjq5rHf0B9nsSWf/98efeOh0uejPvAICKJW8 wFX7/mk02RIRnAHAvCSU3/zU39pmfObbkYnVi9atAlap/Py+e36OABChUgzURFDnSaBte2wmP/Th Z76sY9RVa8IQKlayv/2lDz734uOlgkdEiKAUGbq27Y6mG366hcXZwhRAvLACAIDB0VBHXpvM9Tv1 LBEXBhKAxtyKVJICKUu5QASca+hW1OTonMA8gevIYsHzy3Lfd8+mW1MMGADMc/n/7qf/JbSFGLKT g/suVbi1hFVSgFs3/WQsaRFBEMjcGa+eHGlSkLhGj0S0cBM4Mbh3IjdUD/X0SuOxH/7Vf/viB7OT EwCAIZG4gs7exG2faG99azQIFjF7dIxI8C48rBRoJFip6OXPVi+m5eO5IAA9xhBAKQo8BQiGLUxb U0RY65OHVkQLVyXfVUTgVfz8RCH01B47vWfegP/9F/4hGWvSNHNo7NglyramsGoEJPx97/5kyEx5 5mAR3bpMY+LYvj06E7r/16f/VMdIWY6voJgXRK4w+lv/5/0P//vXpzutgAwoEtFvfn/btgcaWILR ec+7dSg8gLAZAmT7q3UVUSw1nLAZ4wgEQUBKASmybZFMmWGjMU1jliWmlQHcaoAMlFIhdeipM/vn jWfo1oP3fjadaM2XrtjzXwmsHgPPzvYPNXXECcD35Ni+MtZTLy8pudm0ImJ6E3h9bPK0xVOSrgA/ /b8989D/+KMH84XcDAutX1Wbdqbv+qWO+GY98BcLck2jPhcWmTEBAOVJl12O14IGGibzXCkDJQMF AETAOCbShmlrkbiuFEVjOgAhAifbNGKMcSH0iJ2cKi6S9bBpw00dzVua0pfOzrKGsJoUVPz97/o0 F4xxHDxYwmp9hTICO7dHp5uh0Pee/hMGoqpWNUt0Mn/2c3/8gV1P/u1MxphSJBi78xNdve9Oe5Iu 3BGnXhAwiyNCOR/AYmGD5Vp/pEiLi8BXABAqwPQ4aJicFHGOms6EYABQrhZ+7Wf/eufWe5sbNibj TYYeWXTMO3Z+eGP79uXJsbaxqowDmxL39u347oE9xwFo8EeFzrcnlL+Uj1xSbLMVOVQul3wAODX4 5pmxNzuatjkyZ/HUKsj82A8fevTJb8qAZuaf58iu7Ynt9zcpVMFSxEfLAKKT9wGQMShmPSt+Drsw ERQn3HjGoKXXjRrRORHotiAixjDwybTPoU5ERCkJADs3xU++OYUMxyeHHrz316WSx07vsc3Fud9a GjdeNR2CQ6w2CeH9d37WsjWGOHKsHEzVlx3Eqe26aM17TfCdx/8nAHDUV9oQKlUmf/crH3zk8b+V ajpnRoEK6K0/3bH9Q02SLsD/cFEgiiQEKUIEt3TurSFUi0FxxFVunZdEACSFVqqmRVKqeeeQsOF2 Y4fZfG00rER9Ze8PAIAz3rfx1q7WbZfjltYBVlsB0nzz7W+7UypCjv3P5+spFiMJiWvMWFIHAEAY HRv98cnv6iyyosVTu1/9zuf++MNjo1mc7jItfRVv0e/9jZ7kBlP6l3fuA4Q18IiMIzIsZb25Fg8C uBV/fH/FO7uspFHSLcEYImKtxfycARmiDKhhsx1p0TXBEOD5H19tRAT14ArQ0P7Etb/W1GUB0eRw tTzg1vNGJVDXzbGQtAARdz35dQfGo7ypqvIrIeG/PP6Vbz3yZd+Xs2ZPWfbe0XD7pzqVogXk/pcN nKEV44DglmYvDQjcZLnjTna0OjHs1OFQmm77QmSmxHRfVZy7X3GNKSI7psW6DDChsc0mRUrJweGj K3BbaxpXQAEERN73nk8yxpjAE89NiXpSRBWYHVpLtx1mLFaKzpOvfRUAOGiSlvCvLxd/98j/+sFz 357bzDHw1F2/1HXNXUnPWdmk1JnmRZWCH4YCmMDqhDz1WG7g9aJS5FUlWyqeNgMCMGOzvTiUBIYs vEDgK+XTlvc2yEBRAK19tlKAAD/adxUmPF8YV4aIfFv8I1tuaVOSqpVg/PVSPS5R6VPLW2Ja2BGa 4YvPPTPgvagx21XFyyjYN/71Cz/80fdn6XEkaTa/9zd7Iw2aXOq8fungDHWdI0JpzFOShMnG9zv7 Hx6dOOsAI8ZwKucvo0UXgYgwyxZh77ZASpjunUGSem9JiTgLe2enumuMTK/s+8GK3dwaxRVj4v/A Hb8VT+vI8dSPC1RZurMqAICFbVuj4SagpHr82b8uw4jNG0py7LKI9Pf/9sWX9jw+M/sDTzX02O/4 THdIrr8K0AB8jwAxcJRXDk49MXXqlUlhMAxbv4SH42U5QxH0BA+/UFIBECJDwkSzld5h1cJ2BHqa R+MGERRKk+VKYSVubc3iiilAGra9/Z33kiJg1P/sVD0FkxRQy00RUWv9gMf29z/1+kMAYLOGSz8M PPrsV3/4yqOzRn9Fbrm74eaPtXmVVarFQcTckB94CgGUT298d2y8vzxTQqQkIYBblmw54QBSZKf0 WnN5YpwLxjhJ2Hh3cm6StpTU2GuHp+Q3jrxwWW9rreNK9mJ524Zfb92YAoLscDV/rJYmzeFCTQil ok3vTgeOAgBk+MJTux/d8yWGHIFfymFg7+Fndj31jVpeAIDvyJ0PtPTclvJX2Og/BwwKWY9xBggy oMBXczKCasUsflUZy2kJTwqM6MwrZoxxBtj3nkZun0O6RYoyvRElCQneOPT85biZdYMr3IzoE/f/ jqZz5Hji+VxYC3LhpDEiiDbrXbclQoscOT7/3GPPv/Edg0WrqnBxlspkfvir3/rd2jeIgVS3/3xn 69bo5Qxy1QEGIKtyxlk500B2WjAAAOnTsgqHCUBYtW7knudKKeMtdrRLmxe6JgXJTp0jA4DX37za Sl4ujCusAE3GjrfefhcpkkqdfCovjKXfrgqo/aZYstMMz22EsOuph/YeeTLCG52LSpH44v/7hfBc gQxJ0B2f6oo3G3KpMq7LDwQpIahFGIjPcQzUlAIBFKhlnQGIohm95ggiIJKlMZ8vVpHELZbIGESA ABO54Yu+iXWHK9+O7v6bfieVMQEhO1SZPFJXImRQVVve2yBMNrOPf/uxPxwcOWzzhuUWDHzpa58u FQsAgAhaEm/7mQ47pan6CH0vN7CU9WsdqWlBL+xpLC8IQcC1GR52CgLpVEqqusgHZUAtW6KkiOA/ lhV05RUAAH72vv+t6ZxxPL47p6p1eYSkp67/SPPMOk0Af/6Pv1IoTzDE+lMkHtv90NET+wFBSYo0 ih33tVhxbWET62Xdy2LApQdBqE4EpYIbuimFhnMTdwhnP7YsEEG82Zjm3EapiDGNPFo4Dilq3mz7 gQKAg8deXt5l1jPWhAJ0ZLa/5br7AAE4HHk0Wy97CoPtD2SC6qyl/qff/C8aRjxVrKd6uP/sgV1P fzMs5oqmtI23p2MZY7HZf4m7QS2T9YK/BcZx8rhTdWsBYDbvAEAXGGEJCJPPlKeRIkWyWlqsspTA yGiRiA4EB4+9cnHXWo9YEwoAAO+/6zOpZAMClIv+0O5CPb2ViMBOaT13p+R0iljZmfry33/a4ilH 5pY8EP/ZN3+DFBFBJKLf+JG2zMbIYvQNlzL7F1348dx/tfFRwdCBYu1UQ6DpbLGsz4vRA0SINemh ca8UMY5OXi5aWEdETdNMHMXS1UBLXA/WigIwxh645zeZQMZw6GipeLSuw4CS1Lw1kumbnbvD48e+ +/gfx0SLT84FdODR3X9VKpYAgBS1bovoSb6Y3X8pxs851JvTP1l8QOSYPeSUSi4yDGeqpted8LAk CIy4Fl5fKVBKnq9liZLQ2BsJn8OhE69eNgHWNtaKAgDApg0379jyDgBgAo4+n5P1UQUGnrrmnlS0 qcbsRwR7Dv77noOP6SxyPqdQ1S3tevLr4SKoabz7ztTCsgQEdgnL/6IL/0LM1NfA2X1FfzrDVGgX CnYtNxVPSYo11WJhiCCEFrgSF3vvpKhhc61V4ZGTry/rKusXa0gBAOCBn/hsLJoEAAI4+oNJVp8j 3q+qre9vFMZs27nvPv6lwfEDNm/wVXVhgOxPv/Gr4ReBp/rubVwwoRCB0aJFWUvjfGbPQkwbPwwq p9x8wQ3dPkSgm3y+/UMUJrGFPSyWJRARRNKaUkAApIBIVXKEbHGpeAQjcR0IjvXvXdZV1i/WlgJo wvjYez7HOAKC4wT9T03V02obAJSk6z7aPNeM+Yu//7Xx6hGNmQzEXB3Yd/i5/sHDAAAE0bTRdn3s 3CmFAHCh8t4LYRFRz0PqOCc1H3H0kFMp+Vj7djH7B2fCvzTTXoyBVp9UZCW10LIPpJIUuOUq4OKC kaJks0FEY9nB+gZf91hbCgAA13TedOfODwEiIGRHqmMvlepsNswYXPdgk/RmPR5f+ZvPHHEeRWQc Z9MrHvrH3w6/8F25430twSxn7dzF+yIUYPHZP/ffzA9nP8CgeNwdPVuaWf4Na4kiVZqNikGTtq3H vDvGWy74ebATIjRsZKAQwXcIUS0qMymwEzUemjMjxy8sydWBNacAAHDfXb+8qbsPAADhzLHS5BtO XRQSBGZCXPPOdM0xiuBW5d/9zZcfH/x8jmpkZv/8gy+H9JekqLUnFu+YKbFdeGZdFs47++f9hAGb u70wwLP7SsWiF7LYMobmYgqASDNDhfuVhlZSdLbqOyI802O+o8++v1HbrOF8LtvwbqyENnPXRABS ESACClyQdkVgxGo/PDl4oN67X89YiwoAAD/1ni/YkbBZGA3sLTgDdXFpKUkNPWbXrdOZQgi+J5/8 1gv/uPs3nip9fqDy8hPP1RpdyYD67sn4fhgyW8HZPzPdEfh8feA4+mpleKgQciESQbLBPM/xd9ph iqgkCWYxEG3GTgUBACgINLRa9Rv67Pf1mO9Iie551hHXmWGFSdEofZIyTKqQDDSBxtxbICIzwUMb 7MCR/xDhMP57v/d7V1qGRaALKxnPHB14OfAJiArDfrrN5DYuOT9JQbLLdHJBJVsrqkIGk4NOfiL7 2uFnCmNuWCDb2h3ruDWlpFy52T93pUdABZJgTocMBnJcHXxm3PMkIBKBZQvtPBFAInIdCQgqoN63 NurCatQ2RXjjQoF1FkmIjgb9mhhvYahJ8ggkChraW/Q9BQC6ySHAztviKiAiiSgACGt9w5Ahk2XM nnRkoEYmTj/29Nc0Tbtmw47lP5Z1gzWqAADQ0tB7ZnLf5NSoUqCkKp5xU90W1lE2oALK9NlONihn /ZAKnHF08sHIyXKtC7SEHe9rRWs+UcJFYf4Iix8uF/iUBGdv7hrPTTiMQVinFUssQnkSBqoLuRqb JwW0+dYOXTPajRvPr66EwHQWifO2jNaX0rrTrLtcroyeGQVE3eDIwRv1IAA7IwgQiYWOrzAZnIow 3l+uugEAEMCh43sefeZrlmX3dF5VdEAzWKMmUIifefcfGrYGAAqg6shTT01RUNekDRy16V3p1uuj gasAABEqZT/MrySihpaI3S7mZNiEuDzL/zwPEgEt9ClpJut/eepsf5FxBEAiFY3rtGD6I0O3Kgu5 6oxdFLHjJKlB9NZTGk+gFAQCDZ3Fd/bdY+g2IshAMY7jZ9yjz0/t+fpw9lCe1SrGEIEjcbNZNLbZ mmBcsNCrRkTf2fWVX/2De08OvlHvg1k/WLs7AAAgsM72nr2HdoeO8Kor5ViQ6DHrIpcOKLXB0iyW PeFwDcsFL6yHJQVbfyIzS5dQw+WZ/TC9A0xP+kWG1S1+5PHskR9mNYMDgAIyTc20zrHaQ87dUt51 q7NpC4ZuWUa847p0V+wCy/95QAhle2j0BEDN0cQYAsJEv+MWZEOXiRoRKQBCxruu7bxp5+3X9G5S 5EyM5kkRMgwC/4VXH80VhndsfdvyLr22saYVAABS0U4HhgYGTwESApYd6Y3JZI9Vz9+SpFiLHmnQ h/YVJREgIIGha33vzahLpTY57+ynGivJYll0CLrBX/2Hs0MHC8LgAMAYmqawY7Xlv+YuZehUguKU S1TTBMPkQUBNDe2+51934w1Rc9mUeJrFvAljPDdUcUoqIEDUNU5AjGMl553dW4Gy3tTWHDebO/Sb G3mfppsQrbZsTfde3ySlP9pf4BwBaXDo2POv/evtN71HF3W9grWPta4AALC54879g49VipVwDlcd 6U3IVI9ZB0kgkAI7paV7rIE9eSZQKeq9sSHRbZybJXQZlv9p05/m/Bbn/ppr6E/IF75+pjDhclGz PIVgnKPvqyCQQUC+q5xKUCp40qfpyADphojFjWrFT8QaNWFef8ONQlt2phBjWC1IW08ODB2Wkryq rJR9ANB1Fga+S5OOd8ZuTm3ARAUUIjBXFWXggUatmxp7b24ePlzwqi4hOI6ze88/dW/YmEl2L1eM NYh1oAAA8NZrP/DSwX9SnlQETKBXDfwJleo1VR35CkRgRETnzvjgawXBed89jcy8XJ6fudN9Zhw8 RxkQmECVh+GXS/ueGPP8gM0JDyilAl8FvgoCFXhKSiJFiLPVMNGYYUU0AnIqfiLW2N58TdvGljo7 Ls8FAVAAULWk8rNTo+FWI33lVAJNY1wgAZSquZOHjsWMlN3CkbjJEi4VFQWB8oWubb29qzqmFyYL gMr3gv1HnrdjfEPLuncQrQ8FQOC33PCul/Y/DJKkJGRYrQT+hIp3m3VNYAKhsY4d8fwJt+vO+KVx nCyc/XPdnWxOqAuRA+Vp8o3q6T2F08fyBIDsPJ7c6VERGSIiMi5YMmVywQAJkTmVoL21d0PblmhG r6vRIABjOPecb0Q4C6i5sXN8ciCfL4ZnAASoOj4g6mH+BaPBUwNC8HR7DJWWEO0+ONXJojPsEar2 W2LFMU+WNS9wXCcYHD2YbI60p9c3i+j6UAAA0DBy/fbbXtn/fRkoksQEOmUZjAXx7rrOxADADR5N 6nqCTy/NF1fsct4CFwSGgAoUAAEC+Vh8Mzi738mPuyPDFQaECKYWsUxbCI0AlJI4DcY4hN5QQGQY jZlmhCNg2K4CEVwn2Lxxp2B6stWqRwH8QiF3Ju/mPU6Cc840IAAjKeyYtu3WLbx5VDlBbrTKBCKi 70pNcCYQAZnAkf4xpst0axIUJlmnM6wGTw9NnfF4AJve0TQ+MMW9qOuVq04wPHFw83V9cdG2pDxr FutGAQDAEulrtm7de+AZGZAKiAn0XOUM+emNJi09JRAIjBS/5OV/8QWcAZ85ASMwBIGj/uiJarnk EQEDiEfT6WSzZUU0bnAQph63zRiRCqQXnoAZ44gMAGxbt6KGDAIACHvvMcEqFb+taaMmrFRbZEkF IFCeWy5PeYVCaXhwbGq0JMtgJXXGOQhA0DINndrWsUzGPHu4DAiI6LqBHTHCvYtxHDk1wQynsaWZ SDXEMpzh8NmR7IjrTwbX3tc8fKSEgah6jpRq1P3xrZs+dinP9MpiPSkAACT0tq6+jv0HX1SSKCBk EATknPXj7SbTFvO7SAI+50g6/YGL6ry9+OxHYAwEgQpdOBx1hpwhCluPxISGvKk107u9u6Uz1rI9 2rUz0n1DQ8/Opo3bWts621ozXa3JLelkO+dCE7omdADwPelWpTF9UAm3BafspZMtUSt5QQWoFZoh MF9zjQYwo1xWVKlYGs8Ol8bcdCbBDQ4EGlpJ1h2kp5o28P69+dDsUlLpZu14zTkbPTnVuEWkrG4Q LNnU5KnJwnjJKUo5Sb3vimQPCDcoVaueqkLHjmSjObxQEAAACQpJREFUtmX5z3NNYJ0pAACkjY3N fYkjh/cEniIJyJAhVob8aLOOxgILmyFWCcT8GbN8+2fxzzPgDAQAcBQasznqCByBITCJMprMZLrb Mh1tdtJubOpKRFoS+oaYaI9rHRGzMZFqbOzItF/TmGlsak5siBgZzoWm6YxxP/AqFde0xYx7tOr4 iVgmGc9EUqYRWZgwN78OQUebSAVaNdqma4rlsxXHK40NTDS3ZljYtxy1Bt4bSzUEXn5kcAoZBoGy I7PpcYxhqVjo3rRJgEmk4k3xUmGiXPQqBT9umSXfNSGdL4wzzlxtZGfXB5fzMNcQ1p8CAECTsaV5 m33i5D7PUUqSkko3tfKQF2vU0FywtHNkHtCcfNJacclCZ+V5cb7ZrwGgQN3iyRhvtXjaZimTJ22e Tms9rfqOtOiJsIwBMZs3GhjT0OKoISIgYc0ZRIpAi/BYi55sjMRExtLSQohiKedUKwyRCxaeBNxq oGtWa6bbiAk7rs8R7LyVlgJNjdluUDJt1AyeH6so9EcGxzo7OmaS5QyIb9p8w/CxyXxpHAA5R03j 00d4rEx66WuDBn0LgRJgQWZyaqBMCpwpFW9n5RFEhKpX4Shv3/EAW91uQ5cL61IBACCjbUtv0wb6 D1ZLAQF4nuQM/SmKpgXMY9dChJAbZ8bTco4n57wTaObvF5v9yEFnKKK8KSZadRZlyCOsMSk6o7wp wht1FkFk4XmAoUBgCqQkT4KvyJs8MzFy+kxpqsCVblkR4EQKhMFirUY8aWtBOmLHh0ZPutUgEtOI CBF9TxJhV1ufEWORpAm0pNih6MxkcY9VjDTTIzh1piLJnxyb7OjqoplyO0ZN8Y3lgjNZGFGKTFtM xwwJCMnwu9tqWUASPeDVwljV82S60R4bqChQlYqj66zv2h1xvXVJedYg1qsCAECz2J7YwsazR0oT niKoutIwREOHpox5Bg/O/Df9/WxtynTe8jLMoTCLOMIbY7yFo04gDRZNad0GC/tq0cLRFMiAqgF5 AbrF0fEjB46PDo+MDo8N9p8aPHHG1q1EQ5qIgFCzuS7QL4mJyTNOtSS0sIkdSk85VWfTxhvMOI8k 63P+TsNiSV9VtQRI163kg0q1pKOWaErOZB8FQZDQOyanhovlvB3RwkSO0EtKPnRsbTEgEfLTqWgx 3+8oRUwAebbvu4Do+07Pxq2tqb5lyLRmsKaT4ZbE9ebH777vw507EyAJAbKj5ZOvllGeU3Q1708W FqlgXZtA7XCpYzTCG5Nig86iCgKTxRu1zSnRzYBfQIvCowKBIlJ63Grp1ZuvjaQ7mec7+dL4Sy/s /uETjwMoACQFdqMhBG9MtyFC4BEBEBEXXClZcQpuOVjuCZ6kjLM2oaymrTHBUXBx9MjhoDTbbcmI isD3ru+7gwGH6dsgIECoZL2yGg2vaLAY1zQ7rSOiV4ZI3ERgnPGqo0bHTi9LpLWD9a0AALDT+NTd d328754GFQABjp8pH300S2XC5aULnHfuhk4eBkJDy2KpmGg1WAwBIzzTrG9Pig0CjXoq6AUaFkty 0MEkqzOW3GhkbopsfzCTaOa+9MaGR57e9b0qTSEwEGDHRCrRDAB+IEPNCzGRG6aALdeDxQPFgiAu 2rkwGjYYSpECdfrkcY4cQhoiixOBZUbbm3vm0cP4nswXcogcAAQYAiw9qgFwUsiQATLGuCaManVp JrK1iXWvAACw3fjobdv/0w0fzmiMIcPClHv40aw3FCxZSHlu5uYiH2bAOWocNZ3ZNmuI8mYDYw2i t0nfGuMtCEiwDP50BGaxVIy3JUS7BjZTmiLacHcylTF96eeylddefroCk0BgJXTbiCJi4CtABEDG kRRMTA2DXHb8TupMciSiJOuOtgvGkTE2Npz1Vbl2m2HVBLKWpm45nSbIkEFYi1MphZukAqmhxTgH IiKSyo9Ycc64ZUQFM5Yl0trB1aAAANBn3H9j+yeu/1gmFjcQ0XGDQ89M5vZVhcBFrf+5wJp5M/9X HHSdxXSMmiwe420pbUOD1pvSugWzCOhieVOIAY/y5jZjZ1J0CjRkABvuiArOJMjR45X+8RddVRIG t8yYrplE09kMSMj4ZG64lHcWY3e+4CURwkChADMWb7QiAgDcqlvxJmt3XbsVMnSTn1t6yjRWGJ4t SOCoSScABC5YsVjUNV1wTWiiPbNe4wBXiQIAQJ91/82p/9z3oVRrT5QzJFL9e/P9TxbAhSXNIQYM gc8tpRVocNQslkqJ7mZ9e0bbEmEZBA715KAuDUJgadHbadxiYhxMvfNaS0rp+tWJw5UB/0XNQsZY PJpGqF1QCIYAVbdSLOU8Z1lNAmahQFrYHEkw3/eVCnyoEChACDshKCJN6DivBxmRmtNjGJGKYz4X 3HMlAUQjSQJmmnpH89ZLeyBXDFePAgBAj3n3O5Nf7Lunp+fWJOecIUycKR/Zla30+xesqWdhxTrW KgOZhjYCJ6CU2BAXbRpaBFLNWDuXRweAQAk0u4zb4tia2GLrggPS+OmycoNRtU9wvSHVCtMawFho ksDIeL90l9Mm6VzozDLiNmegQIIgVxURoTDiMgYQ2kJzbo4xBEAmGHIIDaezb2SlRCCqVqUAExFN w27KNDelNlzi07hSuKoUAACSovNdsT+6bedPbb+/Md5oAKLj+CdeyuX2VOb1Flpo8yAiR4OjESpD QnQQ0PS8n+ZNmCHbn/3ikrKLCFSLfl3c7LCiCIBKyfKIW4aRfDHb1NBBihgXAIDIhGCM8cnCSGWq rubKi4Ixzp1IQDLWqAXg+1BRVcoNOcBQSomMaJqFjoiUIsZwaH9h4lBl7EBl+I3CUP+YEMIpA/lc cMMyY5GI/fZbfvJSnsCVxdWmAADAkF9rPvhA91/d9+DHr79jQyxtMMbKU4G2GC8+AJtmHcTwaYQx oChvjvO2kENzJsXtfFec3kDYRaUYAYFqFTsbmpuIlJSqWgqkUif7D0TthK7XiFIISGgcAadK2exI dlF65yWBCO5YgNKybb1pa0RKzymXh/aXkCORUkoahhBcoxoN9QyhC0pJiihXHGUcnbIUXJDCRKxB 14wNXd2bu269CGHWCP4/3PXaYjlnQWcAAAAASUVORK5CYII= "
     id="image10"
     x="0"
     y="0" />
  <image
     y="155.29617"
     x="10.654538"
     id="image3690"
     xlink:href="data:image/png;base64,iVBORw0KGgoAAAANSUhEUgAAA1UAAAQACAYAAAAJG3MMAAAABmJLR0QA/wD/AP+gvaeTAAAgAElE QVR4nOzdeZhcVYH//8+pW713J93pLJ2VrGRjSdhRURLZVQSXCKS7wzoBkSCIiCgIIiBEIARZIkrI AnFwRuc342/G0VFcR8dtEAdcWEQJ6e6EJGxJOkndOt8/kihCbqeTe6tO3XPfr+ep5yFJ5+ZDKDr1 zqmuMvLAyJUaVVDwdiMdY6SJ1mqgjK2XTIOsBkpqlGQlbZL0kmQ3yZrNJqdX3C4HAFQiK70iq1dl 9YqM2WBlVxupy5rgL00btv3x6QXa6nojPPeIgqFb87NzVifK2NEyGi3ZAbKmTpKMTGhlX5FVl4ye lwyPaZBxxY0yetUUzas2MKu1tfB/3edqXbl+dVOuXyhJY5equTcfnCpptqS3SxrneBIAIDtCSX+W 1ZMy5lfW2F+qGP68p1NrXQ9D+o16RIO2b81daGQuljTC9R4g5dZJ+rlkvxWq+K11HXq6VL9QaqJq xBLVh3XBqbmczrBWJ0mqcb0JAIC/MU9K9nvG6HuF6vA76+boNdeLkB6jHlFduC13ubXmKu14hg2A xNnfSvpSvqb48Oo52pDklSs+qtoeqjrCFosLjHSapAbXewAA6IdeSd+zVl+vqg2/kfQf3vDLiJX5 E4qyS2Q11vUWICO2SFqaL4Y3rZ6nF5K4YGVG1XXKDR8fnFY0utxIb3U9BwCAGLZK+qYtakVPXfhN zVHoehAqxCMK2nrzt8jYy1Wpj8kAv/UaY75Us73wmefO0UtxLlRR/wNPf0TV67fmzpPM5ZImut4D AECirJ63xt5ng+JX1p6lHtdz4E7LIxpYszX4qqSTXG8BoG5r9NGe9vAf9/UCFRNVw1cGp1urW0VM AQD81ytpqQrhrd3n6DnXY1Bew5ZrnDH5/1+yU11vAfA3VvpGXSE8d19OrZxH1YhlVTOLueLtko51 vQUAgDIrSFqRs+F1azr1F9djUHojV2pUaINHxV8iA5XqT0Eu974X5m5/bG9+krOoGrRSA6pssNBI 50vKudoBAEAF2CJr7qkNC5+L+7x+VK4dT/nL/UgyB7reAqBPvcborK728Bv9/QlOoqptef4dMnaZ pP1c/PoAAFSoF63VVT0d4QMysq7HIDkTF6vmtZbgO5KOcb0FQL+E1mp+T2f4lf58cFmjatQjqtve m7/JGLtAnE4BALB7Rj+VwvO72/Wk6ylIRtuK/G2Svdz1DgB7xRprP9zVWbxvTx9Ytqga+VDVjDC0 q2TslHL9mgAApNhWyX6mu6b4BV6GPd2GLcsfZ3L226qAr2UHsNeskTq6OsKH+vqgsvzP3bYimCPp AfHmvQAA7B2jn+aK4Rm8kEU6jVym1jAX/FbScNdbAOyzbdaak3s6C9+L+oDSPgXPygxbmb9B0ldF UAEAsPesji6a4NfDlgfvcT0Fe6+YC24RQQWkXbUx9qujlmlk1AeU7KRqyCNqzG8LVlqr95bq1wAA IEOsteamno7CNbyIRTq0rdQ02eBxSYHrLQAS8ePuUeEszVLhjT9QkpOqEQ9rcLA190OCCgCAxBhj 7KfaHgr+adhynv2RBkbBTSKoAJ+8rW117pO7+4HET6qGLFVbkM9/V7LTkr42AACQJP1K28OTu8/V OtdDsHtDV+TfkpP9iesdABLXGxTDg1+Ypz++/jsTPakasUqjg3z+BwQVAAAldaiq8j8e/hDv91ip crKXut4AoCRqw1xwzxu/M7GTqmHLNc7kgu/JamxS1wQAAH1aHRTDd77xb0zh1rDlGmpM8Lykatdb AJSGseakrs7Cf+76diInVW0PaIgxwbcJKgAAympUIRd8b+Qy7e96CP7GmNw5IqgAr1ljr3v9t2NH 1YglqldV8G+SJsa9FgAA2DtGGklYVZrcua4XACi5o0aszJ+w6xvxouoRBcX6YJWkI+OuAgAA+4aw qhwjVmiyZPnvAGRAaO1Fu/45VlS1bQ3uknRq7EUAACAWwqoyhCZ3wp4/CoAPjPSuoQ9rmBQjqoat yF0q6aI9fiAAACgLwso9Y82JrjcAKJuqoJA7S9rHqGp7qOoII3NrspsAAEBchJVDjyov6VjXMwCU jzXmXdI+vKT62KVq7q0K/pdX+gMAoHJZ6YV8MZzNy62Xz4iHNaUYBr9zvQNAWW3NbQ4H7d1JlZXZ kg+WElQAAFQ2TqzKzxaCaa43ACi7GluXP2avomrYQ7mPGOm0Ui0CAADJIazKzRJVQAZZFQ/ud1S1 LdVYY83NpRwEAACSRViVkTFEFZBFxkzr/0lVPrhbUkPp1gAAgFIgrMqjKLW63gDAAaup/YqqthXB HEmnlHgOAAAoEcKq9IxRk+sNABwwGrzHqBq7VM2SFpVhDgAAKCHCqsSsJaqAbBqwx6jqDYLPShpe hjEAAKDECKtSMgNcLwDgxMA+o6ptqcbKaH651gAAgNIjrEpmu+sBAJyo6vukKh9cK6m6PFsAAEC5 EFalYF92vQCAG5FRNeJhTZHUUcYtAACgjAirhFlDVAEZFRlVxUJwnaR8+aYAAIByI6ySY41ecr0B gBu7jaq2lZomoznlHgMAAMpvV1gNeUiTXG9JN/Oc6wUA3Nj9SVUxuFCSKe8UAADgipFG5orBo4TV vjPWPu56AwA33hRVQx5Ro4zmuRgDAADcIaziyZkcUQVk1JuiKt+ba5fE+ywAAJBBhNW+q9+4/QlJ Bdc7AJTfm6LKGn3YxRAAAFAZCKt98/QCbZX0U9c7AJTf30XV0BX5t0jmQFdjAABAZSCs9o2R/RfX GwCU399FlZE+4GoIAACoLITV3ivmikQVkEFviCp7mqshAACg8hBWe6dnrp41sr9xvQNAef01qkYs q5opaZzDLQAAoAIRVnvtXtcDAJTXX6OqmLOnuxwCAAAqF2HVfw0biw9K6nK9A0D5vO7pf0WiCgAA RCKs+ufpBdoqY29zvQNA+eQkqe0BDZHMAa7HAACAykZY9U9YXVwiaZ3rHQDKIydJNh8c5XoIAABI B8Jqz9bN0WvG6mOudwAoj5wk5YwhqgAAQL8RVnvW1RGulNF/ut4BoPR2nFTJElUAAGCvEFZ7YGTD 7eHZknpcTwFQWjk9okDSEa6HAACA9CGs+rbuHHUbmQ9K2uZ6C4DSyY0oaJKkRtdDAABAOhFWfevq KPzISOdKCl1vAVAauWIx4A1/AQBALIRV37o6wockXSCp6HoLgOTlZO1Y1yMAAED6EVZ96+4Il0o6 X4QV4J2clBvvegQAAPADYdW37o5wqTW6QJJ1vQVAcnISJ1UAACA5hFXfetrDB6wlrACf5CSNdT0C AAD4hbDqW09n+BVjNF+EFeCFnKzhlf8AAEDiCKu+dbWH9xNWgB9yMrbe9QgAAOAnwqpvXe3h/Ub2 IhFWQKrlJFW7HgEAAPxFWPWtq6O4RLIXi7ACUisnqc71CAAA4DfCqm/dHcV7Ze0lIqyAVMpJqnE9 AgAA+I+w6lt3Z/FuwgpIJ9O2Isj0/7gLJn7S9QQAQIr86MXv6n9f+rnrGalmpReKuXDWurl6yvWW SjRsZe4SY82dkozrLQD6J/NR9et3Pu96AgAgRXrDLbrkN5361cafuZ6SaoRV34atyF1qZO4QYQWk Qs71AAAA0qQ2qNNdBy/XoS1HuZ6SajwVsG89HcU7jbGXu94BoH+IKgAA9hJhlQzCqm9d7cVFxtjL XO8AsGdEFQAA+4CwSgZh1beu9uIiYzmxAiodUQUAwD7aFVaHNB/pekqqEVZ96+os3iFjr3C9A0A0 ogoAgBhqgzrdNWO5ZjYf4XpKqhFWfetuL94m2Std7wCwe0QVAAAx1QX1umvGcs1oPtz1lFQjrPrW 3VFcKGs/4XoHgDfL/Euq/2r2X1xPAAB4YlPhNV3ym0795uVfup6Sarzcet/aVuQ+IZnPu94B4G84 qQIAICEN+UYtPniZDh54qOspqcaJVd+6O4q3WGuvdr0DwN8QVQAAJKgx36TFM5broIGHuJ6SaoRV 33o6izcbYz/tegeAHYgqAAAS1hg06a4ZK3TAgBmup6QaYdW3rvbijcbaa1zvAEBUAQBQEo1Bk+6e +ZCmDzjY9ZRUI6z61tVZ/Jxkr3W9A8g6ogoAgBJpDJp0z8yHNW3AQa6npBph1bfujuINkr3O9Q4g y4gqAABKqDFo0r0zVxFWMRFWfevuKF4vmetd7wCyiqgCAKDEGoMm3TvjYU1tOtD1lFQjrPrW3VG4 TjI3uN4BZBFRBQBAGTTmB+jemQ9rStMBrqekmpFGBsXge4TV7nV3FK4lrIDyI6oAACiTpvxA3Tvz YU1umu56StqNIqyidXcUrrXW3Oh6B5AlRBUAAGU0IN+se2c8rP0bp7meknaEVR96OgufNsbc7HoH kBVEFQAAZTawqkX3znxY+zdOdT0l7QirPnS1F66WzC2udwBZQFQBAOBAc9Ug3TPjYU1qnOJ6StoR Vn3o7ihcRVgBpUdUAQDgSEt1q+6dsUoTGye7npJ2hFUfdobVQtc7AJ8RVQAAONRS3ar7ZnxVExr3 dz0l7QirPnR3FK6UNbe53gH4iqgCAMCxXWE1voGwiomw6kN3Z+EKK3OH6x2Aj4gqAAAqwKDqwbpv 5irCKj7Cqg89HYXLCSsgeaZtRWBdj3Dpl7P+7HoCAAB/tX7bOl342Jn606anXE9Ju9VhLpy9bq74 jdyNYcvzdxhjP+p6B+ALTqoAAKggrdVDdN+MVRpbP9H1lLTjxKoPPR2Fy43Mna53AL4gqgAAqDCt 1UN038xV2q9+guspaUdYRTGyXe2Fy2R1l+spgA+IKgAAKtDg6qG6b+Yqjakf73pK2hFWUYxsd0d4 qaQvup4CpB1RBQBAhRpSPUxLZqzSmLpxrqekHWEVxch2t4cLZHS36ylAmhFVAABUsCE1bbpv5iqN rhvrekraEVZRjGz33PASSfe6ngKkFVEFAECFG1ozXEtmflWj6vZzPSXtCKsoO06sLrbSEtdTgDQi qgAASIFdYTWydozrKWlHWEUxsj3t4UVW+pLrKUDaEFUAAKTEsJoRO8KqjrCKibCKsiOsLrRW97ue AqQJUQUAQIq01Y7UfTNWaUTdaNdT0o6wimJkezrC+Ub6iuspQFoQVQAApMzw2lFaMuOrhFV8hFUU I9vVHl4gqwdcTwHSgKgCACCFhteO0n0Hr9Lw2lGup6QdYRXFyHY/G14gaanrKUClI6oAAEipEXWj dd+MVWqrHel6StoRVlGuU7H7mfB8EVZAn4gqAABSbGTdGC2Z+VUNqxnhekraEVZRrlOxuya8QEYP up4CVCqiCgCAlBtZuyOshtYMdz0l7QirKHMUdleH50ta7noKUImIKgAAPDCqbj/CKhmEVZQ5Crtr wnOttNL1FKDSEFUAAHhidN1Y3TdzlYbUtLmeknaEVZQ5CntqwrMJK+DvmbYVgXU9wqVfHPuc6wn9 EgSBampqXM8AAC9Ya9Xb2ytr/fwj8C+bn9WFj52pddt6XE9Ju9VhLpy9bq6ecj2k4jyiYHhvsNwa neV6ClAJiKqURFVtba2am5tdzwAAb/T29urll1/2Nqz+vPkZXfjYmXpx21rXU9KOsIryiIK2rcFK SWe4ngK4xtP/AACZVFtbq4EDB8oY43pKSexXP0H3znhYrdVDXE9JO54KGGXH11i1y+ofXU8BXCOq AACZ5XtYja2fqPtmrCKs4iOsosxR2F0bzpX0iOspgEtEFQAg07ISVoOqBrueknaEVZQdJ1Znyehr rqcArhBVAIDMy0RYzVylQdWEVUyEVZQ5CrtHhmdJ+ifXUwAXiCoAAOR/WI2rn6R7D16llupW11PS jrCKMkuF7s3hWZL+2fUUoNyIKgAAdvI9rMY3EFYJIayizNf27s3hmSKskDFEFQAAr+N7WE1o2F93 H/QQYRUfYRVlvra37vgaq6+7ngKUC1EFAMAb+B5Wkxqn6IsHrVRz1SDXU9KOsIrwxBxta60Oz7TS v7jeApQDUQUAwG74Hlb7N07V3Qev1MCqFtdT0o6wivDEHG0bXBN+SNK/ut4ClBpRBQBABP/Dapru PmilBuSbXU9JO8IqwhNztK21JvygCCt4jqgCAKAPvofV5KbpuvvglWrKD3Q9Je0Iqwh/DSurb7re ApQKUQUAwB74HlZTmg7QPTMeIqziI6wiPDFH21prw/dL+nfXW4BSIKoAAOgH78OqcUdYNeYHuJ6S doRVhJ0nVqdL+g/XW4CkEVUAAPRTJsLq4IfUGDS5npJ2hFWEJ+ZoW+NGwgr+IaoAANgLvofV1KYD dfcMwioBO8JqhSa6HlJpnl6grTvD6luutwBJyXxUWWtTcQMAVI5dYSWl58+RvblNbTxQiw9aTljF NypQ8Chh9WZPL9DW2kJ4uoz+0/UWIAmZjyoAAPZFbW2tmpubvT2xOmDADC068EHCKj7CKsJz56g3 Xx2ebqVvu94CxGXaVgSZPgb5+Tv+5HpCv9TV1f31b0UBAJWjt7dXL730kusZJfP4K7/WpY/P06bw NddT0m51qHDWug497XpIpRmxRPVhffANI53geguwrzipAgAghl0nVr46aMAhuvOgB9WQb3Q9Je04 sYqwZr42B5vD0430HddbgH1FVAEAEJP/YXWoFh2wVPVBg+spaUdYRVgzX5vN5vA0Sd91vQXYF0QV AAAJ8D2sDh54mBYduFR1Qb3rKWlHWEVYM1+bc5vDU2X1qOstwN4iqgAASIjvYTVj4OFadOBS1QZ1 rqekHWEVYc18bc5tCd8t6fuutwB7g6gCACBBvofVzIFH6M4DHySs4iOsIuw8sXqXpB+43gL0F1EF AEDCshBWiw7gxCoBhFWEnWF1iqQfut4C9AdRBQBACfgeVoc0H6nbD/gKYRUfYRVhzXxttjY8RdKP XG8B9oSoAgCgRHwPq8Oaj9ZtB3yZsIqPsIrQ06lNYU14iqQfu94C9IWoAgCghHwPq8Ob36KF079E WMVHWEVYN0evhTXhySKsUMGIKgAASsz3sDqy5W1aOH2JanK1rqekHWEVYd0cvVbYFp5ipZ+43gLs DlEFAEAZ+B9Wx2jh9CWqztW4npJ2hFWEF8/Tq9tNeIqR/tv1FuCNiCoAAMrE97A6atDbtXD6ElXl ql1PSTvCKsKGdr3SWxOeIqOfut4CvB5RBQBAGfkeVkcPeocWTl+ivKlyPSXtCKsIG+fo5a3V4cmE FSpJ5qPKWpuaGwDAD7vCyvWfK6W6Hd1CWCWEsIrw17CS/sf1FkAiqgAAcKK2tlYtLS2uZ5TMWwYd q1um30tYxUdYRdg4Ry9vrQlPlPQL11sAogoAAEd8D6u3DZpNWCWDsIqwM6yOl/RL11uQbUQVAAAO ZSGsbp52N2EVH2EVYeMcvVxbIKzgFlEFAIBjvofV21uP001T7yKs4iOsIjx3jl7aGVa/cr0F2URU AQBQAXwPq3cMPkE3Tl1MWMVHWEV47hy9VJ0Lj5fsr11vQfYQVQAAVAjfw+rYwSfqc1PvVN7kXU9J O8Iqwl/mamO+pni8ZP/X9RZkC1EFAEAF8T2sZg0+STcQVkkgrCKsnqMNQZGwQnkRVQAAVBjfw2r2 4JP12SmLFJjA9ZS0I6wivDBP64Ni8Xgr+5jrLcgGogoAgArke1i9c8gphFUyCKsIL8zT+iAoHm9k f+N6C/xHVAEAUKF8D6vjhrxL102+nbCKj7CKsOYsvWi3F4+X7OOut8BvRBUAABXM97A6Yeh79Jkp txFW8RFWEbrP1TptLx4n2d+63gJ/EVUAAFQ438PqxCGn6jOTv0BYxUdYRdgZVu+U7P+53gI/EVUA AKSA92E19L26dvJCwio+wirCzrCaLWOfcL0F/iGqAABICd/D6qShp+nT+99CWMVHWEXoPlfrbLE4 WzJPut4CvxBVAACkiO9hdcqw9+nqSTcTVvERVhF6OrW2GBRmS+Z3rrfAH0QVAAAp43tYvbvtA/rk pJuUMzxMiYmwirD2LPUUg8IswgpJyfxnK2ttam4AAOxSW1ur5uZm5382ler27mE7wsrIuP6tTjvC KsLas9QTFgqzZc3vXW9B+mU+qgAASKu6ujqvT6zeM+yDhFUyCKsI685Rd8EUZkvmD663IN2IKgAA Usz3sDq1bY6umvQ5wio+wirCix3qKuQLsyXzR9dbkF5EFQAAKed7WL237Qx9YtINhFV8hFWEF8/U mkK+MIuwwr4iqgAA8IDvYXVa25n6+MTrCav4CKsIL56pNfliYbaRecr1FqQPUQUAgCd8D6v3DZ+r j034DGEVH2EVYfU8vZAzhdmSnna9BelCVAEA4BHfw+oDIzoIq2QQVhFeaNfqwISzJD3jegvSg6gC AMAzWQiryyZcQ1jFR1hF2BlWx4qwQj8RVQAAeMj3sJozYp4uHf8pwiq+UYGCR4c+qAmuh1SaF9q1 OpcPZ0l61vUWVD6iCgAAT/keVmeMPEcfnfAp1zN8MCoXBN8nrN5szZl6PmfDWZL+5HoLKhtRBQCA x3wPqw+NOEcfHU9YJYCwirCmU38xuXCWjJ5zvQWVi6gCAMBzvofVGSPP1YLxn3Q9wweEVYSuufqz MeGxhBWiEFUAAGSA72F11sjz9ZFxn3A9wweEVYSuufqztoezJP3Z9RZUHtO2IrCuR7j0s2PS8aIu dXV1am5udj0DAJByvb292rhxo+sZJbP8+ft0z3MLXc/wwepiGB679mxe/e6Nhi3XOGOC70sa43oL KgcnVQAAZEhtba3XJ1adoy/URWOvcD3DB5xYRejp1J9sLpwlq+ddb0HlIKoAAMgY38Nq3uiLdOHY y13P8AFhFaFnrp61QXgsYYVdiCoAADLI97A6e/TFmr/fZa5n+ICwitAzV88Wi+EsSatdb4F7mY8q a21qbgAAJKm2tlbNzc3O/3wr1e3s0RfrH/b7qOvfZh8QVhHWnq1nQhFWIKoAAMg0318V8JzRH9H5 Yxa4nuEDwirCug49HebC2VZ6wfUWuENUAQCQcb6H1XljFug8wioJhFWEdXP1VL5IWGUZUQUAALwP q/PHLNA5oz/ieoYPCKsIL8zTH/PFcLakNa63oPyIKgAAIMn/sPqH/T6qs0df7HqGDwirCC/M0x9z CmdL6nK9BeVFVAEAgL/yPazm73eZ5o2+yPUMHxBWEdZ06A+5IJwtqdv1FpQPUQUAAP6O72F14X4f U8eo+a5n+ICwirDmLP3eWMIqS4gqAADwJr6H1YfHflxzR17geoYPCKsIXZ363c6w6nG9BaVHVAEA gN3yPaw+Mu4TOmvk+a5n+ICwitDVqd/JhLMlrXW9BaVFVAEAgEi+h9Ul467SmSPPcz3DB4RVhO52 PakwmC1pnestKB2iCgAA9Mn3sFow7pM6Y+S5rmf4gLCK0H32tiesJax8RlQBAIA98j2sLh13tT40 4hzXM3xAWEXo6dz2f4SVv4gqAADQL96H1fir9aERZ7ue4QPCKkJP57b/KxaD40RYeYeoAgAA/eZz WBkZXTr+U/rg8E7XU3xAWEVYO2/b40Xljpf0oustSA5RBQAA9orvYXXZhGv0gREdrqf4gLCKsLZj +2+CXO54Setdb0EyiCoAALDXfA+ry8dfq/cNn+t6ig8IqwgvzN3+WJDLHSfCygtEFQAA2Ce+h9UV E67TaW1nup7iA8Iqwgtztz+WK+aOl9UG11sQT+ajylqbmhsAAJVmV1i5/jOyJH/uWunjE67XqcM+ 5Pq32QeEVYQ187b/b87kjpe00fUW7LvMRxUAAIinrq5OgwYNcj2jJIyMPjHxBr1n2AddT/EBYRVh Tcf2X5tc7ngrveR6C/YNUQUAAGLzPayumnij3j30A66n+ICwitA1d/uvcrnccYRVOhFVAAAgEYQV +omwitA1d/uvcjZ3vKSXXW/B3iGqAABAYnwOq5zJ6aqJN+pdQ9/veooPCKsIXZ3bfylDWKUNUQUA ABKVibAaRlglgLCK0N2+/RfW5k4UYZUaRBUAAEicz2EVmEBXTbhRJw893fUUHxBWEXo6t/+PNbmT RFilAlEFAABKwuf3sQpMoKsn3qwTh7zX9RQfEFYRetq3/6xYNCeLsKp4RBUAACiZ+vp6r8Pq05Nu 0QmD3+N6ig8Iqwhr5xV+WpQ5RdIrrrcgGlEFAABKyvewumb/hTp+yLtdT/EBYRVhbUfhv3PGnCLp VddbsHtEFQAAKDnfw+raSV/QOwef4nqKDwirCGvaCz/JWcKqUhFVAACgLHwPq+v2v12zB5/seooP CKsIazoLP94ZVq+53oK/R1QBAICy8T2srp98h2a1nuR6ig8IqwhrOgs/Nju+xmqT6y34G6IKAACU lddhpR1hdWzria6n+ICwitDVUfiRyZlTJG12vQU7EFUAAKDsfA6rvMnrs5MXEVbJIKwidM0t/FCW sKoURBUAAHDC/7C6Q+9oPcH1FB8QVhG6Ows/IKwqg2lbEVjXI1z677c+5XpCv/j8BooAgGzbsmWL Nm7c6HpGSRTsdn36D5fqh+u/43qKD1YXw/DYtWfrGddDKk3bQ/lZKtpvSqp3vSWrMn9SZa1NxQ0A AF/t+otD13/WluIWKK8b9l+kYwa90/Vvsw9G5XLBo5xYvVn33MKj1phTxYmVM5mPKgAA4F5dXZ0G DRrkekZJ5E2VPjd5sd7aMsv1lPQzGk1Y7V5Pe+G7RZnTRFg5QVQBAICK4HtY3TTlizq65R2up6Qf YRVpbUfhO4SVG0QVAACoGL6H1een3KOjmt/uekr6EVaR1nYUvpMz5nRJW1xvyRKiCgAAVJQshNWR zce4npJ+hFWkNe2FbxtrTpfU63pLVhBVAACg4vgcVlW56h1h1UJYxUZYRerqLPynEWFVLkQVAACo SD6HVXWuRjdPvltHNL/N9ZT0I6widXUUvrUzrLa63uI7ogoAAFQsn8OqJldLWCWFsIrU1VH4loxO l7TN9RafEVUAAKCi+RxWtUHdzrB6q+sp6UdYRepuD/9DlrAqJaIKAABUPD/Nbz8AACAASURBVP/D 6h4dNvBo11PSj7CK1N0Z/rs1er8Iq5IgqgAAQCr4Hla3TLlPhww40vWU9COsIvW0h98krEqDqAIA AKlRV1enlpYW1zNKojao08KpX9LMgUe4npJ+hFWknvbwm1b6oAirRBFVAAAgVerr670Oqy9MuV8z Bhzuekr6EVaRejrCf81JHxJhlRiiCgAApI73YTX1fh084DDXU9KPsIq0piP8F2N1pgirRBBVAAAg lXwOq7qgXrdN+7IOGnCo6ynpR1hF6uoMv05YJYOoSglrresJAABUHK/DKlev26Z+WQc2HeJ6SvoR VpG6OsOvG+ksSdtdb0kzogoAAKSaz2FVHzTotmlf1oFNM11PST/CKlJXR/jPMjpLUsH1lrTKfFRZ a1NxAwAA0XaFles/r0txq881aOHU+3VA0wzXv83pR1hF6m4P/0lWZ0kKXW9Jo8xHFQAA8EN9fb23 72PVGDTpC1O/TFglgbCK1N0Zfk07vsaKsNpLRBUAAPBGFsJqWuNBrqekH2EVqbsz/JrEidVeKhJV AADAK76H1e3THtDUxgNdT0k/wipSd0f4iLVqF2HVXy8SVQAAwDu+h9Ud05ZqSuMBrqekH2EVqacz /Ko16hRhtWfGriOqAACAl3wPq0VTl2pyw3TXU9KPsIrU0x4+bKR5Iqz6Zs0zRBUAAPCW12GVH6BF 05Zq/4ZprqekH2EVqasjfMgYnS3CKpK15rdEFQAA8JrPYdWUH6hF05ZqUsNU11PSj7CK1NUerpR0 rgir3TP250QVAADwns9hNSDfrDunPaiJ9VNcT0k/wipSd0e4XFbni7B6o3BbTfgDogoAAGSC92E1 /UFNaiCsYiOsInV3hg9KukCE1ev9aOMcvUxUAQCAzPA5rAbmW3TH1KWa2DDZ9ZT0I6widXeES7Uj rIqut1QCI62SePNfAACQMT6HVXPVIC2a+iBhlQTCKlJ3R7jUGl0gybre4thrNYXwEUkybSuCTP9m /PjoP7ie0C/19fVqaWlxPQMAAG9s2bJFGzZscD2jJF7avkELnuzUs5ufcj0l/ayeLxbDWWvP1jOu p1SaYcuD84zR/ZKM6y1OWN3V3RkukDipAgAAGVVXV+f1idXiacs1rn6i6ynpx4lVpJ7O8CvGaL6y eWK1VWF4+65vEFUAACCzshBWY+sIq9gIq0hd7eH9WQwrK3NP9zl6bte3iSoAAJBpPodVS1WrFk9f pv3qaIHYCKtIXe3h/Ub2ImUnrLprcoUbXv8dmY8qa21qbgAAoDTq6urU0tLi/M/6Utxa8q26c+qD GlM73vVvc/oRVpG6OopLJHuxMhBWxuriv8zVxtd/X+ajCgAAQPL7VQFbq4do8fRlGl07zvWU9COs InV3FO+VtZfI57AyerCrM/z6G7+bqAIAANjJ67Cq2hlWdYRVbIRVpO7O4t3+hpV9PLcpvHh3P0JU AQAAvI7PYTW4aqgWT31Qo2vHup6SfoRVpO7O4t3W2EvlV1itDkzxXWvma/PufpCoAgAAeAOvw6p6 mO6c9qBG1e7nekr6EVaRetqLd1nZy+RHWG20JjjlhXatjvoAogoAAGA3fA6rIdVtWjxtmUbWjnE9 Jf0Iq0g9HcU7jbGXu94Ri9WGnHLH9bRv+21fH0ZUAQAARPA9rO6atpywSgJhFamrvbjIGHuZ6x37 6GnlwmPWdGz/9Z4+kKgCAADog+9htXjaMo2oGe16SvoRVpG62ouLjE3XiZUx+q98TXhkd7ue7M/H E1UAAAB74HNYDa0ersXTlml4zSjXU9KPsIrU1Vm8Q8ZeoRR8jZUxZnHXyPDk1XO0ob8/h6gCAADo B5/DaljNCC2etkxtNSNdT0m/nWE17CHxbstv0N1evE3S2ZK2OZ4S5U85Y07sai9cqlkq7M1PJKoA AAD6yeewaqsZqbumLSeskmA02oTB9wmrN+vuCJfLmhOs9ILrLa9TkMzC3ObwgDXthW/vywWIKgAA gL3ge1gtnrZMw2pGuJ6SfoRVpO7Owg/yxfBgGX3N8RRrpX8pKndYd0fhyqj3oOoPogoAAGAv+RxW w2tGafG0ZRpaPdz1lPQjrCK9ME/ru9vDOTljTpSxT5T5lw+N1cMKgwN7OsLT13Zs/03cCxJVAAAA +8DnsBpRM1qLpy3TkOo211PSj7Dq05r2wre7ny4eZI3OkPTL0v5q5o+SuSFUOKWrM5zbffa2xGLO tK0IKv4VOErpR0f93vWEfvH5EzcAAGm2efNmbdjQ7xcJS5XVvX/Wgifnad22btdT0s/qeRuEx/bM 1bOup1SyESuqDgmt7TDGnirFDtFQsk/K5P4jMGbVC3O3P5bExt0hqogqAAAQk89h9Xzvc1rw5Dy9 uK3H9ZT0I6z2yogVmlw0wVGyOlLSZFlNktFQSTVv+NDNkrqN1G2lLmvtr4zJ/bSwrfCrF8/Tq+XY SlQRVQAAIAFeh9WWP2nB784mrJJAWMU2bLkaagJVS9LWUNt6OrXJ9abMR9UPj/yd6wn9Ul9fr9bW VtczAABAHzZt2uRtWK3edWK1fa3rKelHWHmHF6oAAABISENDg7fPLBlVO1Z3TntQrVVDXE9JP168 wjtEFQAAQIJ8DqvRteN2hFU1YRUbYeUVogoAACBhPofVmNrxWjRlqQZVDXY9Jf0IK28QVQAAACXg c1jtVzdBi6YuVUsVX+8dG2HlBaIKAACgRHwOq7F1E7VoyoNqrvLz36+sCKvUI6oAAABKyOewGldP WCWGsEo1ogoAAKDEfA6r8fWTdMeUpYRVEgir1CKqAAAAysDnsJpQv79un/KABuZbXE9JP8IqlXjz 3xS9+a+vn4gBAMiSzZs3e/sGwU9v/r0++rtz9ErhJddT0o83CE4VTqoAAADKyOe/KJ1YP0WLpi7V gHyz6ynpx4lVqhBVAAAAZeZ7WN0x5QE1BQNdT0k/wio1iCoAAAAHfA6rSQ1TdcfUB9SUJ6xiI6xS gagCAABwxOew2r9hmm6f8hU15ge4npJ+hFXFI6oAAAAc8jmsJjdM1x1THlBj0OR6SvoRVhWNqAIA AHDM97C6fSphlQjCqmIRVQAAABXA57Ca0nCAvjDly4RVEgiripT5qLLWpuYGAAD8Vl9fr5aWFueP OUpxm9pwoG7ZfwlhlQTCquJkPqoAAAAqSUNDg7cnVgc0zdAtk5eoIWh0PSX9CKuKQlQBAABUGK/D qnGGbp28RPVBg+sp6UdYVQyiCgAAoAL5HVYzdev+hFUiCKuKQFQBAABUKJ/D6sCmQ3Tr/ktUl6t3 PSX9CCvniCoAAIAK5n1YTV6i2lyd6ynpR1g5RVQBAABUOJ/D6qCmQ3eEVUBYxUZYOUNUAQAApIDP YXVw02G6ZdJ9hFUSCCsniCoAAICU8DmsZgw4XJ/f/17CKgmEVdkRVQAAACnic1jNbDpCN026m7BK AmFVVkQVAABAyvgcVocOOEqfm3gXYZUEwqpsiCoAAIAU8jmsDh/4Fn1u4mLV5GpdT0k/wqosiCoA AICU8jus3qobJ92l6lyN6ynpR1iVHFEFAACQYlkIq6pctesp6UdYlRRRBQAAkHI+h9URA9+mmyZ9 kbBKAmFVMkQVAACAB3wPqxsn3aW8qXI9Jf0Iq5IgqgAAADzhc1gdOfAYwiophFXiMh9V1trU3AAA APakoaFBLS0tzh+3lOJ25MBjdMOkOwmrJBBWicp8VAEAAPimsbHR2xOrowe+Q9dPvIOwSoLRaFMM HiWs4iOqAAAAPORzWL21eZaum3AbYZWMMYRVfKZtRZDp55V9//AnXE/ol/r6erW2trqeAQAAUmbT pk3asGGD6xkl8aON/6Xrn7lCBbvd9RQf/MXmwlk9c/Ws6yFpxEkVAACAx3x+8YpjWo7TtRMWKm/y rqf4gBOrGIgqAAAAz/kcVm9vOV7XTFioQIHrKT4grPYRUQUAAJABPofVO1pO2BFWhrBKAGG1D4gq AACAjPA5rI4ddKKuGU9YJYSw2ktEFQAAQIb4HlafHn8rYZUMwmovEFUAAAAZ43NYzRp0kq4e93nC KhmEVT8RVQAAABnkc1i9s/UUfXL8zYRVMgirfiCqAAAAMsrnsDpu0Lt01bgbCatkEFZ7QFQBAABk mM9hdXzre3Tl2BsIq2QQVn0gqgAAADLO57A6cfB79fGxnyWskkFYRSCqAAAA4HVYnTT4NF0x9nrl DA99E0BY7Qb3LAAAAEjyO6xOHny6rhh7vYyM6yk+IKzegKgCAADAX/kcVqcMfh9hlRzC6nXyrge4 Zq11PQEAAKCiNDQ0SJLWr1/veEnyThn8PlkVddtz18uKx4Ex7QyrcFbPXD3reoxLnFQBAADgTRoa GtTa2up6Rkm8a/AH9LGxn+HEKhmcWImoAgAAQATfw+qy/a4hrJKR+bAiqgAAABDJ56+xes+QObp0 zKcIq2RkOqyIKgAAAPSpsbHR27B679AztGDM1YRVMjIbVkQVAAAA9sjnsDpt6Jn6yJirCKtkZDKs iCoAAAD0i89h9b6hc/Xh0VcSVsnIXFgRVQAAAOg3n8PqA8M6dPGYK13P8EWmwoqoAgAAwF7xOaze P7RDF48mrBKSmbAiqgAAALDXfA6rDwzr1EWjr3A9wxeZCCuiCgAAAPvE57CaM+xszR91uesZvvA+ rIgqAAAA7DOfw+qMtnMJq+R4HVZEFQAAAGLxPaz+YdRlrmf4wtuwIqoAAAAQm89hdWbbeTp/5KWu Z/jCy7AiqgAAAJAIn8Nq7vALdN7IS1zP8IV3YUVUAQAAIDE+h1X78Pk6d+RHXM/whVdhRVQBAAAg UT6HVcfwC3X2iA+7nuELb8Iq73qAa9Za1xP6xVqbmq0AAAANDQ2SpPXr1ztekrzO4RfJSlq25h7X U3ywM6zCWT1z9azrMfuKkyoAAACURENDg1pbW13PKIl5wy9Sx/ALXc/wRepPrIgqAAAAlIzPYXXO iIs1t+0fXM/wRarDiqgCAABASfkcVueNvERzh1/geoYvUhtWRBUAAABKzuuwGrFAZ7ad53qGL1IZ VkQVAAAAysLnsLpg5EcJq+SkLqyIKgAAAJSN72H1oWHnuJ7hi1SFFVEFAACAsmpoaPD2fazmj7pc c4ad7XqGL1ITVkQVAAAAys7nNwi+cNTH9IFhna5n+GJHWC3XONdD+kJUAQAAwAmfw+rDoz6u9w/t cD3DF2OMCb5fyWFFVAEAAMAZr8Nq9Mf1/qHtrmf4oqLDiqgCAACAU76GlZHRh0dfqdOHnOV6ii8q NqyIKgAAADjnc1h9ZMxVOm3oma6n+KIiw4qoAgAAQEXwOawuGf1JnTrkQ66n+KLiwoqoAgAAQMXw OawuHfMpvXvwB11P8UVFhRVRBQAAgIric1hdtt81evcQwiohFRNWedcDXLPWup7QL2nZCQAAkITG xkZJ0vr16x0vSd5HR39axWJR/77+n11P8cHOsAqP7enUn1yN4KQKAAAAFamxsVGtra2uZyTOyOjy /a7VKYPf53qKL5yfWBFVAAAAqFheh9WYz+jk1tNdT/GF07AiqgAAAFDRfA+rk1pPcz3FF87CiqgC AABAxfM1rHImp8vHfEYntr7X9RRfOAkrogoAAACp4GtYBSbQx8ZcpxNaT3U9xRdlD6vMv/pfmvAK gAAAIOsaGhpkrdWGDRtcT0lUYAJdMeZ6FW1R/7Xhm67n+KCsrwrISRUAAABSxdf3sQpMoCv3u0Hv bDnF9RRflO3EiqgCAABA6vgcVp8Ye6NmDzrZ9RRflCWsiCoAAACkks9hddV+N2lWy0mup/ii5GFF VAEAACC1fA6rT469Wce2nOh6ii9KGlZEFQAAAFLN57C6euzn9Y6WE1xP8UXJwoqoAgAAQOr5HFaf GneL3t58vOspvihJWBFVAAAA8IK3YaUdYXVM83Gup/gi8bAiqgAAAOANX8Mqb/L69Lhb9Lbmd7qe 4osxxgTfH7lSo5K4GFEFAAAAr/gbVlW6ZtytemvzbNdTfDGmaPPfa3tAQ+JeiKgCAACAd3wOq2vH LdRbBh7reooXrOwkVQX/NuQRNca5TuajylqbmhsAAAD6b1dYuX4Ml/QtUF7XjvuCjhrwdte/xb44 MtgaPKRHFOzrBTIfVQAAAPBXY2OjWltbXc9IXN5U6brxt+vIgce4nuKLU4f35j+3rz+ZqAIAAIDX fA6r68fdoSMGvM31FC9YY69qWxHM2ZefS1QBAADAe4QV+un+ISs0cW9/ElEFAACATPA1rKpy1bp+ 3B06fMBbXU/xwYBAuX+cuFg1e/OTiCoAAABkhu9hddiAt7ie4gFzyKZB+c/szc8gqgAAAJApvoZV da5Gnx2/SIc2He16SupZa69se6jqiP5+PFEFAACAzPE2rMyusDrK9ZS0C1S0S7VEVf35YKIKAAAA meRrWNXkavXZ8XfqkKYjXU9JOTttWEPuY/35SKIKAAAAmeVzWN0wfrFmNB7uekqqGWs+NXKlRu3p 44gqAAAAZJrPYXXjhC/qoMZDXU9Js8aCDT6/pw8iqgAAAJB5jY2NGjRokOsZiavJ1ermCfcQVjEY 6cyRD1XN6OtjiCoAAABAUlNTk7dhddOEu3Vg4yGup6RVLiwWb+7zA8q1BAAAAKh0voZVba5ON024 Wwc0znQ9Ja1OGrosH/la9UQVAAAA8Dq+hlVdrl43T7iHsNpHuZz9ZOSPlXMIAAAAkAY+h9VN4+/W 9IY+v0QIu/fuocuqD9rdDxBVAAAAwG74Glb1QYNumnC3pjcc7HpK2pggF16y2x9oWxHYcq+pJN+Z 8ZjrCf3S0NCgwYMHu54BAACQOa+99prWr1/vekbiNhVf09XPfFhPbnrc9ZQ02VKdC0f+Za42vv47 OakCAAAA+uDr+1g15Bp104R7NLXhQNdT0qRum82d+8bvJKoAAACAPfA5rG6ecK8m1093PSU9rM5+ 43cRVQAAAEA/+BxWt0xcov3rp7mekhLmgDe+GTBRBQAAAPSTz2F164QlmlQ31fWUVAhD2/76bxNV AAAAwF7wNqyCJt06cYkm1k1xPaXyGXv6679JVAEAAAB7ydewagwG7AiresJqD8a//j2riCoAAABg H/gaVk3BQN0y/j7Cag9yucJ7d/1z3uUQoL82F17Tq4VXXc8AACD1avM1Gpj37w1tXWlsbJS1Vhs2 bHA9JVED8s26Zfx9uvKZ+Xpmyx9cz6lQ5jhJN0i8+S9v/psSn3/8Gn3pZ3e5ngEAQOpNH3mg/u1d P3I9wzuvvvqqd2ElSS8XNuoTz8zXM1v+6HpKJdqa2xwOWjNfm3n6HwAAABBTU1OTBg3y7wRwYL5F t0xYovF1k1xPqUQ1YW3+LRJfUwUAAAAkwuewunXClzS2doLrKRXHBEWiCgAAAEiSz2H1hYlf1tg6 wurvWHOYRFQBAAAAifI5rBZOuF/7cWL1eodLRBUAAACQOF/Dqjk/SF+YSFi9TtuIhzWYqAIAAABK gLDKiEJ+ClEFAAAAlIjPYbVw4pcIK0mhsVMy/+a/1qbjbbrSsrNk7M4bAACIhz9Py66pqUmStH79 esdLktUcDNKtE5boymfm68+9z7ie4441YzmpAgAAAEqsqalJra2trmckriXfqlsnLHE9wymTsyOJ KgAAAKAMfA6rLDPSKKIKAAAAKBNfwyrTrB1CVAEAAABlRFj5xRozMPMvVJEmmX+xCgAAkAgeU7jX 2Ngoyb8Xr8gkqyZOqgAAAAAHGhsbObHyQw1RBQAAADhCWHmhkagCAAAAHCKs0o+oAgAAABwjrNKN qAIAAAAqAGGVXkQVAAAAUCEIq3QiqgAAAIAKQlilD+9ThcxqqGnQ6UfPcT0DjmzqfU3f+NnXEr/u uw97r5obByV+XaTDN376iDZt3ZToNWeOP1TTxxyU6DWRHj//43/rj2v+4HoGHGhsbFRvb682bUr2 cwpKg6hCZuXzVRo/bLzrGXDk5U0vleS6owaP1tCBw0pybVS+fL5K2prsNVsaB/G5KsN+v/oJ1xPg UC7Hk8rSgv9SAAAAABADUQUAAAAAMWT+6X/WWtcT+iUtOwEAAJAMay2PAVOCkyoAAAAAiCHzJ1VI kaT/ooa/+EEp7gPcr7LNivsAklWK+xT3USBxnFQBAAAAQAxEFQAAAADEQFQBAAAAQAxEFQAAAADE QFQBAAAAQAxEFQAAAADEQFQBAAAAQAxEFQAAAADEQFQBAAAAQAxEFQAAAADEQFQBAAAAQAxEFQAA AADEQFQBAAAAQAxEFQAAAADEkHc9wDVrresJ/WKtTc3WUrDK7r87AABJy/JjijTJ+uO/NMl8VCEl 7M5b0tdEtnEfQNL4XIVS4D4AVDye/gcAAAAAMRBVAAAAABADUQUAAAAAMRBVAAAAABADUQUAAAAA MRBVAAAAABADUQUAAAAAMRBVAAAAABADUQUAAAAAMRBVAAAAABADUQUAAAAAMRBVAAAAABADUQUA AAAAMRBVAAAAABBD3vUA16y1rif0i7U2NVsBAEBl4zFFOvD4Lz0yH1VIkaQ/p/A5CtwHkDQr7ldI VinuU9xHgcTx9D8AAAAAiIGoAgAAAIAYiCoAAAAAiIGoAgAAAIAYiCoAAAAAiIGoAgAAAIAYiCoA AAAAiIGoAgAAAIAYiCoAAAAAiIGoAgAAAIAYiCoAAAAAiIGoAgAAAIAYiCoAAAAAiIGoAgAAAIAY iCoAAAAAiCHveoBr1lrXEwAAAIA3sdbyWDUlOKkCAAAAgBiIKgAAAACIIfNP/0OKJH36zWk6uA8g aVbcr5CsUtynuI8CieOkCgAAAABi4KQqRfhCRQAAkAQeUwDJ4qQKAAAAAGIgqgAAAAAgBqIKAAAA AGIgqgAAAAAgBl6oApm1qfc1rfzuUtcz4Mj2MCzJdb/5P/+fqvNVJbk2Kt+m3tcSv+ZjT/9az3U9 k/h1kQ4vvrLe9QQA/UBUIbMKYUHPdj/regY8s/rF511PgGc2vLpeG17lgTUAVDKe/gcAAAAAMRBV KcH7SQAAAACViagCAAAAgBiIKgAAAACIgagCAAAAgBgy/+p/fK0SAAAAKhWPVdOBkyoAAAAAiCHz J1VICbvzBgAAAFQYTqoAAAAAIAaiCgAAAABiIKoAAAAAIAaiCgAAAABiIKoAAAAAIAaiCgAAAABi IKoAAAAAIAaiCgAAAKhA1vImnWlBVAEAAABADEQVAAAAAMRAVAEAAABADHnXA4D+qDV1iV+zpqpG h084KvHrIh22Fnr1i6f/J/Hrzhx3qBpqGhO/LtLhF8/8TFu3b030mmOHjteoQaMTvSbS45mep9S1 cU2i16wy1YleDwBRhZRoyDUlfs2Btc369Ak3Jn5dpMPaV3vU+fT7E7/u/Lcs0NjWCYlfF+nQufT9 Wru9J9Frzpp4gj50WHui10R6fPHR2/TNjd9I9Jp1ufpErweAp/8BAAAAQCyZP6lKy0tVWmtTs7UU rLL77w4AQNKy/JgibfhvlQ6ZjyqkSNKfU/gchVLcB7hfZZsV9wEkqxT3Ke6jQOJ4+h8AAAAAxEBU AQAAAEAMRBUAAAAAxEBUAQAAAEAMRBUAAAAAxEBUAQAAAEAMRBUAAAAAxEBUAQAAAEAMRBUAAAAA xEBUAQAAAEAMedcDgP6yFX49pE8p7gPcr7LNivsAklWK+xT3USB5nFQBAAAAQAxEFQAAAADEQFQB AAAAQAxEFQAAAFCBrOUr4NIi8y9UkZY7q7U2NVsBAEAl4zFFmvDfKh04qQIAAACAGIgqAAAAAIgh 80//Q0rwRh0oBe4DSBqfq1AK3KeAisdJFQAAAADEQFQBAAAAQAxEFQAAAADEQFQBAAAAQAxEFQAA AADEQFQBAAAAQAxEFQAAAADEQFQBAAAAQAxEFQAAAADEQFQBAAAAQAxEFQAAAADEQFQBAAAAFcha 63oC+omoAgAAAIAY8q4HuJaWvwGw1qZma0lk+d8dAICEZfoxRcrw3yodOKkCAAAAgBgyf1KFFOEv apAkK+5TKA3uV0hSKT5XcR8FEsdJFQAAAADEQFQBAAAAQAxEFQAAAADEQFQBAAAAQAxEFQAAAADE QFQBAAAAQAxEFQAAAADEQFQBAAAAQAxEFQAAAADEQFQBAAAAQAxEFQAAAADEQFQBAAAAQAxEFQAA AADEQFQBAAAAQAx51wNcs9a6ntAvadkJAACAZFhreQyYEpmPKqRI0p9T+BwF7gNImhWfq5CsUtyn ACSOp/8BAAAAQAycVKUIx78AACAJPKYAksVJFQAAAADEQFQBAAAAQAxEFQAAAADEQFQBAAAAQAxE FQAAAADEQFQBAAAAQAy8pDoya8u2Lfr3x//V9Qw48mrvKyW57o+f+r5+t+aJklwblW/Lti2JX/MP PU/yuSrD/rzhOdcTAPQDUYXMerX3Fd35X7e6ngHPrPzpUtcT4JmfPPVD/eSpH7qeAQDoA0//AwAA AIAYiCoAAAAAiIGoAgAAAIAYiCoAAAAAiCHzL1RhrXU9oV/SshP/r717j7H0rAs4/nvOmZ29lO0F 2u62NSKXmIIgSpBEtERRg4rBGOIa6GyhItZbLIL3P7TGYJQIVlAU+wfKthAlgnLRRIzQagyGBoFC S4VS1HZvbdl2d/Y2c855/KNbhNJ2p/t7zz7z7vv5JJPs7O4885vdN2fe7zzveQ8AQDdqrc4Be8JO FQAAQIKoAgAASBBVAAAACYN/ThU9UU+8AQA5vp9C5+xUAQAAJIgqAACABFEFAACQIKoAAAAS3Kii R4b84m8D/tIBoHNDPqeAebBTBQAAkCCqAAAAEkQVAABAgqgCAABIEFUAAAAJ7v7HYI3KKM5aPKv1 GDQyqzUOryx3vu6WxbNiXPy8aqgOrxyOWZ11uubiwsbYOF7sdE3649jkWKxOV1uPAZyEqGKwzt96 Qex6zd+2HoNG9h/cFzuve1nn67755W+Lp5z/tM7XpR92Xvey2H9wPBMwWAAAFhZJREFUX6drLn3n lfETz1/qdE36463//Kb44Kfe13oM4CQGH1V9eZ2GvswJAEA3aq3OAXvCNSoAAAAJogoAACBh8Jf/ 0SNd737bTccxQNdqeKyiW44p6AU7VQAAAAmiCgAAIEFUAQAAJIgqAACABFEFAACQIKoAAAASRBUA AECCqAIAAEgQVQAAAAmiCgAAIGGh9QCsXa219QjN1Bju1w4AXaox7HMKmAc7VQAAAAmiCgAAIGHw l//1Zfu7L3MCANCNWqtzwJ4YfFTRE/XEW9drMmzzOAYcV8M2j8cqcEzBuufyPwAAgARRBQAAkCCq AAAAEkQVAABAgqgCAABIEFUAAAAJogoAACBBVAEAACSIKgAAgARRBQAAkCCqAAAAEkQVAABAgqgC AABIEFUAAAAJogoAACBhofUArdVaW4+wJrXW3swKAKxvzin6wflff9ipAgAASBBVAAAACaIKAAAg YfDPqaJHur6k2CXKOAboWg2PVXTLMQW9YKcKAAAgQVQBAAAkuPwPgMFZPbYau2/f1/m6T1t9RlxQ Lul0zYW9m+O/P3VXp2vSH1vve2J8S3lup2tecOjiuO222zpdc162b98e5513Xusx4KREFQCDc2z5 eNzy4Vs7X/d58cKI0vGiX4i45Qvdz0o/nB+XxIs6DvW4L+Kmm27qds05ueyyy0QVveDyPwAAgARR BQAAkCCqAAAAEkQVAABAgqgCAABIEFUAAAAJogoAACBBVAEAACQM/sV/a62tR1iTvswJAEA3aq3O AXvCThUAAECCqAIAAEgY/OV/9EOtD751vSbD5hgAALpgpwoAACBBVAEAACSIKgAAgARRBQAAkCCq AAAAEkQVAABAgqgCAABI8DpVDNas1jh07FDrMWjk8PHluax7ZOWw46oHDh8/Mpd1t2zZEqORn1cy TMvL83lchT4QVQzWvYf2x8v++Idaj8EZ5peu/7nWI7AG55dt8YrRVZ2ve9VVV8XGjRs7Xxf64C1v eUscOTKfH1jAeufHaQAAAAmiCgAAIEFUAQAAJIgqAACAhMHfqKLW2nqENam19mbWuRjwlw4AQzX4 85/oz7nq0A0+qugRjynAOufkB2CYXP4HAACQIKoAAAASRBUAAECCqAIAAEhwowoA6JCbVQAMj50q AACABFEFAACQIKoAAAASRBUAAECCqAIAAEgQVQAAAAmiCgAAIEFUAUBHvEYVwDCJKgAAgISF1gO0 5qeKw3XulvPiN176263HoJEDRw7E77//dzpf97U/+Gtx0bkXdb4u3ZocnMa+f3qg9RhnnH3veG1M D93Xeoxmtl/19hht3NJ6DM4gtVbnqj0x+KhiuBYXFuPbv+l5rcegkf0H981l3Wdc8sx4ygVPm8va dOfQvcuxL/699RhnnKN3fDwmX97deoxm6mzSegSgEZf/AQAAJIgqAACABJf/AUCHPP9h2Pz/wzCJ KvrD9ym6VMMxBQB0wuV/AAAACaIKAAAgQVQBAAAkiCoAAIAEUQUAAJAgqgAAABJEFQB0xGsUAQyT qAIAAEgQVQAAAAmiCgAAIEFUAQAAJCy0HqC1vjypuNbam1kBhsxj9XD5Xj0fQ/43dUz1h50qAACA BFEFAACQIKoAAAASBv+cKnqinnjrek2GzTEA697i2efH4pazO11zsnI8jn357k7XBIZNVAEA69ZZ Fz45nnDR0ztdc+XgvaIK6JTL/wAAABJEFQAAQIKoAoCOeD0ZgGESVQAAAAmiCgAAIEFUAQAAJIgq AACABFEFAACQ4MV/AaBD7gA4XLVW//8wUHaqAAAAEkQVAABAwuAv/+vLNn1f5gQAoBsuKe0PO1UA AAAJg9+poke6/kGNH/wwj2PAcQUAg2OnCgA64jIdgGESVQAAAAmiCgAAIEFUAQAAJIgqAACABFEF AACQIKoAAAASRBUAAECCF/8FgA55rarhqrX6/4eBslMFAACQIKoAAAASRBUAAECCqAIAAEgQVQDQ ETcpYMgc/wzZ4O/+15cHgL7MCQBAd5wD9oOdKgAAgARRBQAAkCCqAAAAEkQVAABAwuBvVEFP1BNv Xa/JsDkGAIAO2KkCAABIsFMFAB0a8u2Ph/y1Rzz49Q/93wCGyk4VAABAgqgCAABIEFUAAAAJogoA ACBBVAEAACS4+x+DdeDwgfi1G17begwaWZ2szmXda//hjbFpw+a5rE13zppsjefGZZ2v+5sfPx4P rK50vm5f/FbrAQAaEVUM1upkJf7zzptbj8EZ5ra7Ptt6BNbg/NG2eO5i91H1yftmsefIrPN1e8Pd xIGBcvkfAABAgqgCAABIGPzlf3165fM+zdq16poSABicWuuwz38G/vX3iZ0qAACABFEFAACQIKoA AAASBv+cKnrEJcVAVzyeANAhUQUAdGLoreqmAjBcLv8DAABIEFUAAAAJogoAACBBVAEAACSIKgDo iJsUAAyTqAIAAEgQVQAAAAmiCgAAIEFUAQAAJIgqAACABFEFAACQsNB6gNb6cvvbvszZJ5s3bI4X PfsHWo9BI0dXjsa/fObDna972TO+J87efHbn69Ktjcc3R3yx9RRrc86mcZy92O3PQI9NatxzZNLp mkD3aq3OAXti8FHFcG3dcnZc/ZJfbT0Gjex/YN9comrphVfGUy58Wufr0q1D9y7HjV/899ZjrMmF Wxbiqedu7HTN+49NRdUcOAGG4RJV9EfX36d838MxAAB0wHOqAAAAEkQVAABAgqgCAABIEFUAAAAJ ogoAACBBVAEAACSIKgAAgASvU0VveJkquuYYAAC6YKcKAAAgQVQBAAAkiCoAAIAEUQUAAJDgRhUA AB2otUatboEDQzT4qOrLg58HagBgiIZ8/uP8rz9c/gcAAJAgqgAAABJEFQAAQIKoAgAASBj8jSoA ADoxOxQxmbWeoiE3VGC4RBX9UKP7x2qP/TgGgA5NbvvhiOly6zGaWRxfHUdbDwGNuPwPAAAgQVQB AAAkiCoAAIAEUQUAAJAgqgAAABJEFQAAQIKoAgAASBBVAAAACaIKAAAgQVQBAAAkLLQeoLVaa+sR 1qQvcwIA0B3ngP1gpwoAACBBVAEAACSIKgAAgARRBQAAkDD4G1XQI10/T9PzPpnHMeC4AoDBsVMF AACQIKoAAAASRBUAAECCqAIA6ILnVMJguVEFAMA6tWHzN8TC4pM6XXM6ORgrh+/sdE0YOlEFALBO jcZbYrx4XreLVltq0DWX/wEAACSIKgAAgARRBQAAkCCqAAAAEkQVAABAwuDv/ld7cgecvswJAEA3 aq3OAXvCThUAAECCqAIAAEgY/OV/9EQ98db1mgybYwAA6ICdKgAAgARRBQAAkCCqAAAAEkQVAABA gqgCAABIEFUAAKR5kVqGTFQBAAAkiCoAAIAEUQUAAJAgqgAAABIWWg8ArRxdORofuvn9rcegkUNH D85l3X+99aNx6/9+di5r06HDo4hYbD0FAGcIUcVgHTp6MK79wBtbj8EZZtdH39F6BNbg/PG2uHzL Va3HAOAM4fI/AACAhMHvVPXpNRX6NGvnhvy1A8BA1VoHff4z9K+/T+xUAQAAJIgqAKAbfqIODJSo AgAASBBVAAAACaIKAAAgYfB3/6NHXKoPdMXjCQAdslMFAACQIKoAAAASRBUAAECCqAIAAEgQVQAA AAmiCgAAIEFUAQAAJIgqAACABFEFAACQIKoAAAASFloP0FqttfUIa9KXOQEA6Eat1TlgTww+quiH xfFibN20tfUYwBnirLJlLutuGc9i64bS6ZobSsSk65OqWmPrhm6XjIiIjVujbD7c7Zqjccwmq50u Oas1yuY5fE8Zb4xaOr4IqCxErZNOl5yVEnV8dqdrPqhEhABgmMr2XeNBH/1/ecGHWo+wJuecc05c csklrccAOCMcOHAg3ve+97UeAziJF7zgBXHppZe2HqOZPXv2xIEDB1qPsSavuuclrUdoynOqAAAA EkQVAABAgqgCAABIEFUAAAAJogoAACBBVAEAACSIKgAAgARRBQAAkCCqAAAAEkQVAABAgqgCAABI EFUAAAAJogoAACBBVAEAACQstB6gtVpr6xHWpNbam1kB1juPp9APzn88XvWFnSoAAIAEUQUAAJAg qgAAABJEFQAAQIKoAgAASBj83f8AGJ4nPOEJ8eIXv7j1GMBJnHPOOa1HgDURVQAMzoYNG+Liiy9u PQYAZwiX/wEAACSIKgAAgARRBQAAkCCqAAAAEkQVAABAgqgCAABIEFUAAAAJogoAACBh8C/+W2tt PcKa9GVOAAC6UWt1DtgTdqoAAAASRBUAAECCqAIAAEgQVQAAAAmiCgAAIEFUAQAAJIgqAACABFEF AACQIKoAAAASRBUAAECCqAIAAEgQVQAAAAmiCgAAIEFUAQAAJIgqAACABFEFAACQsNB6gNZqra1H WJO+zAkAQDdqrc4Be8JOFQAAQIKoAgAASBBVAAAACaIKAAAgQVQBAAAkiCoAAIAEUQUAAJAgqgAA ABJEFQAAQIKoAgAASBBVAAAACaIKAAAgQVQBAAAkiCoAAIAEUQUAAJAgqgAAABIWWg/QWq219Qhr 1qdZAQDIqbU6/+sJO1UAAAAJogoAACBBVAEAACSIKgAAgARRBQAAkCCqAAAAEkQVAABAgqgCAABI EFUAAAAJogoAACBBVAEAACSIKgAAgARRBQAAkCCqAAAAEkQVAABAgqgCAABIWGg9QGu11tYjrElf 5gQAoBu1VueAPWGnCgAAIEFUAQAAJAz+8r++WF5ejjvvvLP1GAAAnCbHjx9vPQJrJKp6YjKZxPLy cusxAACAh3H5HwAAQIKoAgAASBBVAAAACaIKAAAgQVQBAAAkiCoAAIAEUQUAAJAgqgAAABJEFQAA QIKoAgAASBBVAAAACaIKAAAgQVQBAAAkiCoAAIAEUQUAAJAgqgAAABJEFQAAQIKoAgAASBBVAAAA CaIKAAAgQVQBAAAkiCoAAIAEUQUAAJAgqgAAABJEFQAAQIKoAgAASBBVAAAACaIKAAAgQVQBAAAk iCoAAIAEUQUAAJAgqgAAABJEFQAAQIKoAgAASBBVAAAACaIKAAAgQVQBAAAkiCoAAIAEUQUAAJAg qgAAABIWWg/Q2pG63HoEAACgx8r2XeNJRIxbDwIAANBDR0YRYasGAADg1KyOakRtPQUAAEAf1Yjl UYk40HoQAACAPhpFOTKKiHtbDwIAANBHs6j7RxFxT+tBAAAAemr/qETsbj0FAABAH5WIPaNZqXe0 HgQAAKCPStQ7RqWWL7YeBAAAoI9mtXx+NJuNP9d6EAAAgD4al+l/jfZ/48qtEXGs9TAAAAA9s7z7 jvj8KL43JhFxS+tpAAAA+qREfDquidnoxPs3N50GAACgd8rHIyJGERG1xk1thwEAAOiZUm+MOBFV s+n0o02HAQAA6JfZaDq9KeJEVN1zZeyNKLe2nQkAAKAv6ifvfmXcF3EiqiIiSo33txsIAACgT0Yf +sqvHvrFtMQH2gwDAADQL6Mof/f/vz5h/x2Tj0XEniYTAQAA9Md/715a/c+H3vlKVMU1MYso724y EgAAQE+UKDdEifrQ+6Ov/sPxqOw6/SMBAAD0Ry2TG776/a+JqrsvX/1kRP306R0JAACgN/5j71J8 zZ3TRw//G6WUPzl98wAAAPTK2x7+G18XVZPF6btrxP2nZx4AAIDeuHdh4/Q9D//Nr4uqe3bE8qiW Pz89MwEAAPRF+dO7dsTRh//u10VVRMSoTv4wIg7NfSYAAIAeqBH3b5pMrn2kP3vEqLr7lXFfifLW +Y4FAADQD6XUP/rSlY/8NKlHjKqIiPHGyZsi4uDcpgIAAOiHA8cXZ3/8aH/4qFF11474ci3lLfOZ CQAAoB9KrW8+sCMeeLQ/f9SoiojYWCZvdidAAABgwO5ZXX30XaqIk0TV/1weB0ZRf73bmQAAAHqi xK/c++rHvolfOekiNcq268f/WiK+q7PBAAAA1rsaH9m7c/p9UaI+1l97zJ2qiIgoUUuZ/nRErHQ1 GwAAwDp3bFynP3OyoIpYS1RFxN6luLWW8sb8XAAAAOtfqfUNd78y/mstf3dNURURsXl18oaIsqZF AQAA+qvc9sRNszVvKq05qr50ZRyLUpbCZYAAAMCZ69goytJnd6y9e9YcVRERe5dWPx5RX//45wIA AFj/SsTVu3eufuJxfszjt33X+K8jYsepfCwAAMC6VGLX3qXpFY/3wx7XTtVDJivTn4oot5/KxwIA AKw/5dbR4enPnNJHnuqn3Hb94rNLnX4sIrac6hoAAADrwPJoPP2O3a+Iz53KB5/STlVExL6llVtq xMsjYnqqawAAADS2EiV2nGpQRSSiKiJi387p+6PEqyNO/oJYAAAA60wtET+5d2n6j5lFxtkplt9b P3XWy8rxEuX7s2sBAACcLjXqL+3dObsuu046qiIiDr+3/tvWHxtvihLf3cV6AAAA81Rq+f29V0zf 0MlaXSwSERE1ykXXj6+rEa/ubE0AAIDu/dnepenPR+nmaUyp51R9jRJ1z9L0NRHlDztbEwAAoEMl yu91GVQPrjkH23eNfjmivHFe6wMAADxOtZT6uj1Ls2u7Xnhu0bP9neNXRYnrImJhXp8DAABgDVZr iVftW5q+ax6Lz3Unaduu8UtLxLvDCwQDAABtLEeJHdnbpj+WuV+et+2di88qMXtPlHrpvD8XAADA /6ufGY1nP555Yd+16O5GFY9i3xUrn5lumnxHlHjPvD8XAABARESNuGG6cfad8w6qiNN8I4ntu0a/ cOLugBtP5+cFAAAG41iJuHrPzulfnK5PeNrvznfROzc8r5Z6Q0T95tP9uQEAgDNYLZ8blXL57p2r nzidn3bul/893J4rVm/eNJk8J6L8bkSsnO7PDwAAnHGOR9RrnrRp8pzTHVQRjV9Havv18cyo47dH xHe3nAMAAOitG0cxvWr3zri91QDtX5y3Rrno+vFrZhF/UCLObT0OAADQC/fVEr+67/LpO6JEbTlI +6g64ZveEeceW1h4XUS9OiLObj0PAACw/tSI+0vUa49vnF17YEc80HqeiHUUVQ/5hr+JJ64eW3hd KfUXI2Jr63kAAIB14WDUcu2m6eSPvnRl3N96mK+27qLqIZf8VTxpNl54/azWn3VZIAAADNaBWsvb NmyavPmuHfHl1sM8knUbVQ/Z9s44azQav2JW68+VKN/Weh4AAOC0uLnW+PMNm6bvumtHHG09zGNZ 91H11S7cteE5o1p3Rqkvj4iLW88DAAB06q4o5V01RtfvW1q5pfUwa9WrqPqKa2K07ekbnj+a1R+t ZfYjEeVZrUcCAAAetxpRbykx+mAdlb/f+/nVm+OamLUe6vHqZ1Q9zIXvim1lNv6eUuOFUeN5UeJb I2JT67kAAICvcTQiPh0lbo5Z3FhjeuO+K2J/66Gyzoio+jofiYVt/7t4aRlNL41ZfWqN8vQScVGU uCAitseDt2wfRcQ5bQcFAIAzw4O3Oo8aJR6IGvuixj01Yk+J+oUS5Qt1Nr5975NXbo/vjUnrWbv2 fwKM/ahVUU5kAAAAAElFTkSuQmCC "
     preserveAspectRatio="none"
     height="68.475189"
     width="57.040371" />
</svg>
