{
    "footer": {
        "sourceCode": "الشفرة المصدرية",
        "contentsUnderLicence": "المحتوى تحت رخصة",
        "illustrationsBy": "الرسوم التوضيحية",
        "madeBy": "مِن صُنع مجموعة"
    },
    "service": {
        "other_instances": "مثيلات خوادم أخرى والدليل",
        "create": "انشاء",
        "providedBy": "يوفّره",
        "changeInstance": "تغيير مثيل الخادم",
        "instance": "مثيل الخادم",
        "bin": {
            "placeholder": "انشاء رسالة مشفّرة",
            "title": "مشاركة آمنة للملفات",
            "description": "أداة مشاركة المقتطفات النصية المشفرة من الطرف إلى نهاية الطرف"
        },
        "calc": {
            "placeholder": "اسم جدول البيانات",
            "title": "جدول تشاركي"
        },
        "picture_sharing": {
            "placeholder": "حمّل صورا",
            "title": "مشاركة الصور",
            "description": "مشاركة الصور كمعارض. خدمة سريعة وبدون اشتراك."
        },
        "url_shortener": {
            "placeholder": "اقتصِر رابطا",
            "title": "مُقتصِر الروابط",
            "description": "اختصر روابطك بدون اشتراك."
        },
        "file_sharing": {
            "placeholder": "تحميل الملفات",
            "title": "مشاركة الملفات",
            "description": "شارك الملفات الكبيرة دون الكشف عن هويتك وبدون اشتراك."
        },
        "date": {
            "placeholder": "إنشاء استطلاع رأي",
            "title": "ترتيب موعد",
            "description": "ترتيب موعد أو اتخاذ قرار بسرعة وبكل سهولة."
        },
        "pad": {
            "placeholder": "اسم الپاد",
            "title": "تحرير تشاركي"
        },
        "visio_conf": {
            "placeholder": "اسم الغرفة",
            "description": "المداولة بالفيديو للمجموعات الصغيرة ، بدون اشتراك ، مباشرة في المتصفح.",
            "title": "التداول عبر الفيديو"
        },
        "postit": {
            "title": "لوح للملصقات الورقية",
            "placeholder": "اسم الجدول",
            "description": "اجمع ونظم أفكارك ، واجعل أماكن المشاركة واضحة."
        },
        "optional": "اختياري"
    },
    "navbar": {
        "translate": "ترجِم على ويب لايت",
        "language": "اللغة"
    },
    "home": {
        "description": "خدمات برمجيات حرة من مجموعة CHATONS ، لتحقيق اللامركزية واكتشاف الويب على نطاق بشري ، ومتحد ويحترم خصوصيتك.",
        "more_info": "للمزيد من المعلومات",
        "title": "خدمات حرة عبر الإنترنت"
    }
}
