{
    "home": {
        "title": "Free-software online services",
        "description": "Free-software services from the CHATONS collective, to decentralize and discover a web on a human scale, united and respectful of your privacy.",
        "more_info": "More info"
    },
    "navbar": {
        "language": "Language",
        "translate": "Translate on Weblate"
    },
    "service": {
        "visio_conf": {
            "title": "Video-conference",
            "description": "Video-conference for small groups directly in your browser, no need to register.",
            "placeholder": "Room name"
        },
        "pad": {
            "title": "Collaborative writing",
            "description": "A pad is a real-time collaborative text editor. You can write simultaneously.",
            "placeholder": "Pad name"
        },
        "date": {
            "title": "Find a schedule",
            "description": "Schedule an appointment or make decisions quickly and easily.",
            "placeholder": "Create a survey"
        },
        "file_sharing": {
            "title": "File sharing",
            "description": "Share large files anonymously, no need to register.",
            "placeholder": "Upload files"
        },
        "url_shortener": {
            "title": "Link shortener",
            "description": "Shorten your links without subscribing.",
            "placeholder": "Shorten a link"
        },
        "picture_sharing": {
            "title": "Picture sharing",
            "description": "Share pictures in galleries. Fast, and no need to subscribe.",
            "placeholder": "Upload pictures"
        },
        "calc": {
            "title": "Collaborative spreadsheet",
            "description": "Real time collaborative spreadsheet. You can write simultanously.",
            "placeholder": "Spreadsheet name"
        },
        "postit": {
            "title": "Post-it board",
            "description": "Collect and organize your ideas, make visible the places of involvement.",
            "placeholder": "Board name"
        },
        "slides": {
            "title": "Online presentations",
            "description": "Edit your presentations online",
            "placeholder": "Create a presentation"
        },
        "bin": {
            "title": "Secure text sharing",
            "description": "End-to-end encrypted text snippet sharing tool",
            "placeholder": "Create an encrypted message"
        },
        "instance": "Instance",
        "changeInstance": "Change instance",
        "providedBy": "Provided by",
        "optional": "optional",
        "create": "Create",
        "other_instances": "Other instances and documentation"
    },
    "footer": {
        "madeBy": "Made by the collective group",
        "illustrationsBy": "Illustrations by",
        "contentsUnderLicence": "Contents under Licence",
        "sourceCode": "Source code"
    }
}
