{
    "service": {
        "bin": {
            "description": "Ferramenta de partilha de recorte de textos criptografado de ponta a ponta",
            "placeholder": "Crie uma mensagem criptografada",
            "title": "Partilha segura de textos"
        },
        "other_instances": "Outras instâncias e documentação",
        "create": "Criar",
        "optional": "opcional",
        "providedBy": "Fornecido por",
        "changeInstance": "Mudar de instância",
        "instance": "Instância",
        "slides": {
            "placeholder": "Crie uma apresentação",
            "description": "Edite as suas apresentações conectado na internet",
            "title": "Apresentações online"
        },
        "postit": {
            "placeholder": "Nome do painel",
            "description": "Anote e organize suas ideias, torne visíveis os lugares envolvidos.",
            "title": "Painel de Post-it"
        },
        "calc": {
            "placeholder": "Nome da planilha",
            "description": "Planilhas colaborativas em tempo real. Vocês podem escrever simultaneamente.",
            "title": "Planilhas colaborativas"
        },
        "picture_sharing": {
            "placeholder": "Subir imagens",
            "description": "Partilhe imagens como galerias. Rápido e sem se inscrever.",
            "title": "Partilha de imagens"
        },
        "url_shortener": {
            "placeholder": "Encurte um link",
            "description": "Encurte seus links sem inscrições.",
            "title": "Encurtador de links"
        },
        "file_sharing": {
            "placeholder": "Subir arquivos",
            "description": "Partilhe arquivos grandes anonimamente e sem fazer inscrições .",
            "title": "Partilhe arquivos"
        },
        "date": {
            "placeholder": "Crie uma pesquisa",
            "description": "Agende um compromisso ou tome decisões rapidamente e facilmente.",
            "title": "Agendar"
        },
        "pad": {
            "placeholder": "Nome do Pad",
            "description": "Um pad é um editor de texto em tempo real. Vocês podem escrever simultaneamente.",
            "title": "Redação colaborativa"
        },
        "visio_conf": {
            "placeholder": "Nome da sala",
            "description": "Vídeo conferência para pequenos grupos, sem inscrição, diretamente no seu navegador.",
            "title": "Vídeo conferência"
        }
    },
    "footer": {
        "sourceCode": "Código fonte",
        "contentsUnderLicence": "Conteúdo sob licença",
        "illustrationsBy": "Ilustrações de",
        "madeBy": "Feito pelo grupo coletivo"
    },
    "navbar": {
        "translate": "Traduza no Weblate",
        "language": "Idioma"
    },
    "home": {
        "more_info": "Mais informação",
        "description": "Serviço de Software Livre do coletivo CHATONS, para descentralizar e descobrir a web numa escala humana, solidária e que respeita a sua vida privada.",
        "title": "Serviço de software-livre online"
    }
}
