{
    "nodes": [
        {
            "node": {
                "chaton": "Bastet",
                "type": "Partage temporaire de fichiers (alternative à WeTransfer, DropSend)",
                "software": "Lufi",
                "open": "Ouvert à tou⋅te⋅s sur inscription",
                "weight": "5",
                "consent": "1",
                "degradability": "Jamais",
                "endpoint": "https://transfert.parinux.org/",
                "edit_link": "https://chatons.org/fr/node/3265/edit",
                "chaton_website": "https://bastet.parinux.org"
            }
        },
        {
            "node": {
                "chaton": "Ethibox",
                "type": "Création de schémas et diagrammes (alternative à Visio)",
                "software": "Draw.io",
                "open": "Ouvert à tou⋅te⋅s sans inscription",
                "weight": "5",
                "consent": "1",
                "degradability": "Jamais",
                "endpoint": "https://drawio.ethibox.fr/",
                "edit_link": "https://chatons.org/fr/node/3264/edit",
                "chaton_website": "https://ethibox.fr"
            }
        },
        {
            "node": {
                "chaton": "Simon Vieille",
                "type": "Création de schémas et diagrammes (alternative à Visio)",
                "software": "Draw.io",
                "open": "Ouvert à tou⋅te⋅s sans inscription",
                "weight": "5",
                "consent": "1",
                "degradability": "Jamais",
                "endpoint": "https://draw.deblan.org/",
                "edit_link": "https://chatons.org/fr/node/3262/edit",
                "chaton_website": "https://www.deblan.io/hebergement"
            }
        },
        {
            "node": {
                "chaton": "roflcopter.fr",
                "type": "Création de schémas et diagrammes (alternative à Visio)",
                "software": "Draw.io",
                "open": "Ouvert à tou⋅te⋅s sans inscription",
                "weight": "5",
                "consent": "1",
                "degradability": "Jamais",
                "endpoint": "https://drawio.roflcopter.fr",
                "edit_link": "https://chatons.org/fr/node/3261/edit",
                "chaton_website": "https://roflcopter.fr"
            }
        },
        {
            "node": {
                "chaton": "Association 42l",
                "type": "Création de schémas et diagrammes (alternative à Visio)",
                "software": "Draw.io",
                "open": "Ouvert à tou⋅te⋅s sans inscription",
                "weight": "5",
                "consent": "1",
                "degradability": "Jamais",
                "endpoint": "https://draw.42l.fr/",
                "edit_link": "https://chatons.org/fr/node/3260/edit",
                "chaton_website": "https://42l.fr/"
            }
        },
        {
            "node": {
                "chaton": "Chapril",
                "type": "Transfert de messages chiffrés (alternative à PasteBin)",
                "software": "Privatebin",
                "open": "Ouvert à tou⋅te⋅s sans inscription",
                "weight": "10",
                "consent": "1",
                "degradability": "Jamais",
                "endpoint": "https://paste.chapril.org/",
                "edit_link": "https://chatons.org/fr/node/3255/edit",
                "chaton_website": "https://www.chapril.org/"
            }
        },
        {
            "node": {
                "chaton": "ilinux",
                "type": "Transfert de messages chiffrés (alternative à PasteBin)",
                "software": "Privatebin",
                "open": "Ouvert à tou⋅te⋅s sans inscription",
                "weight": "1",
                "consent": "1",
                "degradability": "Jamais",
                "endpoint": "https://postit.ilinux.fr/",
                "edit_link": "https://chatons.org/fr/node/3249/edit",
                "chaton_website": "https://www.ilinux.fr"
            }
        },
        {
            "node": {
                "chaton": "ilinux",
                "type": "Rédaction collaborative (alternative à Google Docs)",
                "software": "Etherpad",
                "open": "Ouvert à tou⋅te⋅s sans inscription",
                "weight": "1",
                "consent": "1",
                "degradability": "6 mois",
                "endpoint": "https://texte.ilinux.fr/",
                "edit_link": "https://chatons.org/fr/node/3248/edit",
                "chaton_website": "https://www.ilinux.fr"
            }
        },
        {
            "node": {
                "chaton": "Pâquerette",
                "type": "Aide à la prise de rendez-vous (alternative à Doodle)",
                "software": "Framadate",
                "open": "Ouvert à tou⋅te⋅s sans inscription",
                "weight": "5",
                "consent": "1",
                "degradability": "Jamais",
                "endpoint": "https://date.paquerette.eu/",
                "edit_link": "https://chatons.org/fr/node/3245/edit",
                "chaton_website": "https://paquerette.eu"
            }
        },
        {
            "node": {
                "chaton": "Vulpecula",
                "type": "Partage temporaire de fichiers (alternative à WeTransfer, DropSend)",
                "software": "Plik",
                "open": "Ouvert à tou⋅te⋅s sans inscription",
                "weight": "5",
                "consent": "1",
                "degradability": "Jamais",
                "endpoint": "https://plik.vulpecula.fr/",
                "edit_link": "https://chatons.org/fr/node/3244/edit",
                "chaton_website": "https://www.vulpecula.fr/"
            }
        },
        {
            "node": {
                "chaton": "G3L",
                "type": "Visioconférence (alternative à Skype, Hangouts, etc.)",
                "software": "EasyRTC",
                "open": "Ouvert à tou⋅te⋅s sans inscription",
                "weight": "5",
                "consent": "1",
                "degradability": "Jamais",
                "endpoint": "https://visio.g3l.org/",
                "edit_link": "https://chatons.org/fr/node/3243/edit",
                "chaton_website": "https://g3l.org"
            }
        },
        {
            "node": {
                "chaton": "DryCat",
                "type": "Rédaction collaborative (alternative à Google Docs)",
                "software": "Cryptpad",
                "open": "Ouvert à tou⋅te⋅s sans inscription",
                "weight": "5",
                "consent": "1",
                "degradability": "Jamais",
                "endpoint": "https://pad.drycat.fr/",
                "edit_link": "https://chatons.org/fr/node/3242/edit",
                "chaton_website": "http://www.drycat.fr"
            }
        },
        {
            "node": {
                "chaton": "DryCat",
                "type": "Transfert de messages chiffrés (alternative à PasteBin)",
                "software": "Privatebin",
                "open": "Ouvert à tou⋅te⋅s sans inscription",
                "weight": "5",
                "consent": "1",
                "degradability": "Jamais",
                "endpoint": "https://copycat.drycat.fr/",
                "edit_link": "https://chatons.org/fr/node/3241/edit",
                "chaton_website": "http://www.drycat.fr"
            }
        },
        {
            "node": {
                "chaton": "Assodev-Marsnet",
                "type": "Aide à la prise de rendez-vous (alternative à Doodle)",
                "software": "Framadate",
                "open": "Ouvert à tou⋅te⋅s sans inscription",
                "weight": "5",
                "consent": "1",
                "degradability": "Jamais",
                "endpoint": "http://www.marsdate.org/",
                "edit_link": "https://chatons.org/fr/node/3240/edit",
                "chaton_website": "http://www.marsnet.org"
            }
        },
        {
            "node": {
                "chaton": "Le Retzien Libre",
                "type": "Partage temporaire de fichiers (alternative à WeTransfer, DropSend)",
                "software": "Filetolink",
                "open": "Ouvert à tou⋅te⋅s sans inscription",
                "weight": "5",
                "consent": "1",
                "degradability": "Jamais",
                "endpoint": "https://f2l.retzien.fr/",
                "edit_link": "https://chatons.org/fr/node/3239/edit",
                "chaton_website": "https://retzien.fr"
            }
        },
        {
            "node": {
                "chaton": "Tedomum",
                "type": "Stockage/partage d'images (alternative à Img.ur)",
                "software": "Lutim",
                "open": "Ouvert à tou⋅te⋅s sans inscription",
                "weight": "5",
                "consent": "1",
                "degradability": "Jamais",
                "endpoint": "https://img.tedomum.net/",
                "edit_link": "https://chatons.org/fr/node/3238/edit",
                "chaton_website": "https://tedomum.net/"
            }
        },
        {
            "node": {
                "chaton": "Chapril",
                "type": "Partage temporaire de fichiers (alternative à WeTransfer, DropSend)",
                "software": "FirefoxSend",
                "open": "Ouvert à tou⋅te⋅s sans inscription",
                "weight": "10",
                "consent": "1",
                "degradability": "Jamais",
                "endpoint": "https://drop.chapril.org/",
                "edit_link": "https://chatons.org/fr/node/3236/edit",
                "chaton_website": "https://www.chapril.org/"
            }
        },
        {
            "node": {
                "chaton": "Zici.fr",
                "type": "Raccourcisseur d'URL (alternative à Bit.ly, tinyurl, etc.)",
                "software": "Polr",
                "open": "Ouvert à tou⋅te⋅s sans inscription",
                "weight": "5",
                "consent": "1",
                "degradability": "Jamais",
                "endpoint": "http://url.zici.fr/",
                "edit_link": "https://chatons.org/fr/node/3235/edit",
                "chaton_website": "http://hebergement.zici.fr/"
            }
        },
        {
            "node": {
                "chaton": "Zici.fr",
                "type": "Transfert de messages chiffrés (alternative à PasteBin)",
                "software": "Privatebin",
                "open": "Ouvert à tou⋅te⋅s sans inscription",
                "weight": "2",
                "consent": "1",
                "degradability": "Jamais",
                "endpoint": "https://pastebin.zici.fr/",
                "edit_link": "https://chatons.org/fr/node/3234/edit",
                "chaton_website": "http://hebergement.zici.fr/"
            }
        },
        {
            "node": {
                "chaton": "Zici.fr",
                "type": "Partage temporaire de fichiers (alternative à WeTransfer, DropSend)",
                "software": "Filetolink",
                "open": "Ouvert à tou⋅te⋅s sans inscription",
                "weight": "5",
                "consent": "1",
                "degradability": "Jamais",
                "endpoint": "https://dl.zici.fr/",
                "edit_link": "https://chatons.org/fr/node/3233/edit",
                "chaton_website": "http://hebergement.zici.fr/"
            }
        },
        {
            "node": {
                "chaton": "Nomagic",
                "type": "Aide à la prise de rendez-vous (alternative à Doodle)",
                "software": "Framadate",
                "open": "Ouvert à tou⋅te⋅s sans inscription",
                "weight": "5",
                "consent": "1",
                "degradability": "Jamais",
                "endpoint": "https://framadate.nomagic.uk/",
                "edit_link": "https://chatons.org/fr/node/3232/edit",
                "chaton_website": "https://www.nomagic.uk"
            }
        },
        {
            "node": {
                "chaton": "Nomagic",
                "type": "Transfert de messages chiffrés (alternative à PasteBin)",
                "software": "Privatebin",
                "open": "Ouvert à tou⋅te⋅s sans inscription",
                "weight": "5",
                "consent": "1",
                "degradability": "Jamais",
                "endpoint": "https://paste.nomagic.uk/",
                "edit_link": "https://chatons.org/fr/node/3231/edit",
                "chaton_website": "https://www.nomagic.uk"
            }
        },
        {
            "node": {
                "chaton": "Simon Vieille",
                "type": "Transfert de messages chiffrés (alternative à PasteBin)",
                "software": "Privatebin",
                "open": "Ouvert à tou⋅te⋅s sans inscription",
                "weight": "5",
                "consent": "1",
                "degradability": "Jamais",
                "endpoint": "https://privatebin.deblan.org/",
                "edit_link": "https://chatons.org/fr/node/3230/edit",
                "chaton_website": "https://www.deblan.io/hebergement"
            }
        },
        {
            "node": {
                "chaton": "roflcopter.fr",
                "type": "Transfert de messages chiffrés (alternative à PasteBin)",
                "software": "Privatebin",
                "open": "Ouvert à tou⋅te⋅s sans inscription",
                "weight": "5",
                "consent": "1",
                "degradability": "Jamais",
                "endpoint": "https://wtf.roflcopter.fr/paste/",
                "edit_link": "https://chatons.org/fr/node/3229/edit",
                "chaton_website": "https://roflcopter.fr"
            }
        },
        {
            "node": {
                "chaton": "Infini",
                "type": "Transfert de messages chiffrés (alternative à PasteBin)",
                "software": "Privatebin",
                "open": "Ouvert à tou⋅te⋅s sans inscription",
                "weight": "5",
                "consent": "1",
                "degradability": "Jamais",
                "endpoint": "https://bin.infini.fr/",
                "edit_link": "https://chatons.org/fr/node/3228/edit",
                "chaton_website": "https://www.infini.fr"
            }
        },
        {
            "node": {
                "chaton": "Infini",
                "type": "Aide à la prise de rendez-vous (alternative à Doodle)",
                "software": "Framadate",
                "open": "Ouvert à tou⋅te⋅s sans inscription",
                "weight": "5",
                "consent": "1",
                "degradability": "Jamais",
                "endpoint": "https://date.infini.fr/",
                "edit_link": "https://chatons.org/fr/node/3227/edit",
                "chaton_website": "https://www.infini.fr"
            }
        },
        {
            "node": {
                "chaton": "Alolise",
                "type": "Transfert de messages chiffrés (alternative à PasteBin)",
                "software": "Privatebin",
                "open": "Ouvert à tou⋅te⋅s sans inscription",
                "weight": "5",
                "consent": "1",
                "degradability": "Jamais",
                "endpoint": "https://pastebin.alolise.org/",
                "edit_link": "https://chatons.org/fr/node/3226/edit",
                "chaton_website": "https://www.alolise.org"
            }
        },
        {
            "node": {
                "chaton": "Framasoft",
                "type": "Transfert de messages chiffrés (alternative à PasteBin)",
                "software": "Privatebin",
                "open": "Ouvert à tou⋅te⋅s sans inscription",
                "weight": "5",
                "consent": "1",
                "degradability": "Jamais",
                "endpoint": "https://framabin.org/",
                "edit_link": "https://chatons.org/fr/node/3225/edit",
                "chaton_website": "https://framasoft.org"
            }
        },
        {
            "node": {
                "chaton": "Le Samarien",
                "type": "Aide à la prise de rendez-vous (alternative à Doodle)",
                "software": "Framadate",
                "open": "Ouvert à tou⋅te⋅s sans inscription",
                "weight": "5",
                "consent": "1",
                "degradability": "Jamais",
                "endpoint": "https://sondage.lesamarien.fr/",
                "edit_link": "https://chatons.org/fr/node/3224/edit",
                "chaton_website": "https://www.lesamarien.fr"
            }
        },
        {
            "node": {
                "chaton": "Le Samarien",
                "type": "Raccourcisseur d'URL (alternative à Bit.ly, tinyurl, etc.)",
                "software": "LSTU",
                "open": "Ouvert à tou⋅te⋅s sans inscription",
                "weight": "5",
                "consent": "1",
                "degradability": "Jamais",
                "endpoint": "https://url.lesamarien.fr/",
                "edit_link": "https://chatons.org/fr/node/3223/edit",
                "chaton_website": "https://www.lesamarien.fr"
            }
        },
        {
            "node": {
                "chaton": "Le Samarien",
                "type": "Stockage/partage d'images (alternative à Img.ur)",
                "software": "Lutim",
                "open": "Ouvert à tou⋅te⋅s sans inscription",
                "weight": "5",
                "consent": "1",
                "degradability": "Jamais",
                "endpoint": "https://img.lesamarien.fr/lutim",
                "edit_link": "https://chatons.org/fr/node/3222/edit",
                "chaton_website": "https://www.lesamarien.fr"
            }
        },
        {
            "node": {
                "chaton": "Le Samarien",
                "type": "Transfert de messages chiffrés (alternative à PasteBin)",
                "software": "Privatebin",
                "open": "Ouvert à tou⋅te⋅s sans inscription",
                "weight": "5",
                "consent": "1",
                "degradability": "Jamais",
                "endpoint": "https://bin.lesamarien.fr/",
                "edit_link": "https://chatons.org/fr/node/3221/edit",
                "chaton_website": "https://www.lesamarien.fr"
            }
        },
        {
            "node": {
                "chaton": "ilinux",
                "type": "Transfert de messages chiffrés (alternative à PasteBin)",
                "software": "Privatebin",
                "open": "Ouvert à tou⋅te⋅s sans inscription",
                "weight": "5",
                "consent": "1",
                "degradability": "Jamais",
                "endpoint": "https://postit.ilinux.fr/",
                "edit_link": "https://chatons.org/fr/node/3220/edit",
                "chaton_website": "https://www.ilinux.fr"
            }
        },
        {
            "node": {
                "chaton": "UNDERWORLD",
                "type": "Transfert de messages chiffrés (alternative à PasteBin)",
                "software": "Privatebin",
                "open": "Ouvert à tou⋅te⋅s sans inscription",
                "weight": "5",
                "consent": "1",
                "degradability": "Jamais",
                "endpoint": "https://paste.underworld.fr/",
                "edit_link": "https://chatons.org/fr/node/3219/edit",
                "chaton_website": "https://www.underworld.fr/"
            }
        },
        {
            "node": {
                "chaton": "UNDERWORLD",
                "type": "Visioconférence (alternative à Skype, Hangouts, etc.)",
                "software": "Jitsi Meet",
                "open": "Ouvert à tou⋅te⋅s sans inscription",
                "weight": "5",
                "consent": "1",
                "degradability": "Jamais",
                "endpoint": "https://conf.underworld.fr/",
                "edit_link": "https://chatons.org/fr/node/3218/edit",
                "chaton_website": "https://www.underworld.fr/"
            }
        },
        {
            "node": {
                "chaton": "Siick's services",
                "type": "Chat IRC ou Jabber (alternative à MSN)",
                "software": "MyCryptoChat",
                "open": "Ouvert à tou⋅te⋅s sans inscription",
                "weight": "5",
                "consent": "1",
                "degradability": "Jamais",
                "endpoint": "https://chat.siick.fr/",
                "edit_link": "https://chatons.org/fr/node/3217/edit",
                "chaton_website": "https://services.siick.fr/"
            }
        },
        {
            "node": {
                "chaton": "Siick's services",
                "type": "Raccourcisseur d'URL (alternative à Bit.ly, tinyurl, etc.)",
                "software": "Polr",
                "open": "Ouvert à tou⋅te⋅s sans inscription",
                "weight": "5",
                "consent": "1",
                "degradability": "Jamais",
                "endpoint": "https://link.siick.fr/",
                "edit_link": "https://chatons.org/fr/node/3216/edit",
                "chaton_website": "https://services.siick.fr/"
            }
        },
        {
            "node": {
                "chaton": "Siick's services",
                "type": "Transfert de messages chiffrés (alternative à PasteBin)",
                "software": "Privatebin",
                "open": "Ouvert à tou⋅te⋅s sans inscription",
                "weight": "1",
                "consent": "1",
                "degradability": "Jamais",
                "endpoint": "https://bin.siick.fr/",
                "edit_link": "https://chatons.org/fr/node/3215/edit",
                "chaton_website": "https://services.siick.fr/"
            }
        },
        {
            "node": {
                "chaton": "Sans-nuage.fr - ARN",
                "type": "Rédaction collaborative (alternative à Google Docs)",
                "software": "Libreto",
                "open": "Ouvert à tou⋅te⋅s sans inscription",
                "weight": "5",
                "consent": "1",
                "degradability": "Jamais",
                "endpoint": "https://libreto.sans-nuage.fr/",
                "edit_link": "https://chatons.org/fr/node/3214/edit",
                "chaton_website": "https://www.arn-fai.net"
            }
        },
        {
            "node": {
                "chaton": "Hadoly",
                "type": "Transfert de messages chiffrés (alternative à PasteBin)",
                "software": "Privatebin",
                "open": "Ouvert à tou⋅te⋅s sans inscription",
                "weight": "5",
                "consent": "1",
                "degradability": "Jamais",
                "endpoint": "https://postit.hadoly.fr/",
                "edit_link": "https://chatons.org/fr/node/3213/edit",
                "chaton_website": "https://hadoly.fr"
            }
        },
        {
            "node": {
                "chaton": "3hg",
                "type": "Chat IRC ou Jabber (alternative à MSN)",
                "software": "MyCryptoChat",
                "open": "Ouvert à tou⋅te⋅s sans inscription",
                "weight": "5",
                "consent": "1",
                "degradability": "Jamais",
                "endpoint": "https://3hg.fr/CHATONS/Salons/",
                "edit_link": "https://chatons.org/fr/node/3212/edit",
                "chaton_website": "https://3hg.fr"
            }
        },
        {
            "node": {
                "chaton": "3hg",
                "type": "Transfert de messages chiffrés (alternative à PasteBin)",
                "software": "Privatebin",
                "open": "Ouvert à tou⋅te⋅s sans inscription",
                "weight": "5",
                "consent": "1",
                "degradability": "Jamais",
                "endpoint": "https://3hg.fr/CHATONS/Pastebin/",
                "edit_link": "https://chatons.org/fr/node/3211/edit",
                "chaton_website": "https://3hg.fr"
            }
        },
        {
            "node": {
                "chaton": "Alolise",
                "type": "Chat IRC ou Jabber (alternative à MSN)",
                "software": "Darkwire.io",
                "open": "Ouvert à tou⋅te⋅s sans inscription",
                "weight": "5",
                "consent": "1",
                "degradability": "Jamais",
                "endpoint": "https://chat.alolise.org/",
                "edit_link": "https://chatons.org/fr/node/3210/edit",
                "chaton_website": "https://www.alolise.org"
            }
        },
        {
            "node": {
                "chaton": "GeekInfo",
                "type": "Visioconférence (alternative à Skype, Hangouts, etc.)",
                "software": "Jitsi Meet",
                "open": "Ouvert à tou⋅te⋅s sans inscription",
                "weight": "5",
                "consent": "1",
                "degradability": "Jamais",
                "endpoint": "https://jitsi.geekinfo.fr",
                "edit_link": "https://chatons.org/fr/node/3209/edit",
                "chaton_website": "https://www.geekinfo.fr"
            }
        },
        {
            "node": {
                "chaton": "Siick's services",
                "type": "Rédaction collaborative (alternative à Google Docs)",
                "software": "Etherpad",
                "open": "Ouvert à tou⋅te⋅s sans inscription",
                "weight": "1",
                "consent": "1",
                "degradability": "Jamais",
                "endpoint": "https://pad.siick.fr",
                "edit_link": "https://chatons.org/fr/node/3208/edit",
                "chaton_website": "https://services.siick.fr/"
            }
        },
        {
            "node": {
                "chaton": "Sans-nuage.fr - ARN",
                "type": "Présentation collaborative (alternative à Google Drive)",
                "software": "Strut",
                "open": "Ouvert à tou⋅te⋅s sans inscription",
                "weight": "5",
                "consent": "1",
                "degradability": "Jamais",
                "endpoint": "https://slide.sans-nuage.fr/",
                "edit_link": "https://chatons.org/fr/node/3207/edit",
                "chaton_website": "https://www.arn-fai.net"
            }
        },
        {
            "node": {
                "chaton": "Bastet",
                "type": "Tableau blanc collaboratif (alternative à Stoodle)",
                "software": "Scrumblr",
                "open": "Ouvert à tou⋅te⋅s sans inscription",
                "weight": "5",
                "consent": "1",
                "degradability": "Jamais",
                "endpoint": "https://notes.parinux.org/",
                "edit_link": "https://chatons.org/fr/node/3206/edit",
                "chaton_website": "https://bastet.parinux.org"
            }
        },
        {
            "node": {
                "chaton": "Nomagic",
                "type": "Stockage/partage d'images (alternative à Img.ur)",
                "software": "Lutim",
                "open": "Ouvert à tou⋅te⋅s sans inscription",
                "weight": "5",
                "consent": "1",
                "degradability": "Jamais",
                "endpoint": "https://pic.nomagic.uk/",
                "edit_link": "https://chatons.org/fr/node/3205/edit",
                "chaton_website": "https://www.nomagic.uk"
            }
        },
        {
            "node": {
                "chaton": "roflcopter.fr",
                "type": "Stockage/partage d'images (alternative à Img.ur)",
                "software": "Lutim",
                "open": "Ouvert à tou⋅te⋅s sans inscription",
                "weight": "5",
                "consent": "1",
                "degradability": "Jamais",
                "endpoint": "https://wtf.roflcopter.fr/pics/",
                "edit_link": "https://chatons.org/fr/node/3204/edit",
                "chaton_website": "https://roflcopter.fr"
            }
        },
        {
            "node": {
                "chaton": "Nomagic",
                "type": "Tableur collaboratif (alternative à Google Sheets)",
                "software": "Ethercalc",
                "open": "Ouvert à tou⋅te⋅s sans inscription",
                "weight": "5",
                "consent": "1",
                "degradability": "Jamais",
                "endpoint": "https://ethercalc.nomagic.uk/",
                "edit_link": "https://chatons.org/fr/node/3203/edit",
                "chaton_website": "https://www.nomagic.uk"
            }
        },
        {
            "node": {
                "chaton": "Domaine Public",
                "type": "Tableur collaboratif (alternative à Google Sheets)",
                "software": "Ethercalc",
                "open": "Ouvert à tou⋅te⋅s sans inscription",
                "weight": "5",
                "consent": "1",
                "degradability": "Jamais",
                "endpoint": "https://calc.domainepublic.net/",
                "edit_link": "https://chatons.org/fr/node/3202/edit",
                "chaton_website": "http://www.domainepublic.net"
            }
        },
        {
            "node": {
                "chaton": "Framasoft",
                "type": "Tableur collaboratif (alternative à Google Sheets)",
                "software": "Ethercalc",
                "open": "Ouvert à tou⋅te⋅s sans inscription",
                "weight": "5",
                "consent": "1",
                "degradability": "Jamais",
                "endpoint": "https://lite.framacalc.org/",
                "edit_link": "https://chatons.org/fr/node/3201/edit",
                "chaton_website": "https://framasoft.org"
            }
        },
        {
            "node": {
                "chaton": "Framasoft",
                "type": "Stockage/partage d'images (alternative à Img.ur)",
                "software": "Lutim",
                "open": "Ouvert à tou⋅te⋅s sans inscription",
                "weight": "5",
                "consent": "1",
                "degradability": "Jamais",
                "endpoint": "https://framapic.org/",
                "edit_link": "https://chatons.org/fr/node/3200/edit",
                "chaton_website": "https://framasoft.org"
            }
        },
        {
            "node": {
                "chaton": "Infini",
                "type": "Stockage/partage d'images (alternative à Img.ur)",
                "software": "Lutim",
                "open": "Ouvert à tou⋅te⋅s sans inscription",
                "weight": "5",
                "consent": "1",
                "degradability": "Jamais",
                "endpoint": "https://pic.infini.fr/",
                "edit_link": "https://chatons.org/fr/node/3199/edit",
                "chaton_website": "https://www.infini.fr"
            }
        },
        {
            "node": {
                "chaton": "DryCat",
                "type": "Stockage/partage d'images (alternative à Img.ur)",
                "software": "Lutim",
                "open": "Ouvert à tou⋅te⋅s sans inscription",
                "weight": "5",
                "consent": "1",
                "degradability": "Jamais",
                "endpoint": "https://picat.drycat.fr/",
                "edit_link": "https://chatons.org/fr/node/3198/edit",
                "chaton_website": "http://www.drycat.fr"
            }
        },
        {
            "node": {
                "chaton": "devloprog",
                "type": "Tableau blanc collaboratif (alternative à Stoodle)",
                "software": "Scrumblr",
                "open": "Ouvert à tou⋅te⋅s sans inscription",
                "weight": "5",
                "consent": "1",
                "degradability": "Jamais",
                "endpoint": "https://postit.devloprog.org/",
                "edit_link": "https://chatons.org/fr/node/3197/edit",
                "chaton_website": "https://www.devloprog.org"
            }
        },
        {
            "node": {
                "chaton": "Ethibox",
                "type": "Tableau blanc collaboratif (alternative à Stoodle)",
                "software": "Scrumblr",
                "open": "Ouvert à tou⋅te⋅s sans inscription",
                "weight": "5",
                "consent": "1",
                "degradability": "Jamais",
                "endpoint": "https://scrumblr.ethibox.fr/",
                "edit_link": "https://chatons.org/fr/node/3196/edit",
                "chaton_website": "https://ethibox.fr"
            }
        },
        {
            "node": {
                "chaton": "Framasoft",
                "type": "Tableau blanc collaboratif (alternative à Stoodle)",
                "software": "Scrumblr",
                "open": "Ouvert à tou⋅te⋅s sans inscription",
                "weight": "5",
                "consent": "1",
                "degradability": "Jamais",
                "endpoint": "https://framemo.org/",
                "edit_link": "https://chatons.org/fr/node/3195/edit",
                "chaton_website": "https://framasoft.org"
            }
        },
        {
            "node": {
                "chaton": "Colibris Outils Libres",
                "type": "Tableau blanc collaboratif (alternative à Stoodle)",
                "software": "Scrumblr",
                "open": "Ouvert à tou⋅te⋅s sans inscription",
                "weight": "10",
                "consent": "1",
                "degradability": "Jamais",
                "endpoint": "https://postit.colibris-outilslibres.org/",
                "edit_link": "https://chatons.org/fr/node/3194/edit",
                "chaton_website": "https://www.colibris-outilslibres.org/"
            }
        },
        {
            "node": {
                "chaton": "FACiL",
                "type": "Visioconférence (alternative à Skype, Hangouts, etc.)",
                "software": "Jitsi Meet",
                "open": "Ouvert à tou⋅te⋅s sans inscription",
                "weight": "5",
                "consent": "1",
                "degradability": "Jamais",
                "endpoint": "https://appels.dev.facil.services/",
                "edit_link": "https://chatons.org/fr/node/3193/edit",
                "chaton_website": "https://facil.qc.ca"
            }
        },
        {
            "node": {
                "chaton": "Le Retzien Libre",
                "type": "Aide à la prise de rendez-vous (alternative à Doodle)",
                "software": "Framadate",
                "open": "Ouvert à tou⋅te⋅s sans inscription",
                "weight": "5",
                "consent": "1",
                "degradability": "Jamais",
                "endpoint": "https://sondage.retzien.fr",
                "edit_link": "https://chatons.org/fr/node/3192/edit",
                "chaton_website": "https://retzien.fr"
            }
        },
        {
            "node": {
                "chaton": "ImmaeEu",
                "type": "Rédaction collaborative (alternative à Google Docs)",
                "software": "Etherpad",
                "open": "Ouvert à tou⋅te⋅s sans inscription",
                "weight": "5",
                "consent": "1",
                "degradability": "Jamais",
                "endpoint": "https://ether.immae.eu/",
                "edit_link": "https://chatons.org/fr/node/3191/edit",
                "chaton_website": "https://www.immae.eu"
            }
        },
        {
            "node": {
                "chaton": "Ethibox",
                "type": "Partage temporaire de fichiers (alternative à WeTransfer, DropSend)",
                "software": "Lufi",
                "open": "Ouvert à tou⋅te⋅s sans inscription",
                "weight": "5",
                "consent": "1",
                "degradability": "Jamais",
                "endpoint": "https://lufi.ethibox.fr/",
                "edit_link": "https://chatons.org/fr/node/3189/edit",
                "chaton_website": "https://ethibox.fr"
            }
        },
        {
            "node": {
                "chaton": "UNDERWORLD",
                "type": "Partage temporaire de fichiers (alternative à WeTransfer, DropSend)",
                "software": "Lufi",
                "open": "Ouvert à tou⋅te⋅s sans inscription",
                "weight": "5",
                "consent": "1",
                "degradability": "Jamais",
                "endpoint": "https://drop.underworld.fr/",
                "edit_link": "https://chatons.org/fr/node/3188/edit",
                "chaton_website": "https://www.underworld.fr/"
            }
        },
        {
            "node": {
                "chaton": "Le Samarien",
                "type": "Partage temporaire de fichiers (alternative à WeTransfer, DropSend)",
                "software": "Lufi",
                "open": "Ouvert à tou⋅te⋅s sans inscription",
                "weight": "5",
                "consent": "1",
                "degradability": "Jamais",
                "endpoint": "https://file.lesamarien.fr/lufi/",
                "edit_link": "https://chatons.org/fr/node/3187/edit",
                "chaton_website": "https://www.lesamarien.fr"
            }
        },
        {
            "node": {
                "chaton": "Infini",
                "type": "Partage temporaire de fichiers (alternative à WeTransfer, DropSend)",
                "software": "Lufi",
                "open": "Ouvert à tou⋅te⋅s sans inscription",
                "weight": "5",
                "consent": "1",
                "degradability": "Jamais",
                "endpoint": "https://drop.infini.fr/",
                "edit_link": "https://chatons.org/fr/node/3186/edit",
                "chaton_website": "https://www.infini.fr"
            }
        },
        {
            "node": {
                "chaton": "Framasoft",
                "type": "Partage temporaire de fichiers (alternative à WeTransfer, DropSend)",
                "software": "Lufi",
                "open": "Ouvert à tou⋅te⋅s sans inscription",
                "weight": "5",
                "consent": "1",
                "degradability": "Jamais",
                "endpoint": "https://framadrop.org/",
                "edit_link": "https://chatons.org/fr/node/3185/edit",
                "chaton_website": "https://framasoft.org"
            }
        },
        {
            "node": {
                "chaton": "DryCat",
                "type": "Partage temporaire de fichiers (alternative à WeTransfer, DropSend)",
                "software": "Lufi",
                "open": "Ouvert à tou⋅te⋅s sans inscription",
                "weight": "5",
                "consent": "1",
                "degradability": "Jamais",
                "endpoint": "https://catdrop.drycat.fr/",
                "edit_link": "https://chatons.org/fr/node/3184/edit",
                "chaton_website": "http://www.drycat.fr"
            }
        },
        {
            "node": {
                "chaton": "Sans-nuage.fr - ARN",
                "type": "Partage temporaire de fichiers (alternative à WeTransfer, DropSend)",
                "software": "Lufi",
                "open": "Ouvert à tou⋅te⋅s sans inscription",
                "weight": "0",
                "consent": "1",
                "degradability": "Jamais",
                "endpoint": "https://hub.netlib.re/lufi",
                "edit_link": "https://chatons.org/fr/node/3183/edit",
                "chaton_website": "https://www.arn-fai.net"
            }
        },
        {
            "node": {
                "chaton": "Alolise",
                "type": "Partage temporaire de fichiers (alternative à WeTransfer, DropSend)",
                "software": "Lufi",
                "open": "Ouvert à tou⋅te⋅s sans inscription",
                "weight": "5",
                "consent": "1",
                "degradability": "Jamais",
                "endpoint": "https://lufi.alolise.org/",
                "edit_link": "https://chatons.org/fr/node/3182/edit",
                "chaton_website": "https://www.alolise.org"
            }
        },
        {
            "node": {
                "chaton": "Simon Vieille",
                "type": "Aide à la prise de rendez-vous (alternative à Doodle)",
                "software": "Framadate",
                "open": "Ouvert à tou⋅te⋅s sans inscription",
                "weight": "5",
                "consent": "1",
                "degradability": "Jamais",
                "endpoint": "https://sondage.deblan.org/",
                "edit_link": "https://chatons.org/fr/node/3181/edit",
                "chaton_website": "https://www.deblan.io/hebergement"
            }
        },
        {
            "node": {
                "chaton": "Bastet",
                "type": "Aide à la prise de rendez-vous (alternative à Doodle)",
                "software": "Framadate",
                "open": "Ouvert à tou⋅te⋅s sans inscription",
                "weight": "5",
                "consent": "1",
                "degradability": "Jamais",
                "endpoint": "https://date.parinux.org/",
                "edit_link": "https://chatons.org/fr/node/3180/edit",
                "chaton_website": "https://bastet.parinux.org"
            }
        },
        {
            "node": {
                "chaton": "SVNET Libre",
                "type": "Aide à la prise de rendez-vous (alternative à Doodle)",
                "software": "Framadate",
                "open": "Ouvert à tou⋅te⋅s sans inscription",
                "weight": "5",
                "consent": "1",
                "degradability": "Jamais",
                "endpoint": "https://www.weblib.re/date/",
                "edit_link": "https://chatons.org/fr/node/3179/edit",
                "chaton_website": "https://www.svnet.fr"
            }
        },
        {
            "node": {
                "chaton": "Colibris Outils Libres",
                "type": "Aide à la prise de rendez-vous (alternative à Doodle)",
                "software": "Framadate",
                "open": "Ouvert à tou⋅te⋅s sans inscription",
                "weight": "10",
                "consent": "1",
                "degradability": "Jamais",
                "endpoint": "https://date.colibris-outilslibres.org/",
                "edit_link": "https://chatons.org/fr/node/3178/edit",
                "chaton_website": "https://www.colibris-outilslibres.org/"
            }
        },
        {
            "node": {
                "chaton": "Chapril",
                "type": "Aide à la prise de rendez-vous (alternative à Doodle)",
                "software": "Framadate",
                "open": "Ouvert à tou⋅te⋅s sans inscription",
                "weight": "10",
                "consent": "1",
                "degradability": "Jamais",
                "endpoint": "https://date.chapril.org/",
                "edit_link": "https://chatons.org/fr/node/3177/edit",
                "chaton_website": "https://www.chapril.org/"
            }
        },
        {
            "node": {
                "chaton": "Zici.fr",
                "type": "Aide à la prise de rendez-vous (alternative à Doodle)",
                "software": "Framadate",
                "open": "Ouvert à tou⋅te⋅s sans inscription",
                "weight": "3",
                "consent": "1",
                "degradability": "Jamais",
                "endpoint": "https://rdv.zici.fr/",
                "edit_link": "https://chatons.org/fr/node/3176/edit",
                "chaton_website": "http://hebergement.zici.fr/"
            }
        },
        {
            "node": {
                "chaton": "roflcopter.fr",
                "type": "Aide à la prise de rendez-vous (alternative à Doodle)",
                "software": "Framadate",
                "open": "Ouvert à tou⋅te⋅s sans inscription",
                "weight": "8",
                "consent": "1",
                "degradability": "Jamais",
                "endpoint": "https://wtf.roflcopter.fr/framadate",
                "edit_link": "https://chatons.org/fr/node/3175/edit",
                "chaton_website": "https://roflcopter.fr"
            }
        },
        {
            "node": {
                "chaton": "FACiL",
                "type": "Aide à la prise de rendez-vous (alternative à Doodle)",
                "software": "Framadate",
                "open": "Ouvert à tou⋅te⋅s sans inscription",
                "weight": "5",
                "consent": "1",
                "degradability": "Jamais",
                "endpoint": "https://date.facil.services/",
                "edit_link": "https://chatons.org/fr/node/3174/edit",
                "chaton_website": "https://facil.qc.ca"
            }
        },
        {
            "node": {
                "chaton": "garluche",
                "type": "Aide à la prise de rendez-vous (alternative à Doodle)",
                "software": "Framadate",
                "open": "Ouvert à tou⋅te⋅s sans inscription",
                "weight": "5",
                "consent": "1",
                "degradability": "Jamais",
                "endpoint": "https://oc.garluche.fr/sondage/",
                "edit_link": "https://chatons.org/fr/node/3173/edit",
                "chaton_website": "http://garluche.fr"
            }
        },
        {
            "node": {
                "chaton": "Alolise",
                "type": "Aide à la prise de rendez-vous (alternative à Doodle)",
                "software": "Framadate",
                "open": "Ouvert à tou⋅te⋅s sans inscription",
                "weight": "5",
                "consent": "1",
                "degradability": "Jamais",
                "endpoint": "https://framadate.alolise.org/",
                "edit_link": "https://chatons.org/fr/node/3172/edit",
                "chaton_website": "https://www.alolise.org"
            }
        },
        {
            "node": {
                "chaton": "Sans-nuage.fr - ARN",
                "type": "Aide à la prise de rendez-vous (alternative à Doodle)",
                "software": "Framadate",
                "open": "Ouvert à tou⋅te⋅s sans inscription",
                "weight": "5",
                "consent": "1",
                "degradability": "Jamais",
                "endpoint": "https://sondage.sans-nuage.fr/date",
                "edit_link": "https://chatons.org/fr/node/3171/edit",
                "chaton_website": "https://www.arn-fai.net"
            }
        },
        {
            "node": {
                "chaton": "Siick's services",
                "type": "Aide à la prise de rendez-vous (alternative à Doodle)",
                "software": "Framadate",
                "open": "Ouvert à tou⋅te⋅s sans inscription",
                "weight": "1",
                "consent": "1",
                "degradability": "Jamais",
                "endpoint": "https://date.siick.fr/date/",
                "edit_link": "https://chatons.org/fr/node/3170/edit",
                "chaton_website": "https://services.siick.fr/"
            }
        },
        {
            "node": {
                "chaton": "Framasoft",
                "type": "Raccourcisseur d'URL (alternative à Bit.ly, tinyurl, etc.)",
                "software": "LSTU",
                "open": "Ouvert à tou⋅te⋅s sans inscription",
                "weight": "5",
                "consent": "1",
                "degradability": "Jamais",
                "endpoint": "https://frama.link/",
                "edit_link": "https://chatons.org/fr/node/3169/edit",
                "chaton_website": "https://framasoft.org"
            }
        },
        {
            "node": {
                "chaton": "Colibris Outils Libres",
                "type": "Raccourcisseur d'URL (alternative à Bit.ly, tinyurl, etc.)",
                "software": "Polr",
                "open": "Ouvert à tou⋅te⋅s sans inscription",
                "weight": "5",
                "consent": "1",
                "degradability": "Jamais",
                "endpoint": "https://colibris.link/",
                "edit_link": "https://chatons.org/fr/node/3168/edit",
                "chaton_website": "https://www.colibris-outilslibres.org/"
            }
        },
        {
            "node": {
                "chaton": "Infini",
                "type": "Raccourcisseur d'URL (alternative à Bit.ly, tinyurl, etc.)",
                "software": "LSTU",
                "open": "Ouvert à tou⋅te⋅s sans inscription",
                "weight": "5",
                "consent": "1",
                "degradability": "Jamais",
                "endpoint": "https://link.infini.fr/",
                "edit_link": "https://chatons.org/fr/node/3167/edit",
                "chaton_website": "https://www.infini.fr"
            }
        },
        {
            "node": {
                "chaton": "Association 42l",
                "type": "Raccourcisseur d'URL (alternative à Bit.ly, tinyurl, etc.)",
                "software": "rs-short",
                "open": "Ouvert à tou⋅te⋅s sans inscription",
                "weight": "5",
                "consent": "1",
                "degradability": "Jamais",
                "endpoint": "https://s.42l.fr/",
                "edit_link": "https://chatons.org/fr/node/3166/edit",
                "chaton_website": "https://42l.fr/"
            }
        },
        {
            "node": {
                "chaton": "Framasoft",
                "type": "Rédaction collaborative (alternative à Google Docs)",
                "software": "Etherpad",
                "open": "Ouvert à tou⋅te⋅s sans inscription",
                "weight": "5",
                "consent": "1",
                "degradability": "12 mois",
                "endpoint": "https://framapad.org/",
                "edit_link": "https://chatons.org/fr/node/3165/edit",
                "chaton_website": "https://framasoft.org"
            }
        },
        {
            "node": {
                "chaton": "Bastet",
                "type": "Rédaction collaborative (alternative à Google Docs)",
                "software": "Etherpad",
                "open": "Ouvert à tou⋅te⋅s sans inscription",
                "weight": "5",
                "consent": "1",
                "degradability": "Jamais",
                "endpoint": "https://bn.parinux.org",
                "edit_link": "https://chatons.org/fr/node/3164/edit",
                "chaton_website": "https://bastet.parinux.org"
            }
        },
        {
            "node": {
                "chaton": "roflcopter.fr",
                "type": "Rédaction collaborative (alternative à Google Docs)",
                "software": "Etherpad",
                "open": "Ouvert à tou⋅te⋅s sans inscription",
                "weight": "5",
                "consent": "1",
                "degradability": "Jamais",
                "endpoint": "https://pad.roflcopter.fr/",
                "edit_link": "https://chatons.org/fr/node/3163/edit",
                "chaton_website": "https://roflcopter.fr"
            }
        },
        {
            "node": {
                "chaton": "SVNET Libre",
                "type": "Rédaction collaborative (alternative à Google Docs)",
                "software": "Etherpad",
                "open": "Ouvert à tou⋅te⋅s sans inscription",
                "weight": "5",
                "consent": "1",
                "degradability": "Jamais",
                "endpoint": "https://pad.svnet.fr/",
                "edit_link": "https://chatons.org/fr/node/3162/edit",
                "chaton_website": "https://www.svnet.fr"
            }
        },
        {
            "node": {
                "chaton": "ilinux",
                "type": "Rédaction collaborative (alternative à Google Docs)",
                "software": "Etherpad",
                "open": "Ouvert à tou⋅te⋅s sans inscription",
                "weight": "5",
                "consent": "1",
                "degradability": "Jamais",
                "endpoint": "https://texte.ilinux.fr/",
                "edit_link": "https://chatons.org/fr/node/3161/edit",
                "chaton_website": "https://www.ilinux.fr"
            }
        },
        {
            "node": {
                "chaton": "Le Samarien",
                "type": "Rédaction collaborative (alternative à Google Docs)",
                "software": "Etherpad",
                "open": "Ouvert à tou⋅te⋅s sans inscription",
                "weight": "5",
                "consent": "1",
                "degradability": "Jamais",
                "endpoint": "https://pad.lesamarien.fr/",
                "edit_link": "https://chatons.org/fr/node/3160/edit",
                "chaton_website": "https://www.lesamarien.fr"
            }
        },
        {
            "node": {
                "chaton": "Sans-nuage.fr - ARN",
                "type": "Rédaction collaborative (alternative à Google Docs)",
                "software": "Etherpad",
                "open": "Ouvert à tou⋅te⋅s sans inscription",
                "weight": "5",
                "consent": "1",
                "degradability": "Jamais",
                "endpoint": "https://pad.sans-nuage.fr/",
                "edit_link": "https://chatons.org/fr/node/3159/edit",
                "chaton_website": "https://www.arn-fai.net"
            }
        },
        {
            "node": {
                "chaton": "devloprog",
                "type": "Rédaction collaborative (alternative à Google Docs)",
                "software": "Etherpad",
                "open": "Ouvert à tou⋅te⋅s sans inscription",
                "weight": "5",
                "consent": "1",
                "degradability": "Jamais",
                "endpoint": "https://pad.devloprog.org/",
                "edit_link": "https://chatons.org/fr/node/3158/edit",
                "chaton_website": "https://www.devloprog.org"
            }
        },
        {
            "node": {
                "chaton": "Domaine Public",
                "type": "Rédaction collaborative (alternative à Google Docs)",
                "software": "Etherpad",
                "open": "Ouvert à tou⋅te⋅s sans inscription",
                "weight": "5",
                "consent": "1",
                "degradability": "Jamais",
                "endpoint": "https://pads.domainepublic.net/",
                "edit_link": "https://chatons.org/fr/node/3157/edit",
                "chaton_website": "http://www.domainepublic.net"
            }
        },
        {
            "node": {
                "chaton": "Hadoly",
                "type": "Rédaction collaborative (alternative à Google Docs)",
                "software": "Etherpad",
                "open": "Ouvert à tou⋅te⋅s sans inscription",
                "weight": "5",
                "consent": "1",
                "degradability": "Jamais",
                "endpoint": "https://pad.hadoly.fr/",
                "edit_link": "https://chatons.org/fr/node/3156/edit",
                "chaton_website": "https://hadoly.fr"
            }
        },
        {
            "node": {
                "chaton": "Tedomum",
                "type": "Rédaction collaborative (alternative à Google Docs)",
                "software": "Etherpad",
                "open": "Ouvert à tou⋅te⋅s sans inscription",
                "weight": "5",
                "consent": "1",
                "degradability": "Jamais",
                "endpoint": "https://pads.tedomum.net/",
                "edit_link": "https://chatons.org/fr/node/3155/edit",
                "chaton_website": "https://tedomum.net/"
            }
        },
        {
            "node": {
                "chaton": "Alolise",
                "type": "Rédaction collaborative (alternative à Google Docs)",
                "software": "Etherpad",
                "open": "Ouvert à tou⋅te⋅s sans inscription",
                "weight": "5",
                "consent": "1",
                "degradability": "Jamais",
                "endpoint": "https://etherpad.alolise.org/",
                "edit_link": "https://chatons.org/fr/node/3154/edit",
                "chaton_website": "https://www.alolise.org"
            }
        },
        {
            "node": {
                "chaton": "Picasoft",
                "type": "Rédaction collaborative (alternative à Google Docs)",
                "software": "Etherpad",
                "open": "Ouvert à tou⋅te⋅s sans inscription",
                "weight": "5",
                "consent": "1",
                "degradability": "1 semaine",
                "endpoint": "https://week.pad.picasoft.net",
                "edit_link": "https://chatons.org/fr/node/3153/edit",
                "chaton_website": "https://www.picasoft.net"
            }
        },
        {
            "node": {
                "chaton": "Chapril",
                "type": "Rédaction collaborative (alternative à Google Docs)",
                "software": "Etherpad",
                "open": "Ouvert à tou⋅te⋅s sans inscription",
                "weight": "10",
                "consent": "1",
                "degradability": "Jamais",
                "endpoint": "https://pad.chapril.org/",
                "edit_link": "https://chatons.org/fr/node/3152/edit",
                "chaton_website": "https://www.chapril.org/"
            }
        },
        {
            "node": {
                "chaton": "Infini",
                "type": "Rédaction collaborative (alternative à Google Docs)",
                "software": "Etherpad",
                "open": "Ouvert à tou⋅te⋅s sans inscription",
                "weight": "5",
                "consent": "1",
                "degradability": "Jamais",
                "endpoint": "https://lite1.infini.fr/",
                "edit_link": "https://chatons.org/fr/node/3151/edit",
                "chaton_website": "https://www.infini.fr"
            }
        },
        {
            "node": {
                "chaton": "Colibris Outils Libres",
                "type": "Rédaction collaborative (alternative à Google Docs)",
                "software": "Etherpad",
                "open": "Ouvert à tou⋅te⋅s sans inscription",
                "weight": "5",
                "consent": "1",
                "degradability": "6 mois",
                "endpoint": "https://pad.colibris-outilslibres.org/",
                "edit_link": "https://chatons.org/fr/node/3150/edit",
                "chaton_website": "https://www.colibris-outilslibres.org/"
            }
        },
        {
            "node": {
                "chaton": "Framasoft",
                "type": "Visioconférence (alternative à Skype, Hangouts, etc.)",
                "software": "Jitsi Meet",
                "open": "Ouvert à tou⋅te⋅s sans inscription",
                "weight": "5",
                "consent": "1",
                "degradability": "Jamais",
                "endpoint": "https://framatalk.org/accueil/fr/",
                "edit_link": "https://chatons.org/fr/node/3149/edit",
                "chaton_website": "https://framasoft.org"
            }
        },
        {
            "node": {
                "chaton": "Ma Data - Association Défis",
                "type": "Visioconférence (alternative à Skype, Hangouts, etc.)",
                "software": "Jitsi Meet",
                "open": "Ouvert à tou⋅te⋅s sans inscription",
                "weight": "5",
                "consent": "1",
                "degradability": "Jamais",
                "endpoint": "https://videoconf.defis.info",
                "edit_link": "https://chatons.org/fr/node/3148/edit",
                "chaton_website": "https://madata.defis.info"
            }
        },
        {
            "node": {
                "chaton": "SVNET Libre",
                "type": "Visioconférence (alternative à Skype, Hangouts, etc.)",
                "software": "Jitsi Meet",
                "open": "Ouvert à tou⋅te⋅s sans inscription",
                "weight": "5",
                "consent": "1",
                "degradability": "Jamais",
                "endpoint": "https://visio.svnet.fr/",
                "edit_link": "https://chatons.org/fr/node/3147/edit",
                "chaton_website": "https://www.svnet.fr"
            }
        },
        {
            "node": {
                "chaton": "DryCat",
                "type": "Visioconférence (alternative à Skype, Hangouts, etc.)",
                "software": "Jitsi Meet",
                "open": "Ouvert à tou⋅te⋅s sans inscription",
                "weight": "6",
                "consent": "1",
                "degradability": "Jamais",
                "endpoint": "https://meet.drycat.fr/",
                "edit_link": "https://chatons.org/fr/node/3146/edit",
                "chaton_website": "http://www.drycat.fr"
            }
        },
        {
            "node": {
                "chaton": "Algoo",
                "type": "Visioconférence (alternative à Skype, Hangouts, etc.)",
                "software": "Jitsi Meet",
                "open": "Ouvert à tou⋅te⋅s sans inscription",
                "weight": "5",
                "consent": "1",
                "degradability": "Jamais",
                "endpoint": "https://suricate.tv/",
                "edit_link": "https://chatons.org/fr/node/3145/edit",
                "chaton_website": "https://www.algoo.fr/"
            }
        },
        {
            "node": {
                "chaton": "Pâquerette",
                "type": "Visioconférence (alternative à Skype, Hangouts, etc.)",
                "software": "Jitsi Meet",
                "open": "Ouvert à tou⋅te⋅s sans inscription",
                "weight": "5",
                "consent": "1",
                "degradability": "Jamais",
                "endpoint": "https://visio.paquerette.eu/",
                "edit_link": "https://chatons.org/fr/node/3144/edit",
                "chaton_website": "https://paquerette.eu"
            }
        },
        {
            "node": {
                "chaton": "devloprog",
                "type": "Visioconférence (alternative à Skype, Hangouts, etc.)",
                "software": "Jitsi Meet",
                "open": "Ouvert à tou⋅te⋅s sans inscription",
                "weight": "5",
                "consent": "1",
                "degradability": "Jamais",
                "endpoint": "https://meet.devloprog.org/",
                "edit_link": "https://chatons.org/fr/node/3143/edit",
                "chaton_website": "https://www.devloprog.org"
            }
        },
        {
            "node": {
                "chaton": "Hadoly",
                "type": "Visioconférence (alternative à Skype, Hangouts, etc.)",
                "software": "Jitsi Meet",
                "open": "Ouvert à tou⋅te⋅s sans inscription",
                "weight": "5",
                "consent": "1",
                "degradability": "Jamais",
                "endpoint": "https://jitsi.hadoly.fr/",
                "edit_link": "https://chatons.org/fr/node/3142/edit",
                "chaton_website": "https://hadoly.fr"
            }
        },
        {
            "node": {
                "chaton": "roflcopter.fr",
                "type": "Visioconférence (alternative à Skype, Hangouts, etc.)",
                "software": "Jitsi Meet",
                "open": "Ouvert à tou⋅te⋅s sans inscription",
                "weight": "5",
                "consent": "1",
                "degradability": "Jamais",
                "endpoint": "https://meet.roflcopter.fr/",
                "edit_link": "https://chatons.org/fr/node/3141/edit",
                "chaton_website": "https://roflcopter.fr"
            }
        },
        {
            "node": {
                "chaton": "Alolise",
                "type": "Visioconférence (alternative à Skype, Hangouts, etc.)",
                "software": "Jitsi Meet",
                "open": "Ouvert à tou⋅te⋅s sans inscription",
                "weight": "5",
                "consent": "1",
                "degradability": "Jamais",
                "endpoint": "https://meet.alolise.org",
                "edit_link": "https://chatons.org/fr/node/3140/edit",
                "chaton_website": "https://www.alolise.org"
            }
        },
        {
            "node": {
                "chaton": "Artifaille",
                "type": "Visioconférence (alternative à Skype, Hangouts, etc.)",
                "software": "Jitsi Meet",
                "open": "Ouvert à tou⋅te⋅s sans inscription",
                "weight": "3",
                "consent": "1",
                "degradability": "Jamais",
                "endpoint": "https://meet.artifaille.fr",
                "edit_link": "https://chatons.org/fr/node/3139/edit",
                "chaton_website": "https://artifaille.fr"
            }
        },
        {
            "node": {
                "chaton": "Tedomum",
                "type": "Visioconférence (alternative à Skype, Hangouts, etc.)",
                "software": "Jitsi Meet",
                "open": "Ouvert à tou⋅te⋅s sans inscription",
                "weight": "5",
                "consent": "1",
                "degradability": "Jamais",
                "endpoint": "https://meet.tedomum.net/",
                "edit_link": "https://chatons.org/fr/node/3138/edit",
                "chaton_website": "https://tedomum.net/"
            }
        },
        {
            "node": {
                "chaton": "Colibris Outils Libres",
                "type": "Visioconférence (alternative à Skype, Hangouts, etc.)",
                "software": "Jitsi Meet",
                "open": "Ouvert à tou⋅te⋅s sans inscription",
                "weight": "1",
                "consent": "1",
                "degradability": "Jamais",
                "endpoint": "https://visio.colibris-outilslibres.org/",
                "edit_link": "https://chatons.org/fr/node/3137/edit",
                "chaton_website": "https://www.colibris-outilslibres.org/"
            }
        },
        {
            "node": {
                "chaton": "Framasoft",
                "type": "Aide à la prise de rendez-vous (alternative à Doodle)",
                "software": "Framadate",
                "open": "Ouvert à tou⋅te⋅s sans inscription",
                "weight": "1",
                "consent": "1",
                "degradability": "Jamais",
                "endpoint": "https://framadate.org",
                "edit_link": "https://chatons.org/fr/node/3136/edit",
                "chaton_website": "https://framasoft.org"
            }
        }
    ]
}
